tdoa2new.sn-0,   ,230.0
tdoa2new.sn-1,   ,230.0
tdoa2new.sn-2,   ,230.0
tdoa2new.sn-3,   ,230.0
tdoa2new.sn-4,   ,230.0
tdoa2new.sn-5,   ,230.0
tdoa2new.sn-6,   ,230.0
tdoa2new.sn-7,   ,230.0
tdoa2.d0-1,   ,1.2996186017990112
tdoa2.d1-2,   ,-0.9477363228797913
tdoa2.d2-3,   ,3.41091251373291
tdoa2.d3-4,   ,-1.168249249458313
tdoa2.d4-5,   ,-1.248009204864502
tdoa2.d5-6,   ,2.2801973819732666
tdoa2.d6-7,   ,1.0837974548339844
tdoa2.d7-0,   ,0.28150585293769836
tdoa2new.ts-0,   ,-1199505152.0
tdoa2new.ts-1,   ,-1199505152.0
tdoa2new.ts-2,   ,-1199505152.0
tdoa2new.ts-3,   ,-1199505152.0
tdoa2new.ts-4,   ,-1199505152.0
tdoa2new.ts-5,   ,-1199505152.0
tdoa2new.ts-6,   ,-1199505152.0
tdoa2new.ts-7,   ,-1199505152.0
tdoa2new.sn-0,   ,230.0
tdoa2new.sn-1,   ,230.0
tdoa2new.sn-2,   ,230.0
tdoa2new.sn-3,   ,230.0
tdoa2new.sn-4,   ,230.0
tdoa2new.sn-5,   ,230.0
tdoa2new.sn-6,   ,230.0
tdoa2new.sn-7,   ,230.0
tdoa2.d0-1,   ,1.2996186017990112
tdoa2.d1-2,   ,-0.9477363228797913
tdoa2.d2-3,   ,3.41091251373291
tdoa2.d3-4,   ,-1.168249249458313
tdoa2.d4-5,   ,-1.248009204864502
tdoa2.d5-6,   ,2.2801973819732666
tdoa2.d6-7,   ,1.0837974548339844
tdoa2.d7-0,   ,0.28150585293769836
tdoa2new.ts-0,   ,-1199505152.0
tdoa2new.ts-1,   ,-1199505152.0
tdoa2new.ts-2,   ,-1199505152.0
tdoa2new.ts-3,   ,-1199505152.0
tdoa2new.ts-4,   ,-1199505152.0
tdoa2new.ts-5,   ,-1199505152.0
tdoa2new.ts-6,   ,-1199505152.0
tdoa2new.ts-7,   ,-1199505152.0
tdoa2new.sn-0,   ,230.0
tdoa2new.sn-1,   ,230.0
tdoa2new.sn-2,   ,230.0
tdoa2new.sn-3,   ,230.0
tdoa2new.sn-4,   ,230.0
tdoa2new.sn-5,   ,230.0
tdoa2new.sn-6,   ,230.0
tdoa2new.sn-7,   ,230.0
tdoa2.d0-1,   ,1.2996186017990112
tdoa2.d1-2,   ,-0.9477363228797913
tdoa2.d2-3,   ,3.41091251373291
tdoa2.d3-4,   ,-1.168249249458313
tdoa2.d4-5,   ,-1.248009204864502
tdoa2.d5-6,   ,2.2801973819732666
tdoa2.d6-7,   ,1.0837974548339844
tdoa2.d7-0,   ,0.28150585293769836
tdoa2new.ts-0,   ,-1199505152.0
tdoa2new.ts-1,   ,-1199505152.0
tdoa2new.ts-2,   ,-1199505152.0
tdoa2new.ts-3,   ,-1199505152.0
tdoa2new.ts-4,   ,-1199505152.0
tdoa2new.ts-5,   ,-1199505152.0
tdoa2new.ts-6,   ,-1199505152.0
tdoa2new.ts-7,   ,-1199505152.0
tdoa2new.sn-0,   ,230.0
tdoa2new.sn-1,   ,230.0
tdoa2new.sn-2,   ,230.0
tdoa2new.sn-3,   ,230.0
tdoa2new.sn-4,   ,230.0
tdoa2new.sn-5,   ,230.0
tdoa2new.sn-6,   ,230.0
tdoa2new.sn-7,   ,230.0
tdoa2.d0-1,   ,1.2996186017990112
tdoa2.d1-2,   ,-0.9477363228797913
tdoa2.d2-3,   ,3.41091251373291
tdoa2.d3-4,   ,-1.168249249458313
tdoa2.d4-5,   ,-1.248009204864502
tdoa2.d5-6,   ,2.2801973819732666
tdoa2.d6-7,   ,1.0837974548339844
tdoa2.d7-0,   ,0.28150585293769836
tdoa2new.ts-0,   ,-1199505152.0
tdoa2new.ts-1,   ,-1199505152.0
tdoa2new.ts-2,   ,-1199505152.0
tdoa2new.ts-3,   ,-1199505152.0
tdoa2new.ts-4,   ,-1199505152.0
tdoa2new.ts-5,   ,-1199505152.0
tdoa2new.ts-6,   ,-1199505152.0
tdoa2new.ts-7,   ,-1199505152.0
tdoa2new.sn-0,   ,230.0
tdoa2new.sn-1,   ,230.0
tdoa2new.sn-2,   ,230.0
tdoa2new.sn-3,   ,230.0
tdoa2new.sn-4,   ,230.0
tdoa2new.sn-5,   ,230.0
tdoa2new.sn-6,   ,230.0
tdoa2new.sn-7,   ,230.0
tdoa2.d0-1,   ,1.2996186017990112
tdoa2.d1-2,   ,-0.9477363228797913
tdoa2.d2-3,   ,3.41091251373291
tdoa2.d3-4,   ,-1.168249249458313
tdoa2.d4-5,   ,-1.248009204864502
tdoa2.d5-6,   ,2.2801973819732666
tdoa2.d6-7,   ,1.0837974548339844
tdoa2.d7-0,   ,0.28150585293769836
tdoa2new.ts-0,   ,-1199505152.0
tdoa2new.ts-1,   ,-1199505152.0
tdoa2new.ts-2,   ,-1199505152.0
tdoa2new.ts-3,   ,-1199505152.0
tdoa2new.ts-4,   ,-1199505152.0
tdoa2new.ts-5,   ,-1199505152.0
tdoa2new.ts-6,   ,-1199505152.0
tdoa2new.ts-7,   ,-1199505152.0
tdoa2new.sn-0,   ,230.0
tdoa2new.sn-1,   ,230.0
tdoa2new.sn-2,   ,230.0
tdoa2new.sn-3,   ,230.0
tdoa2new.sn-4,   ,230.0
tdoa2new.sn-5,   ,230.0
tdoa2new.sn-6,   ,230.0
tdoa2new.sn-7,   ,230.0
tdoa2.d0-1,   ,1.2996186017990112
tdoa2.d1-2,   ,-0.9477363228797913
tdoa2.d2-3,   ,3.41091251373291
tdoa2.d3-4,   ,-1.168249249458313
tdoa2.d4-5,   ,-1.248009204864502
tdoa2.d5-6,   ,2.2801973819732666
tdoa2.d6-7,   ,1.0837974548339844
tdoa2.d7-0,   ,0.28150585293769836
tdoa2new.ts-0,   ,-1199505152.0
tdoa2new.ts-1,   ,-1199505152.0
tdoa2new.ts-2,   ,-1199505152.0
tdoa2new.ts-3,   ,-1199505152.0
tdoa2new.ts-4,   ,-1199505152.0
tdoa2new.ts-5,   ,-1199505152.0
tdoa2new.ts-6,   ,-1199505152.0
tdoa2new.ts-7,   ,-1199505152.0
tdoa2new.sn-0,   ,230.0
tdoa2new.sn-1,   ,230.0
tdoa2new.sn-2,   ,230.0
tdoa2new.sn-3,   ,230.0
tdoa2new.sn-4,   ,230.0
tdoa2new.sn-5,   ,230.0
tdoa2new.sn-6,   ,230.0
tdoa2new.sn-7,   ,230.0
tdoa2.d0-1,   ,1.2996186017990112
tdoa2.d1-2,   ,-0.9477363228797913
tdoa2.d2-3,   ,3.41091251373291
tdoa2.d3-4,   ,-1.168249249458313
tdoa2.d4-5,   ,-1.248009204864502
tdoa2.d5-6,   ,2.2801973819732666
tdoa2.d6-7,   ,1.0837974548339844
tdoa2.d7-0,   ,0.28150585293769836
tdoa2new.ts-0,   ,-1199505152.0
tdoa2new.ts-1,   ,-1199505152.0
tdoa2new.ts-2,   ,-1199505152.0
tdoa2new.ts-3,   ,-1199505152.0
tdoa2new.ts-4,   ,-1199505152.0
tdoa2new.ts-5,   ,-1199505152.0
tdoa2new.ts-6,   ,-1199505152.0
tdoa2new.ts-7,   ,-1199505152.0
tdoa2new.sn-0,   ,230.0
tdoa2new.sn-1,   ,230.0
tdoa2new.sn-2,   ,230.0
tdoa2new.sn-3,   ,230.0
tdoa2new.sn-4,   ,230.0
tdoa2new.sn-5,   ,230.0
tdoa2new.sn-6,   ,230.0
tdoa2new.sn-7,   ,230.0
tdoa2.d0-1,   ,1.2996186017990112
tdoa2.d1-2,   ,-0.9477363228797913
tdoa2.d2-3,   ,3.41091251373291
tdoa2.d3-4,   ,-1.168249249458313
tdoa2.d4-5,   ,-1.248009204864502
tdoa2.d5-6,   ,2.2801973819732666
tdoa2.d6-7,   ,1.0837974548339844
tdoa2.d7-0,   ,0.28150585293769836
tdoa2new.ts-0,   ,-1199505152.0
tdoa2new.ts-1,   ,-1199505152.0
tdoa2new.ts-2,   ,-1199505152.0
tdoa2new.ts-3,   ,-1199505152.0
tdoa2new.ts-4,   ,-1199505152.0
tdoa2new.ts-5,   ,-1199505152.0
tdoa2new.ts-6,   ,-1199505152.0
tdoa2new.ts-7,   ,-1199505152.0
tdoa2new.sn-0,   ,230.0
tdoa2new.sn-1,   ,230.0
tdoa2new.sn-2,   ,230.0
tdoa2new.sn-3,   ,230.0
tdoa2new.sn-4,   ,230.0
tdoa2new.sn-5,   ,230.0
tdoa2new.sn-6,   ,230.0
tdoa2new.sn-7,   ,230.0
tdoa2.d0-1,   ,1.2996186017990112
tdoa2.d1-2,   ,-0.9477363228797913
tdoa2.d2-3,   ,3.41091251373291
tdoa2.d3-4,   ,-1.168249249458313
tdoa2.d4-5,   ,-1.248009204864502
tdoa2.d5-6,   ,2.2801973819732666
tdoa2.d6-7,   ,1.0837974548339844
tdoa2.d7-0,   ,0.28150585293769836
tdoa2new.ts-0,   ,-1199505152.0
tdoa2new.ts-1,   ,-1199505152.0
tdoa2new.ts-2,   ,-1199505152.0
tdoa2new.ts-3,   ,-1199505152.0
tdoa2new.ts-4,   ,-1199505152.0
tdoa2new.ts-5,   ,-1199505152.0
tdoa2new.ts-6,   ,-1199505152.0
tdoa2new.ts-7,   ,-1199505152.0
tdoa2new.sn-0,   ,230.0
tdoa2new.sn-1,   ,230.0
tdoa2new.sn-2,   ,230.0
tdoa2new.sn-3,   ,230.0
tdoa2new.sn-4,   ,230.0
tdoa2new.sn-5,   ,230.0
tdoa2new.sn-6,   ,230.0
tdoa2new.sn-7,   ,230.0
tdoa2.d0-1,   ,1.2996186017990112
tdoa2.d1-2,   ,-0.9477363228797913
tdoa2.d2-3,   ,3.41091251373291
tdoa2.d3-4,   ,-1.168249249458313
tdoa2.d4-5,   ,-1.248009204864502
tdoa2.d5-6,   ,2.2801973819732666
tdoa2.d6-7,   ,1.0837974548339844
tdoa2.d7-0,   ,0.28150585293769836
tdoa2new.ts-0,   ,-1199505152.0
tdoa2new.ts-1,   ,-1199505152.0
tdoa2new.ts-2,   ,-1199505152.0
tdoa2new.ts-3,   ,-1199505152.0
tdoa2new.ts-4,   ,-1199505152.0
tdoa2new.ts-5,   ,-1199505152.0
tdoa2new.ts-6,   ,-1199505152.0
tdoa2new.ts-7,   ,-1199505152.0
tdoa2new.sn-0,   ,230.0
tdoa2new.sn-1,   ,230.0
tdoa2new.sn-2,   ,230.0
tdoa2new.sn-3,   ,230.0
tdoa2new.sn-4,   ,230.0
tdoa2new.sn-5,   ,230.0
tdoa2new.sn-6,   ,230.0
tdoa2new.sn-7,   ,230.0
tdoa2.d0-1,   ,1.2996186017990112
tdoa2.d1-2,   ,-0.9477363228797913
tdoa2.d2-3,   ,3.41091251373291
tdoa2.d3-4,   ,-1.168249249458313
tdoa2.d4-5,   ,-1.248009204864502
tdoa2.d5-6,   ,2.2801973819732666
tdoa2.d6-7,   ,1.0837974548339844
tdoa2.d7-0,   ,0.28150585293769836
tdoa2new.ts-0,   ,-1199505152.0
tdoa2new.ts-1,   ,-1199505152.0
tdoa2new.ts-2,   ,-1199505152.0
tdoa2new.ts-3,   ,-1199505152.0
tdoa2new.ts-4,   ,-1199505152.0
tdoa2new.ts-5,   ,-1199505152.0
tdoa2new.ts-6,   ,-1199505152.0
tdoa2new.ts-7,   ,-1199505152.0
tdoa2new.sn-0,   ,230.0
tdoa2new.sn-1,   ,230.0
tdoa2new.sn-2,   ,230.0
tdoa2new.sn-3,   ,230.0
tdoa2new.sn-4,   ,230.0
tdoa2new.sn-5,   ,230.0
tdoa2new.sn-6,   ,230.0
tdoa2new.sn-7,   ,230.0
tdoa2.d0-1,   ,1.2996186017990112
tdoa2.d1-2,   ,-0.9477363228797913
tdoa2.d2-3,   ,3.41091251373291
tdoa2.d3-4,   ,-1.168249249458313
tdoa2.d4-5,   ,-1.248009204864502
tdoa2.d5-6,   ,2.2801973819732666
tdoa2.d6-7,   ,1.0837974548339844
tdoa2.d7-0,   ,0.28150585293769836
tdoa2new.ts-0,   ,-1199505152.0
tdoa2new.ts-1,   ,-1199505152.0
tdoa2new.ts-2,   ,-1199505152.0
tdoa2new.ts-3,   ,-1199505152.0
tdoa2new.ts-4,   ,-1199505152.0
tdoa2new.ts-5,   ,-1199505152.0
tdoa2new.ts-6,   ,-1199505152.0
tdoa2new.ts-7,   ,-1199505152.0
tdoa2new.sn-0,   ,230.0
tdoa2new.sn-1,   ,230.0
tdoa2new.sn-2,   ,230.0
tdoa2new.sn-3,   ,230.0
tdoa2new.sn-4,   ,230.0
tdoa2new.sn-5,   ,230.0
tdoa2new.sn-6,   ,230.0
tdoa2new.sn-7,   ,230.0
tdoa2.d0-1,   ,1.2996186017990112
tdoa2.d1-2,   ,-0.9477363228797913
tdoa2.d2-3,   ,3.41091251373291
tdoa2.d3-4,   ,-1.168249249458313
tdoa2.d4-5,   ,-1.248009204864502
tdoa2.d5-6,   ,2.2708137035369873
tdoa2.d6-7,   ,1.0837974548339844
tdoa2.d7-0,   ,0.28150585293769836
tdoa2new.ts-0,   ,-1199505152.0
tdoa2new.ts-1,   ,-1199505152.0
tdoa2new.ts-2,   ,-1199505152.0
tdoa2new.ts-3,   ,-1199505152.0
tdoa2new.ts-4,   ,-1199505152.0
tdoa2new.ts-5,   ,-1199505152.0
tdoa2new.ts-6,   ,-1199505152.0
tdoa2new.ts-7,   ,-1199505152.0
tdoa2new.sn-0,   ,230.0
tdoa2new.sn-1,   ,230.0
tdoa2new.sn-2,   ,230.0
tdoa2new.sn-3,   ,230.0
tdoa2new.sn-4,   ,230.0
tdoa2new.sn-5,   ,230.0
tdoa2new.sn-6,   ,230.0
tdoa2new.sn-7,   ,230.0
tdoa2.d0-1,   ,1.2996186017990112
tdoa2.d1-2,   ,-0.9477363228797913
tdoa2.d2-3,   ,3.41091251373291
tdoa2.d3-4,   ,-0.6896892786026001
tdoa2.d4-5,   ,-1.248009204864502
tdoa2.d5-6,   ,2.2708137035369873
tdoa2.d6-7,   ,1.0837974548339844
tdoa2.d7-0,   ,0.28150585293769836
tdoa2new.ts-0,   ,-1199505152.0
tdoa2new.ts-1,   ,-1199505152.0
tdoa2new.ts-2,   ,-1199505152.0
tdoa2new.ts-3,   ,-1199505152.0
tdoa2new.ts-4,   ,-1199505152.0
tdoa2new.ts-5,   ,-1199505152.0
tdoa2new.ts-6,   ,-1199505152.0
tdoa2new.ts-7,   ,-1199505152.0
tdoa2new.sn-0,   ,230.0
tdoa2new.sn-1,   ,230.0
tdoa2new.sn-2,   ,230.0
tdoa2new.sn-3,   ,230.0
tdoa2new.sn-4,   ,230.0
tdoa2new.sn-5,   ,230.0
tdoa2new.sn-6,   ,230.0
tdoa2new.sn-7,   ,230.0
tdoa2.d0-1,   ,1.2996186017990112
tdoa2.d1-2,   ,-0.9477363228797913
tdoa2.d2-3,   ,3.41091251373291
tdoa2.d3-4,   ,-0.6896892786026001
tdoa2.d4-5,   ,-1.248009204864502
tdoa2.d5-6,   ,2.2708137035369873
tdoa2.d6-7,   ,1.0837974548339844
tdoa2.d7-0,   ,0.28150585293769836
tdoa2new.ts-0,   ,-1199505152.0
tdoa2new.ts-1,   ,-1199505152.0
tdoa2new.ts-2,   ,-1199505152.0
tdoa2new.ts-3,   ,-1199505152.0
tdoa2new.ts-4,   ,-1199505152.0
tdoa2new.ts-5,   ,-1199505152.0
tdoa2new.ts-6,   ,-1199505152.0
tdoa2new.ts-7,   ,-1199505152.0
tdoa2new.sn-0,   ,230.0
tdoa2new.sn-1,   ,230.0
tdoa2new.sn-2,   ,230.0
tdoa2new.sn-3,   ,230.0
tdoa2new.sn-4,   ,230.0
tdoa2new.sn-5,   ,230.0
tdoa2new.sn-6,   ,230.0
tdoa2new.sn-7,   ,230.0
tdoa2.d0-1,   ,1.2996186017990112
tdoa2.d1-2,   ,-0.9477363228797913
tdoa2.d2-3,   ,3.41091251373291
tdoa2.d3-4,   ,-0.6896892786026001
tdoa2.d4-5,   ,-1.248009204864502
tdoa2.d5-6,   ,2.2708137035369873
tdoa2.d6-7,   ,1.0837974548339844
tdoa2.d7-0,   ,0.28150585293769836
tdoa2new.ts-0,   ,-1199505152.0
tdoa2new.ts-1,   ,-1199505152.0
tdoa2new.ts-2,   ,-1199505152.0
tdoa2new.ts-3,   ,-1199505152.0
tdoa2new.ts-4,   ,-1199505152.0
tdoa2new.ts-5,   ,-1199505152.0
tdoa2new.ts-6,   ,-1199505152.0
tdoa2new.ts-7,   ,-1199505152.0
tdoa2new.sn-0,   ,230.0
tdoa2new.sn-1,   ,230.0
tdoa2new.sn-2,   ,230.0
tdoa2new.sn-3,   ,230.0
tdoa2new.sn-4,   ,230.0
tdoa2new.sn-5,   ,230.0
tdoa2new.sn-6,   ,230.0
tdoa2new.sn-7,   ,230.0
tdoa2.d0-1,   ,1.2996186017990112
tdoa2.d1-2,   ,-0.9477363228797913
tdoa2.d2-3,   ,3.41091251373291
tdoa2.d3-4,   ,-0.6896892786026001
tdoa2.d4-5,   ,-1.248009204864502
tdoa2.d5-6,   ,2.2708137035369873
tdoa2.d6-7,   ,1.0837974548339844
tdoa2.d7-0,   ,0.28150585293769836
tdoa2new.ts-0,   ,-1199505152.0
tdoa2new.ts-1,   ,-1199505152.0
tdoa2new.ts-2,   ,-1199505152.0
tdoa2new.ts-3,   ,-1199505152.0
tdoa2new.ts-4,   ,-1199505152.0
tdoa2new.ts-5,   ,-1199505152.0
tdoa2new.ts-6,   ,-1199505152.0
tdoa2new.ts-7,   ,-1199505152.0
tdoa2new.sn-0,   ,230.0
tdoa2new.sn-1,   ,230.0
tdoa2new.sn-2,   ,230.0
tdoa2new.sn-3,   ,230.0
tdoa2new.sn-4,   ,230.0
tdoa2new.sn-5,   ,230.0
tdoa2new.sn-6,   ,230.0
tdoa2new.sn-7,   ,230.0
tdoa2.d0-1,   ,1.2996186017990112
tdoa2.d1-2,   ,-0.9477363228797913
tdoa2.d2-3,   ,3.41091251373291
tdoa2.d3-4,   ,-0.6896892786026001
tdoa2.d4-5,   ,-1.248009204864502
tdoa2.d5-6,   ,2.322423219680786
tdoa2.d6-7,   ,1.0837974548339844
tdoa2.d7-0,   ,0.28150585293769836
tdoa2new.ts-0,   ,-1199505152.0
tdoa2new.ts-1,   ,-1199505152.0
tdoa2new.ts-2,   ,-1199505152.0
tdoa2new.ts-3,   ,-1199505152.0
tdoa2new.ts-4,   ,-1199505152.0
tdoa2new.ts-5,   ,-1199505152.0
tdoa2new.ts-6,   ,-1199505152.0
tdoa2new.ts-7,   ,-1199505152.0
tdoa2new.sn-0,   ,230.0
tdoa2new.sn-1,   ,230.0
tdoa2new.sn-2,   ,230.0
tdoa2new.sn-3,   ,230.0
tdoa2new.sn-4,   ,230.0
tdoa2new.sn-5,   ,230.0
tdoa2new.sn-6,   ,230.0
tdoa2new.sn-7,   ,230.0
tdoa2.d0-1,   ,1.2996186017990112
tdoa2.d1-2,   ,-0.9477363228797913
tdoa2.d2-3,   ,3.41091251373291
tdoa2.d3-4,   ,-0.6896892786026001
tdoa2.d4-5,   ,-1.248009204864502
tdoa2.d5-6,   ,2.322423219680786
tdoa2.d6-7,   ,1.0837974548339844
tdoa2.d7-0,   ,0.28150585293769836
tdoa2new.ts-0,   ,-1199505152.0
tdoa2new.ts-1,   ,-1199505152.0
tdoa2new.ts-2,   ,-1199505152.0
tdoa2new.ts-3,   ,-1199505152.0
tdoa2new.ts-4,   ,-1199505152.0
tdoa2new.ts-5,   ,-1199505152.0
tdoa2new.ts-6,   ,-1199505152.0
tdoa2new.ts-7,   ,-1199505152.0
tdoa2new.sn-0,   ,255.0
tdoa2new.sn-1,   ,255.0
tdoa2new.sn-2,   ,255.0
tdoa2new.sn-3,   ,255.0
tdoa2new.sn-4,   ,255.0
tdoa2new.sn-5,   ,255.0
tdoa2new.sn-6,   ,255.0
tdoa2new.sn-7,   ,255.0
tdoa2.d0-1,   ,1.2996186017990112
tdoa2.d1-2,   ,-0.9477363228797913
tdoa2.d2-3,   ,3.41091251373291
tdoa2.d3-4,   ,-0.6896892786026001
tdoa2.d4-5,   ,-1.248009204864502
tdoa2.d5-6,   ,2.322423219680786
tdoa2.d6-7,   ,1.0837974548339844
tdoa2.d7-0,   ,0.28150585293769836
tdoa2new.ts-0,   ,-125763632.0
tdoa2new.ts-1,   ,-125763632.0
tdoa2new.ts-2,   ,-125763632.0
tdoa2new.ts-3,   ,-125763632.0
tdoa2new.ts-4,   ,-125763632.0
tdoa2new.ts-5,   ,-125763632.0
tdoa2new.ts-6,   ,-125763632.0
tdoa2new.ts-7,   ,-125763632.0
tdoa2new.sn-0,   ,255.0
tdoa2new.sn-1,   ,255.0
tdoa2new.sn-2,   ,255.0
tdoa2new.sn-3,   ,255.0
tdoa2new.sn-4,   ,255.0
tdoa2new.sn-5,   ,255.0
tdoa2new.sn-6,   ,255.0
tdoa2new.sn-7,   ,255.0
tdoa2.d0-1,   ,1.2996186017990112
tdoa2.d1-2,   ,-0.9477363228797913
tdoa2.d2-3,   ,3.41091251373291
tdoa2.d3-4,   ,-0.6896892786026001
tdoa2.d4-5,   ,-1.248009204864502
tdoa2.d5-6,   ,2.322423219680786
tdoa2.d6-7,   ,1.0837974548339844
tdoa2.d7-0,   ,0.28150585293769836
tdoa2new.ts-0,   ,-125763632.0
tdoa2new.ts-1,   ,-125763632.0
tdoa2new.ts-2,   ,-125763632.0
tdoa2new.ts-3,   ,-125763632.0
tdoa2new.ts-4,   ,-125763632.0
tdoa2new.ts-5,   ,-125763632.0
tdoa2new.ts-6,   ,-125763632.0
tdoa2new.ts-7,   ,-125763632.0
tdoa2new.sn-0,   ,255.0
tdoa2new.sn-1,   ,255.0
tdoa2new.sn-2,   ,255.0
tdoa2new.sn-3,   ,255.0
tdoa2new.sn-4,   ,255.0
tdoa2new.sn-5,   ,255.0
tdoa2new.sn-6,   ,255.0
tdoa2new.sn-7,   ,255.0
tdoa2.d0-1,   ,1.2996186017990112
tdoa2.d1-2,   ,-0.9477363228797913
tdoa2.d2-3,   ,3.41091251373291
tdoa2.d3-4,   ,-0.6896892786026001
tdoa2.d4-5,   ,-1.248009204864502
tdoa2.d5-6,   ,2.322423219680786
tdoa2.d6-7,   ,1.0837974548339844
tdoa2.d7-0,   ,0.28150585293769836
tdoa2new.ts-0,   ,-125763632.0
tdoa2new.ts-1,   ,-125763632.0
tdoa2new.ts-2,   ,-125763632.0
tdoa2new.ts-3,   ,-125763632.0
tdoa2new.ts-4,   ,-125763632.0
tdoa2new.ts-5,   ,-125763632.0
tdoa2new.ts-6,   ,-125763632.0
tdoa2new.ts-7,   ,-125763632.0
tdoa2new.sn-0,   ,255.0
tdoa2new.sn-1,   ,255.0
tdoa2new.sn-2,   ,255.0
tdoa2new.sn-3,   ,255.0
tdoa2new.sn-4,   ,255.0
tdoa2new.sn-5,   ,255.0
tdoa2new.sn-6,   ,255.0
tdoa2new.sn-7,   ,255.0
tdoa2.d0-1,   ,1.2996186017990112
tdoa2.d1-2,   ,-0.9477363228797913
tdoa2.d2-3,   ,3.41091251373291
tdoa2.d3-4,   ,-0.6896892786026001
tdoa2.d4-5,   ,-1.248009204864502
tdoa2.d5-6,   ,2.322423219680786
tdoa2.d6-7,   ,1.0837974548339844
tdoa2.d7-0,   ,0.28150585293769836
tdoa2new.ts-0,   ,-125763632.0
tdoa2new.ts-1,   ,-125763632.0
tdoa2new.ts-2,   ,-125763632.0
tdoa2new.ts-3,   ,-125763632.0
tdoa2new.ts-4,   ,-125763632.0
tdoa2new.ts-5,   ,-125763632.0
tdoa2new.ts-6,   ,-125763632.0
tdoa2new.ts-7,   ,-125763632.0
tdoa2new.sn-0,   ,255.0
tdoa2new.sn-1,   ,255.0
tdoa2new.sn-2,   ,255.0
tdoa2new.sn-3,   ,255.0
tdoa2new.sn-4,   ,255.0
tdoa2new.sn-5,   ,255.0
tdoa2new.sn-6,   ,255.0
tdoa2new.sn-7,   ,255.0
tdoa2.d0-1,   ,1.2996186017990112
tdoa2.d1-2,   ,-0.9477363228797913
tdoa2.d2-3,   ,3.41091251373291
tdoa2.d3-4,   ,-0.6896892786026001
tdoa2.d4-5,   ,-1.309002161026001
tdoa2.d5-6,   ,2.322423219680786
tdoa2.d6-7,   ,1.0837974548339844
tdoa2.d7-0,   ,0.28150585293769836
tdoa2new.ts-0,   ,-125763632.0
tdoa2new.ts-1,   ,-125763632.0
tdoa2new.ts-2,   ,-125763632.0
tdoa2new.ts-3,   ,-125763632.0
tdoa2new.ts-4,   ,-125763632.0
tdoa2new.ts-5,   ,-125763632.0
tdoa2new.ts-6,   ,-125763632.0
tdoa2new.ts-7,   ,-125763632.0
tdoa2new.sn-0,   ,255.0
tdoa2new.sn-1,   ,255.0
tdoa2new.sn-2,   ,255.0
tdoa2new.sn-3,   ,255.0
tdoa2new.sn-4,   ,255.0
tdoa2new.sn-5,   ,255.0
tdoa2new.sn-6,   ,255.0
tdoa2new.sn-7,   ,255.0
tdoa2.d0-1,   ,1.2996186017990112
tdoa2.d1-2,   ,-0.9477363228797913
tdoa2.d2-3,   ,3.41091251373291
tdoa2.d3-4,   ,-0.6896892786026001
tdoa2.d4-5,   ,-1.309002161026001
tdoa2.d5-6,   ,2.2426631450653076
tdoa2.d6-7,   ,1.0837974548339844
tdoa2.d7-0,   ,0.28150585293769836
tdoa2new.ts-0,   ,-125763632.0
tdoa2new.ts-1,   ,-125763632.0
tdoa2new.ts-2,   ,-125763632.0
tdoa2new.ts-3,   ,-125763632.0
tdoa2new.ts-4,   ,-125763632.0
tdoa2new.ts-5,   ,-125763632.0
tdoa2new.ts-6,   ,-125763632.0
tdoa2new.ts-7,   ,-125763632.0
tdoa2new.sn-0,   ,255.0
tdoa2new.sn-1,   ,255.0
tdoa2new.sn-2,   ,255.0
tdoa2new.sn-3,   ,255.0
tdoa2new.sn-4,   ,255.0
tdoa2new.sn-5,   ,255.0
tdoa2new.sn-6,   ,255.0
tdoa2new.sn-7,   ,255.0
tdoa2.d0-1,   ,1.2996186017990112
tdoa2.d1-2,   ,-0.9477363228797913
tdoa2.d2-3,   ,3.41091251373291
tdoa2.d3-4,   ,-0.6896892786026001
tdoa2.d4-5,   ,-1.309002161026001
tdoa2.d5-6,   ,2.2426631450653076
tdoa2.d6-7,   ,1.0837974548339844
tdoa2.d7-0,   ,0.28150585293769836
tdoa2new.ts-0,   ,-125763632.0
tdoa2new.ts-1,   ,-125763632.0
tdoa2new.ts-2,   ,-125763632.0
tdoa2new.ts-3,   ,-125763632.0
tdoa2new.ts-4,   ,-125763632.0
tdoa2new.ts-5,   ,-125763632.0
tdoa2new.ts-6,   ,-125763632.0
tdoa2new.ts-7,   ,-125763632.0
tdoa2new.sn-0,   ,255.0
tdoa2new.sn-1,   ,255.0
tdoa2new.sn-2,   ,255.0
tdoa2new.sn-3,   ,255.0
tdoa2new.sn-4,   ,255.0
tdoa2new.sn-5,   ,255.0
tdoa2new.sn-6,   ,255.0
tdoa2new.sn-7,   ,255.0
tdoa2.d0-1,   ,1.2996186017990112
tdoa2.d1-2,   ,-0.9477363228797913
tdoa2.d2-3,   ,3.41091251373291
tdoa2.d3-4,   ,-0.6896892786026001
tdoa2.d4-5,   ,-1.309002161026001
tdoa2.d5-6,   ,2.2426631450653076
tdoa2.d6-7,   ,1.0837974548339844
tdoa2.d7-0,   ,0.28150585293769836
tdoa2new.ts-0,   ,-125763632.0
tdoa2new.ts-1,   ,-125763632.0
tdoa2new.ts-2,   ,-125763632.0
tdoa2new.ts-3,   ,-125763632.0
tdoa2new.ts-4,   ,-125763632.0
tdoa2new.ts-5,   ,-125763632.0
tdoa2new.ts-6,   ,-125763632.0
tdoa2new.ts-7,   ,-125763632.0
tdoa2new.sn-0,   ,255.0
tdoa2new.sn-1,   ,255.0
tdoa2new.sn-2,   ,255.0
tdoa2new.sn-3,   ,255.0
tdoa2new.sn-4,   ,255.0
tdoa2new.sn-5,   ,255.0
tdoa2new.sn-6,   ,255.0
tdoa2new.sn-7,   ,255.0
tdoa2.d0-1,   ,1.2996186017990112
tdoa2.d1-2,   ,-0.9477363228797913
tdoa2.d2-3,   ,3.41091251373291
tdoa2.d3-4,   ,-0.6896892786026001
tdoa2.d4-5,   ,-1.309002161026001
tdoa2.d5-6,   ,2.2426631450653076
tdoa2.d6-7,   ,1.0837974548339844
tdoa2.d7-0,   ,0.28150585293769836
tdoa2new.ts-0,   ,-125763632.0
tdoa2new.ts-1,   ,-125763632.0
tdoa2new.ts-2,   ,-125763632.0
tdoa2new.ts-3,   ,-125763632.0
tdoa2new.ts-4,   ,-125763632.0
tdoa2new.ts-5,   ,-125763632.0
tdoa2new.ts-6,   ,-125763632.0
tdoa2new.ts-7,   ,-125763632.0
tdoa2new.sn-0,   ,255.0
tdoa2new.sn-1,   ,255.0
tdoa2new.sn-2,   ,255.0
tdoa2new.sn-3,   ,255.0
tdoa2new.sn-4,   ,255.0
tdoa2new.sn-5,   ,255.0
tdoa2new.sn-6,   ,255.0
tdoa2new.sn-7,   ,255.0
tdoa2.d0-1,   ,1.2996186017990112
tdoa2.d1-2,   ,-0.9477363228797913
tdoa2.d2-3,   ,3.41091251373291
tdoa2.d3-4,   ,-0.6896892786026001
tdoa2.d4-5,   ,-1.309002161026001
tdoa2.d5-6,   ,2.2426631450653076
tdoa2.d6-7,   ,1.0837974548339844
tdoa2.d7-0,   ,0.28150585293769836
tdoa2new.ts-0,   ,-125763632.0
tdoa2new.ts-1,   ,-125763632.0
tdoa2new.ts-2,   ,-125763632.0
tdoa2new.ts-3,   ,-125763632.0
tdoa2new.ts-4,   ,-125763632.0
tdoa2new.ts-5,   ,-125763632.0
tdoa2new.ts-6,   ,-125763632.0
tdoa2new.ts-7,   ,-125763632.0
tdoa2new.sn-0,   ,255.0
tdoa2new.sn-1,   ,255.0
tdoa2new.sn-2,   ,255.0
tdoa2new.sn-3,   ,255.0
tdoa2new.sn-4,   ,255.0
tdoa2new.sn-5,   ,255.0
tdoa2new.sn-6,   ,255.0
tdoa2new.sn-7,   ,255.0
tdoa2.d0-1,   ,1.2996186017990112
tdoa2.d1-2,   ,-0.9477363228797913
tdoa2.d2-3,   ,3.41091251373291
tdoa2.d3-4,   ,-0.6896892786026001
tdoa2.d4-5,   ,-1.309002161026001
tdoa2.d5-6,   ,2.2426631450653076
tdoa2.d6-7,   ,1.0837974548339844
tdoa2.d7-0,   ,0.28150585293769836
tdoa2new.ts-0,   ,-125763632.0
tdoa2new.ts-1,   ,-125763632.0
tdoa2new.ts-2,   ,-125763632.0
tdoa2new.ts-3,   ,-125763632.0
tdoa2new.ts-4,   ,-125763632.0
tdoa2new.ts-5,   ,-125763632.0
tdoa2new.ts-6,   ,-125763632.0
tdoa2new.ts-7,   ,-125763632.0
tdoa2new.sn-0,   ,255.0
tdoa2new.sn-1,   ,255.0
tdoa2new.sn-2,   ,255.0
tdoa2new.sn-3,   ,255.0
tdoa2new.sn-4,   ,255.0
tdoa2new.sn-5,   ,255.0
tdoa2new.sn-6,   ,255.0
tdoa2new.sn-7,   ,255.0
tdoa2.d0-1,   ,1.2996186017990112
tdoa2.d1-2,   ,-0.9477363228797913
tdoa2.d2-3,   ,3.41091251373291
tdoa2.d3-4,   ,-0.6896892786026001
tdoa2.d4-5,   ,-1.309002161026001
tdoa2.d5-6,   ,2.2426631450653076
tdoa2.d6-7,   ,1.0837974548339844
tdoa2.d7-0,   ,0.28150585293769836
tdoa2new.ts-0,   ,-125763632.0
tdoa2new.ts-1,   ,-125763632.0
tdoa2new.ts-2,   ,-125763632.0
tdoa2new.ts-3,   ,-125763632.0
tdoa2new.ts-4,   ,-125763632.0
tdoa2new.ts-5,   ,-125763632.0
tdoa2new.ts-6,   ,-125763632.0
tdoa2new.ts-7,   ,-125763632.0
tdoa2new.sn-0,   ,255.0
tdoa2new.sn-1,   ,255.0
tdoa2new.sn-2,   ,255.0
tdoa2new.sn-3,   ,255.0
tdoa2new.sn-4,   ,255.0
tdoa2new.sn-5,   ,255.0
tdoa2new.sn-6,   ,255.0
tdoa2new.sn-7,   ,255.0
tdoa2.d0-1,   ,1.2996186017990112
tdoa2.d1-2,   ,-0.9477363228797913
tdoa2.d2-3,   ,3.41091251373291
tdoa2.d3-4,   ,-0.6896892786026001
tdoa2.d4-5,   ,-1.309002161026001
tdoa2.d5-6,   ,2.2426631450653076
tdoa2.d6-7,   ,1.0837974548339844
tdoa2.d7-0,   ,0.28150585293769836
tdoa2new.ts-0,   ,-125763632.0
tdoa2new.ts-1,   ,-125763632.0
tdoa2new.ts-2,   ,-125763632.0
tdoa2new.ts-3,   ,-125763632.0
tdoa2new.ts-4,   ,-125763632.0
tdoa2new.ts-5,   ,-125763632.0
tdoa2new.ts-6,   ,-125763632.0
tdoa2new.ts-7,   ,-125763632.0
tdoa2new.sn-0,   ,255.0
tdoa2new.sn-1,   ,255.0
tdoa2new.sn-2,   ,255.0
tdoa2new.sn-3,   ,255.0
tdoa2new.sn-4,   ,255.0
tdoa2new.sn-5,   ,255.0
tdoa2new.sn-6,   ,255.0
tdoa2new.sn-7,   ,255.0
tdoa2.d0-1,   ,1.2996186017990112
tdoa2.d1-2,   ,-0.9477363228797913
tdoa2.d2-3,   ,3.41091251373291
tdoa2.d3-4,   ,-0.6896892786026001
tdoa2.d4-5,   ,-1.309002161026001
tdoa2.d5-6,   ,2.2426631450653076
tdoa2.d6-7,   ,1.0837974548339844
tdoa2.d7-0,   ,0.28150585293769836
tdoa2new.ts-0,   ,-125763632.0
tdoa2new.ts-1,   ,-125763632.0
tdoa2new.ts-2,   ,-125763632.0
tdoa2new.ts-3,   ,-125763632.0
tdoa2new.ts-4,   ,-125763632.0
tdoa2new.ts-5,   ,-125763632.0
tdoa2new.ts-6,   ,-125763632.0
tdoa2new.ts-7,   ,-125763632.0
tdoa2new.sn-0,   ,255.0
tdoa2new.sn-1,   ,255.0
tdoa2new.sn-2,   ,255.0
tdoa2new.sn-3,   ,255.0
tdoa2new.sn-4,   ,255.0
tdoa2new.sn-5,   ,255.0
tdoa2new.sn-6,   ,255.0
tdoa2new.sn-7,   ,255.0
tdoa2.d0-1,   ,1.2996186017990112
tdoa2.d1-2,   ,-0.9477363228797913
tdoa2.d2-3,   ,3.41091251373291
tdoa2.d3-4,   ,-0.6896892786026001
tdoa2.d4-5,   ,-1.309002161026001
tdoa2.d5-6,   ,2.2426631450653076
tdoa2.d6-7,   ,1.0837974548339844
tdoa2.d7-0,   ,0.28150585293769836
tdoa2new.ts-0,   ,-125763632.0
tdoa2new.ts-1,   ,-125763632.0
tdoa2new.ts-2,   ,-125763632.0
tdoa2new.ts-3,   ,-125763632.0
tdoa2new.ts-4,   ,-125763632.0
tdoa2new.ts-5,   ,-125763632.0
tdoa2new.ts-6,   ,-125763632.0
tdoa2new.ts-7,   ,-125763632.0
tdoa2new.sn-0,   ,255.0
tdoa2new.sn-1,   ,255.0
tdoa2new.sn-2,   ,255.0
tdoa2new.sn-3,   ,255.0
tdoa2new.sn-4,   ,255.0
tdoa2new.sn-5,   ,255.0
tdoa2new.sn-6,   ,255.0
tdoa2new.sn-7,   ,255.0
tdoa2.d0-1,   ,1.2996186017990112
tdoa2.d1-2,   ,-0.9477363228797913
tdoa2.d2-3,   ,3.41091251373291
tdoa2.d3-4,   ,-0.6896892786026001
tdoa2.d4-5,   ,-1.309002161026001
tdoa2.d5-6,   ,2.2426631450653076
tdoa2.d6-7,   ,1.0837974548339844
tdoa2.d7-0,   ,0.28150585293769836
tdoa2new.ts-0,   ,-125763632.0
tdoa2new.ts-1,   ,-125763632.0
tdoa2new.ts-2,   ,-125763632.0
tdoa2new.ts-3,   ,-125763632.0
tdoa2new.ts-4,   ,-125763632.0
tdoa2new.ts-5,   ,-125763632.0
tdoa2new.ts-6,   ,-125763632.0
tdoa2new.ts-7,   ,-125763632.0
tdoa2new.sn-0,   ,255.0
tdoa2new.sn-1,   ,255.0
tdoa2new.sn-2,   ,255.0
tdoa2new.sn-3,   ,255.0
tdoa2new.sn-4,   ,255.0
tdoa2new.sn-5,   ,255.0
tdoa2new.sn-6,   ,255.0
tdoa2new.sn-7,   ,255.0
tdoa2.d0-1,   ,1.2996186017990112
tdoa2.d1-2,   ,-0.9477363228797913
tdoa2.d2-3,   ,3.41091251373291
tdoa2.d3-4,   ,-0.6896892786026001
tdoa2.d4-5,   ,-1.309002161026001
tdoa2.d5-6,   ,2.2426631450653076
tdoa2.d6-7,   ,1.0837974548339844
tdoa2.d7-0,   ,0.28150585293769836
tdoa2new.ts-0,   ,-125763632.0
tdoa2new.ts-1,   ,-125763632.0
tdoa2new.ts-2,   ,-125763632.0
tdoa2new.ts-3,   ,-125763632.0
tdoa2new.ts-4,   ,-125763632.0
tdoa2new.ts-5,   ,-125763632.0
tdoa2new.ts-6,   ,-125763632.0
tdoa2new.ts-7,   ,-125763632.0
tdoa2new.sn-0,   ,255.0
tdoa2new.sn-1,   ,255.0
tdoa2new.sn-2,   ,255.0
tdoa2new.sn-3,   ,255.0
tdoa2new.sn-4,   ,255.0
tdoa2new.sn-5,   ,255.0
tdoa2new.sn-6,   ,255.0
tdoa2new.sn-7,   ,255.0
tdoa2.d0-1,   ,1.2996186017990112
tdoa2.d1-2,   ,-0.9477363228797913
tdoa2.d2-3,   ,3.41091251373291
tdoa2.d3-4,   ,-0.6896892786026001
tdoa2.d4-5,   ,-1.309002161026001
tdoa2.d5-6,   ,2.2426631450653076
tdoa2.d6-7,   ,1.0837974548339844
tdoa2.d7-0,   ,0.28150585293769836
tdoa2new.ts-0,   ,-125763632.0
tdoa2new.ts-1,   ,-125763632.0
tdoa2new.ts-2,   ,-125763632.0
tdoa2new.ts-3,   ,-125763632.0
tdoa2new.ts-4,   ,-125763632.0
tdoa2new.ts-5,   ,-125763632.0
tdoa2new.ts-6,   ,-125763632.0
tdoa2new.ts-7,   ,-125763632.0
tdoa2new.sn-0,   ,255.0
tdoa2new.sn-1,   ,255.0
tdoa2new.sn-2,   ,255.0
tdoa2new.sn-3,   ,255.0
tdoa2new.sn-4,   ,255.0
tdoa2new.sn-5,   ,255.0
tdoa2new.sn-6,   ,255.0
tdoa2new.sn-7,   ,255.0
tdoa2.d0-1,   ,1.2996186017990112
tdoa2.d1-2,   ,-0.9477363228797913
tdoa2.d2-3,   ,3.41091251373291
tdoa2.d3-4,   ,-0.7788327932357788
tdoa2.d4-5,   ,-1.309002161026001
tdoa2.d5-6,   ,2.2426631450653076
tdoa2.d6-7,   ,1.0837974548339844
tdoa2.d7-0,   ,0.28150585293769836
tdoa2new.ts-0,   ,-125763632.0
tdoa2new.ts-1,   ,-125763632.0
tdoa2new.ts-2,   ,-125763632.0
tdoa2new.ts-3,   ,-125763632.0
tdoa2new.ts-4,   ,-125763632.0
tdoa2new.ts-5,   ,-125763632.0
tdoa2new.ts-6,   ,-125763632.0
tdoa2new.ts-7,   ,-125763632.0
tdoa2new.sn-0,   ,255.0
tdoa2new.sn-1,   ,255.0
tdoa2new.sn-2,   ,255.0
tdoa2new.sn-3,   ,255.0
tdoa2new.sn-4,   ,255.0
tdoa2new.sn-5,   ,255.0
tdoa2new.sn-6,   ,255.0
tdoa2new.sn-7,   ,255.0
tdoa2.d0-1,   ,1.2996186017990112
tdoa2.d1-2,   ,-0.9477363228797913
tdoa2.d2-3,   ,3.41091251373291
tdoa2.d3-4,   ,-0.7788327932357788
tdoa2.d4-5,   ,-1.309002161026001
tdoa2.d5-6,   ,2.2426631450653076
tdoa2.d6-7,   ,1.0837974548339844
tdoa2.d7-0,   ,0.28150585293769836
tdoa2new.ts-0,   ,-125763632.0
tdoa2new.ts-1,   ,-125763632.0
tdoa2new.ts-2,   ,-125763632.0
tdoa2new.ts-3,   ,-125763632.0
tdoa2new.ts-4,   ,-125763632.0
tdoa2new.ts-5,   ,-125763632.0
tdoa2new.ts-6,   ,-125763632.0
tdoa2new.ts-7,   ,-125763632.0
tdoa2new.sn-0,   ,255.0
tdoa2new.sn-1,   ,255.0
tdoa2new.sn-2,   ,255.0
tdoa2new.sn-3,   ,255.0
tdoa2new.sn-4,   ,255.0
tdoa2new.sn-5,   ,255.0
tdoa2new.sn-6,   ,255.0
tdoa2new.sn-7,   ,255.0
tdoa2.d0-1,   ,1.2996186017990112
tdoa2.d1-2,   ,-0.9477363228797913
tdoa2.d2-3,   ,3.41091251373291
tdoa2.d3-4,   ,-0.7788327932357788
tdoa2.d4-5,   ,-1.309002161026001
tdoa2.d5-6,   ,2.237971305847168
tdoa2.d6-7,   ,1.0837974548339844
tdoa2.d7-0,   ,0.28150585293769836
tdoa2new.ts-0,   ,-125763632.0
tdoa2new.ts-1,   ,-125763632.0
tdoa2new.ts-2,   ,-125763632.0
tdoa2new.ts-3,   ,-125763632.0
tdoa2new.ts-4,   ,-125763632.0
tdoa2new.ts-5,   ,-125763632.0
tdoa2new.ts-6,   ,-125763632.0
tdoa2new.ts-7,   ,-125763632.0
tdoa2new.sn-0,   ,255.0
tdoa2new.sn-1,   ,255.0
tdoa2new.sn-2,   ,255.0
tdoa2new.sn-3,   ,255.0
tdoa2new.sn-4,   ,255.0
tdoa2new.sn-5,   ,255.0
tdoa2new.sn-6,   ,255.0
tdoa2new.sn-7,   ,255.0
tdoa2.d0-1,   ,1.2996186017990112
tdoa2.d1-2,   ,-0.9477363228797913
tdoa2.d2-3,   ,3.41091251373291
tdoa2.d3-4,   ,-0.7788327932357788
tdoa2.d4-5,   ,-1.1541739702224731
tdoa2.d5-6,   ,2.191053867340088
tdoa2.d6-7,   ,1.0837974548339844
tdoa2.d7-0,   ,0.28150585293769836
tdoa2new.ts-0,   ,-125763632.0
tdoa2new.ts-1,   ,-125763632.0
tdoa2new.ts-2,   ,-125763632.0
tdoa2new.ts-3,   ,-125763632.0
tdoa2new.ts-4,   ,-125763632.0
tdoa2new.ts-5,   ,-125763632.0
tdoa2new.ts-6,   ,-125763632.0
tdoa2new.ts-7,   ,-125763632.0
tdoa2new.sn-0,   ,255.0
tdoa2new.sn-1,   ,255.0
tdoa2new.sn-2,   ,255.0
tdoa2new.sn-3,   ,255.0
tdoa2new.sn-4,   ,255.0
tdoa2new.sn-5,   ,255.0
tdoa2new.sn-6,   ,255.0
tdoa2new.sn-7,   ,255.0
tdoa2.d0-1,   ,1.2996186017990112
tdoa2.d1-2,   ,-0.9477363228797913
tdoa2.d2-3,   ,3.41091251373291
tdoa2.d3-4,   ,-0.7788327932357788
tdoa2.d4-5,   ,-1.1541739702224731
tdoa2.d5-6,   ,2.191053867340088
tdoa2.d6-7,   ,1.0837974548339844
tdoa2.d7-0,   ,0.28150585293769836
tdoa2new.ts-0,   ,-125763632.0
tdoa2new.ts-1,   ,-125763632.0
tdoa2new.ts-2,   ,-125763632.0
tdoa2new.ts-3,   ,-125763632.0
tdoa2new.ts-4,   ,-125763632.0
tdoa2new.ts-5,   ,-125763632.0
tdoa2new.ts-6,   ,-125763632.0
tdoa2new.ts-7,   ,-125763632.0
tdoa2new.sn-0,   ,255.0
tdoa2new.sn-1,   ,255.0
tdoa2new.sn-2,   ,255.0
tdoa2new.sn-3,   ,255.0
tdoa2new.sn-4,   ,255.0
tdoa2new.sn-5,   ,255.0
tdoa2new.sn-6,   ,255.0
tdoa2new.sn-7,   ,255.0
tdoa2.d0-1,   ,1.2996186017990112
tdoa2.d1-2,   ,-0.9477363228797913
tdoa2.d2-3,   ,3.41091251373291
tdoa2.d3-4,   ,-0.7788327932357788
tdoa2.d4-5,   ,-1.1541739702224731
tdoa2.d5-6,   ,2.0972185134887695
tdoa2.d6-7,   ,1.0837974548339844
tdoa2.d7-0,   ,0.28150585293769836
tdoa2new.ts-0,   ,-125763632.0
tdoa2new.ts-1,   ,-125763632.0
tdoa2new.ts-2,   ,-125763632.0
tdoa2new.ts-3,   ,-125763632.0
tdoa2new.ts-4,   ,-125763632.0
tdoa2new.ts-5,   ,-125763632.0
tdoa2new.ts-6,   ,-125763632.0
tdoa2new.ts-7,   ,-125763632.0
tdoa2new.sn-0,   ,255.0
tdoa2new.sn-1,   ,255.0
tdoa2new.sn-2,   ,255.0
tdoa2new.sn-3,   ,255.0
tdoa2new.sn-4,   ,255.0
tdoa2new.sn-5,   ,255.0
tdoa2new.sn-6,   ,255.0
tdoa2new.sn-7,   ,255.0
tdoa2.d0-1,   ,1.2996186017990112
tdoa2.d1-2,   ,-0.9477363228797913
tdoa2.d2-3,   ,3.41091251373291
tdoa2.d3-4,   ,-0.7788327932357788
tdoa2.d4-5,   ,-1.1541739702224731
tdoa2.d5-6,   ,2.0972185134887695
tdoa2.d6-7,   ,1.0837974548339844
tdoa2.d7-0,   ,0.28150585293769836
tdoa2new.ts-0,   ,-125763632.0
tdoa2new.ts-1,   ,-125763632.0
tdoa2new.ts-2,   ,-125763632.0
tdoa2new.ts-3,   ,-125763632.0
tdoa2new.ts-4,   ,-125763632.0
tdoa2new.ts-5,   ,-125763632.0
tdoa2new.ts-6,   ,-125763632.0
tdoa2new.ts-7,   ,-125763632.0
tdoa2new.sn-0,   ,255.0
tdoa2new.sn-1,   ,255.0
tdoa2new.sn-2,   ,255.0
tdoa2new.sn-3,   ,255.0
tdoa2new.sn-4,   ,255.0
tdoa2new.sn-5,   ,255.0
tdoa2new.sn-6,   ,255.0
tdoa2new.sn-7,   ,255.0
tdoa2.d0-1,   ,1.2996186017990112
tdoa2.d1-2,   ,-0.9477363228797913
tdoa2.d2-3,   ,3.41091251373291
tdoa2.d3-4,   ,-0.7788327932357788
tdoa2.d4-5,   ,-1.3371527194976807
tdoa2.d5-6,   ,2.313039541244507
tdoa2.d6-7,   ,1.0837974548339844
tdoa2.d7-0,   ,0.28150585293769836
tdoa2new.ts-0,   ,-125763632.0
tdoa2new.ts-1,   ,-125763632.0
tdoa2new.ts-2,   ,-125763632.0
tdoa2new.ts-3,   ,-125763632.0
tdoa2new.ts-4,   ,-125763632.0
tdoa2new.ts-5,   ,-125763632.0
tdoa2new.ts-6,   ,-125763632.0
tdoa2new.ts-7,   ,-125763632.0
tdoa2new.sn-0,   ,255.0
tdoa2new.sn-1,   ,255.0
tdoa2new.sn-2,   ,255.0
tdoa2new.sn-3,   ,255.0
tdoa2new.sn-4,   ,255.0
tdoa2new.sn-5,   ,255.0
tdoa2new.sn-6,   ,255.0
tdoa2new.sn-7,   ,255.0
tdoa2.d0-1,   ,1.2996186017990112
tdoa2.d1-2,   ,-0.9477363228797913
tdoa2.d2-3,   ,3.41091251373291
tdoa2.d3-4,   ,-0.7788327932357788
tdoa2.d4-5,   ,-1.3371527194976807
tdoa2.d5-6,   ,2.313039541244507
tdoa2.d6-7,   ,1.0837974548339844
tdoa2.d7-0,   ,0.28150585293769836
tdoa2new.ts-0,   ,-125763632.0
tdoa2new.ts-1,   ,-125763632.0
tdoa2new.ts-2,   ,-125763632.0
tdoa2new.ts-3,   ,-125763632.0
tdoa2new.ts-4,   ,-125763632.0
tdoa2new.ts-5,   ,-125763632.0
tdoa2new.ts-6,   ,-125763632.0
tdoa2new.ts-7,   ,-125763632.0
tdoa2new.sn-0,   ,255.0
tdoa2new.sn-1,   ,255.0
tdoa2new.sn-2,   ,255.0
tdoa2new.sn-3,   ,255.0
tdoa2new.sn-4,   ,255.0
tdoa2new.sn-5,   ,255.0
tdoa2new.sn-6,   ,255.0
tdoa2new.sn-7,   ,255.0
tdoa2.d0-1,   ,1.2996186017990112
tdoa2.d1-2,   ,-0.9477363228797913
tdoa2.d2-3,   ,3.41091251373291
tdoa2.d3-4,   ,-0.7788327932357788
tdoa2.d4-5,   ,-1.3371527194976807
tdoa2.d5-6,   ,2.313039541244507
tdoa2.d6-7,   ,1.0837974548339844
tdoa2.d7-0,   ,0.28150585293769836
tdoa2new.ts-0,   ,-125763632.0
tdoa2new.ts-1,   ,-125763632.0
tdoa2new.ts-2,   ,-125763632.0
tdoa2new.ts-3,   ,-125763632.0
tdoa2new.ts-4,   ,-125763632.0
tdoa2new.ts-5,   ,-125763632.0
tdoa2new.ts-6,   ,-125763632.0
tdoa2new.ts-7,   ,-125763632.0
tdoa2new.sn-0,   ,255.0
tdoa2new.sn-1,   ,255.0
tdoa2new.sn-2,   ,255.0
tdoa2new.sn-3,   ,255.0
tdoa2new.sn-4,   ,255.0
tdoa2new.sn-5,   ,255.0
tdoa2new.sn-6,   ,255.0
tdoa2new.sn-7,   ,255.0
tdoa2.d0-1,   ,1.2996186017990112
tdoa2.d1-2,   ,-0.9477363228797913
tdoa2.d2-3,   ,3.41091251373291
tdoa2.d3-4,   ,-0.7788327932357788
tdoa2.d4-5,   ,-1.2433174848556519
tdoa2.d5-6,   ,2.176978588104248
tdoa2.d6-7,   ,1.0837974548339844
tdoa2.d7-0,   ,0.28150585293769836
tdoa2new.ts-0,   ,-125763632.0
tdoa2new.ts-1,   ,-125763632.0
tdoa2new.ts-2,   ,-125763632.0
tdoa2new.ts-3,   ,-125763632.0
tdoa2new.ts-4,   ,-125763632.0
tdoa2new.ts-5,   ,-125763632.0
tdoa2new.ts-6,   ,-125763632.0
tdoa2new.ts-7,   ,-125763632.0
tdoa2new.sn-0,   ,255.0
tdoa2new.sn-1,   ,255.0
tdoa2new.sn-2,   ,255.0
tdoa2new.sn-3,   ,255.0
tdoa2new.sn-4,   ,255.0
tdoa2new.sn-5,   ,255.0
tdoa2new.sn-6,   ,255.0
tdoa2new.sn-7,   ,255.0
tdoa2.d0-1,   ,1.2996186017990112
tdoa2.d1-2,   ,-0.9477363228797913
tdoa2.d2-3,   ,3.41091251373291
tdoa2.d3-4,   ,-0.7788327932357788
tdoa2.d4-5,   ,-1.2433174848556519
tdoa2.d5-6,   ,2.176978588104248
tdoa2.d6-7,   ,1.0837974548339844
tdoa2.d7-0,   ,0.28150585293769836
tdoa2new.ts-0,   ,-125763632.0
tdoa2new.ts-1,   ,-125763632.0
tdoa2new.ts-2,   ,-125763632.0
tdoa2new.ts-3,   ,-125763632.0
tdoa2new.ts-4,   ,-125763632.0
tdoa2new.ts-5,   ,-125763632.0
tdoa2new.ts-6,   ,-125763632.0
tdoa2new.ts-7,   ,-125763632.0
tdoa2new.sn-0,   ,255.0
tdoa2new.sn-1,   ,255.0
tdoa2new.sn-2,   ,255.0
tdoa2new.sn-3,   ,255.0
tdoa2new.sn-4,   ,255.0
tdoa2new.sn-5,   ,255.0
tdoa2new.sn-6,   ,255.0
tdoa2new.sn-7,   ,255.0
tdoa2.d0-1,   ,1.2996186017990112
tdoa2.d1-2,   ,-0.9477363228797913
tdoa2.d2-3,   ,3.41091251373291
tdoa2.d3-4,   ,-0.7788327932357788
tdoa2.d4-5,   ,-1.2433174848556519
tdoa2.d5-6,   ,2.176978588104248
tdoa2.d6-7,   ,1.0837974548339844
tdoa2.d7-0,   ,0.28150585293769836
tdoa2new.ts-0,   ,-125763632.0
tdoa2new.ts-1,   ,-125763632.0
tdoa2new.ts-2,   ,-125763632.0
tdoa2new.ts-3,   ,-125763632.0
tdoa2new.ts-4,   ,-125763632.0
tdoa2new.ts-5,   ,-125763632.0
tdoa2new.ts-6,   ,-125763632.0
tdoa2new.ts-7,   ,-125763632.0
tdoa2new.sn-0,   ,255.0
tdoa2new.sn-1,   ,255.0
tdoa2new.sn-2,   ,255.0
tdoa2new.sn-3,   ,255.0
tdoa2new.sn-4,   ,255.0
tdoa2new.sn-5,   ,255.0
tdoa2new.sn-6,   ,255.0
tdoa2new.sn-7,   ,255.0
tdoa2.d0-1,   ,1.2996186017990112
tdoa2.d1-2,   ,-0.9477363228797913
tdoa2.d2-3,   ,3.41091251373291
tdoa2.d3-4,   ,-0.7788327932357788
tdoa2.d4-5,   ,-1.2433174848556519
tdoa2.d5-6,   ,2.176978588104248
tdoa2.d6-7,   ,1.0837974548339844
tdoa2.d7-0,   ,0.28150585293769836
tdoa2new.ts-0,   ,-125763632.0
tdoa2new.ts-1,   ,-125763632.0
tdoa2new.ts-2,   ,-125763632.0
tdoa2new.ts-3,   ,-125763632.0
tdoa2new.ts-4,   ,-125763632.0
tdoa2new.ts-5,   ,-125763632.0
tdoa2new.ts-6,   ,-125763632.0
tdoa2new.ts-7,   ,-125763632.0
tdoa2new.sn-0,   ,255.0
tdoa2new.sn-1,   ,255.0
tdoa2new.sn-2,   ,255.0
tdoa2new.sn-3,   ,255.0
tdoa2new.sn-4,   ,255.0
tdoa2new.sn-5,   ,255.0
tdoa2new.sn-6,   ,255.0
tdoa2new.sn-7,   ,255.0
tdoa2.d0-1,   ,1.2996186017990112
tdoa2.d1-2,   ,-0.9477363228797913
tdoa2.d2-3,   ,3.41091251373291
tdoa2.d3-4,   ,-0.7788327932357788
tdoa2.d4-5,   ,-1.2433174848556519
tdoa2.d5-6,   ,2.176978588104248
tdoa2.d6-7,   ,1.0837974548339844
tdoa2.d7-0,   ,0.28150585293769836
tdoa2new.ts-0,   ,-125763632.0
tdoa2new.ts-1,   ,-125763632.0
tdoa2new.ts-2,   ,-125763632.0
tdoa2new.ts-3,   ,-125763632.0
tdoa2new.ts-4,   ,-125763632.0
tdoa2new.ts-5,   ,-125763632.0
tdoa2new.ts-6,   ,-125763632.0
tdoa2new.ts-7,   ,-125763632.0
tdoa2new.sn-0,   ,255.0
tdoa2new.sn-1,   ,255.0
tdoa2new.sn-2,   ,255.0
tdoa2new.sn-3,   ,255.0
tdoa2new.sn-4,   ,255.0
tdoa2new.sn-5,   ,255.0
tdoa2new.sn-6,   ,255.0
tdoa2new.sn-7,   ,255.0
tdoa2.d0-1,   ,1.2996186017990112
tdoa2.d1-2,   ,-0.9477363228797913
tdoa2.d2-3,   ,3.41091251373291
tdoa2.d3-4,   ,-0.7788327932357788
tdoa2.d4-5,   ,-1.2433174848556519
tdoa2.d5-6,   ,2.176978588104248
tdoa2.d6-7,   ,1.0837974548339844
tdoa2.d7-0,   ,0.28150585293769836
tdoa2new.ts-0,   ,-125763632.0
tdoa2new.ts-1,   ,-125763632.0
tdoa2new.ts-2,   ,-125763632.0
tdoa2new.ts-3,   ,-125763632.0
tdoa2new.ts-4,   ,-125763632.0
tdoa2new.ts-5,   ,-125763632.0
tdoa2new.ts-6,   ,-125763632.0
tdoa2new.ts-7,   ,-125763632.0
tdoa2new.sn-0,   ,255.0
tdoa2new.sn-1,   ,255.0
tdoa2new.sn-2,   ,255.0
tdoa2new.sn-3,   ,255.0
tdoa2new.sn-4,   ,255.0
tdoa2new.sn-5,   ,255.0
tdoa2new.sn-6,   ,255.0
tdoa2new.sn-7,   ,255.0
tdoa2.d0-1,   ,1.2996186017990112
tdoa2.d1-2,   ,-0.9477363228797913
tdoa2.d2-3,   ,3.41091251373291
tdoa2.d3-4,   ,-0.7788327932357788
tdoa2.d4-5,   ,-1.2433174848556519
tdoa2.d5-6,   ,2.176978588104248
tdoa2.d6-7,   ,1.0837974548339844
tdoa2.d7-0,   ,0.28150585293769836
tdoa2new.ts-0,   ,-125763632.0
tdoa2new.ts-1,   ,-125763632.0
tdoa2new.ts-2,   ,-125763632.0
tdoa2new.ts-3,   ,-125763632.0
tdoa2new.ts-4,   ,-125763632.0
tdoa2new.ts-5,   ,-125763632.0
tdoa2new.ts-6,   ,-125763632.0
tdoa2new.ts-7,   ,-125763632.0
tdoa2new.sn-0,   ,255.0
tdoa2new.sn-1,   ,255.0
tdoa2new.sn-2,   ,255.0
tdoa2new.sn-3,   ,255.0
tdoa2new.sn-4,   ,255.0
tdoa2new.sn-5,   ,255.0
tdoa2new.sn-6,   ,255.0
tdoa2new.sn-7,   ,255.0
tdoa2.d0-1,   ,1.2996186017990112
tdoa2.d1-2,   ,-0.9477363228797913
tdoa2.d2-3,   ,3.41091251373291
tdoa2.d3-4,   ,-0.7788327932357788
tdoa2.d4-5,   ,-1.2433174848556519
tdoa2.d5-6,   ,2.176978588104248
tdoa2.d6-7,   ,1.0837974548339844
tdoa2.d7-0,   ,0.28150585293769836
tdoa2new.ts-0,   ,-125763632.0
tdoa2new.ts-1,   ,-125763632.0
tdoa2new.ts-2,   ,-125763632.0
tdoa2new.ts-3,   ,-125763632.0
tdoa2new.ts-4,   ,-125763632.0
tdoa2new.ts-5,   ,-125763632.0
tdoa2new.ts-6,   ,-125763632.0
tdoa2new.ts-7,   ,-125763632.0
tdoa2new.sn-0,   ,255.0
tdoa2new.sn-1,   ,255.0
tdoa2new.sn-2,   ,255.0
tdoa2new.sn-3,   ,255.0
tdoa2new.sn-4,   ,255.0
tdoa2new.sn-5,   ,255.0
tdoa2new.sn-6,   ,255.0
tdoa2new.sn-7,   ,255.0
tdoa2.d0-1,   ,1.2996186017990112
tdoa2.d1-2,   ,-0.9477363228797913
tdoa2.d2-3,   ,3.41091251373291
tdoa2.d3-4,   ,-0.7788327932357788
tdoa2.d4-5,   ,-1.2433174848556519
tdoa2.d5-6,   ,2.176978588104248
tdoa2.d6-7,   ,1.0837974548339844
tdoa2.d7-0,   ,0.28150585293769836
tdoa2new.ts-0,   ,-125763632.0
tdoa2new.ts-1,   ,-125763632.0
tdoa2new.ts-2,   ,-125763632.0
tdoa2new.ts-3,   ,-125763632.0
tdoa2new.ts-4,   ,-125763632.0
tdoa2new.ts-5,   ,-125763632.0
tdoa2new.ts-6,   ,-125763632.0
tdoa2new.ts-7,   ,-125763632.0
tdoa2new.sn-0,   ,255.0
tdoa2new.sn-1,   ,255.0
tdoa2new.sn-2,   ,255.0
tdoa2new.sn-3,   ,255.0
tdoa2new.sn-4,   ,255.0
tdoa2new.sn-5,   ,255.0
tdoa2new.sn-6,   ,255.0
tdoa2new.sn-7,   ,255.0
tdoa2.d0-1,   ,1.2996186017990112
tdoa2.d1-2,   ,-0.9477363228797913
tdoa2.d2-3,   ,3.41091251373291
tdoa2.d3-4,   ,-0.7788327932357788
tdoa2.d4-5,   ,-1.2433174848556519
tdoa2.d5-6,   ,2.176978588104248
tdoa2.d6-7,   ,1.0837974548339844
tdoa2.d7-0,   ,0.28150585293769836
tdoa2new.ts-0,   ,-125763632.0
tdoa2new.ts-1,   ,-125763632.0
tdoa2new.ts-2,   ,-125763632.0
tdoa2new.ts-3,   ,-125763632.0
tdoa2new.ts-4,   ,-125763632.0
tdoa2new.ts-5,   ,-125763632.0
tdoa2new.ts-6,   ,-125763632.0
tdoa2new.ts-7,   ,-125763632.0
tdoa2new.sn-0,   ,255.0
tdoa2new.sn-1,   ,255.0
tdoa2new.sn-2,   ,255.0
tdoa2new.sn-3,   ,255.0
tdoa2new.sn-4,   ,255.0
tdoa2new.sn-5,   ,255.0
tdoa2new.sn-6,   ,255.0
tdoa2new.sn-7,   ,255.0
tdoa2.d0-1,   ,1.2996186017990112
tdoa2.d1-2,   ,-0.9477363228797913
tdoa2.d2-3,   ,3.41091251373291
tdoa2.d3-4,   ,-0.7788327932357788
tdoa2.d4-5,   ,-1.2433174848556519
tdoa2.d5-6,   ,2.176978588104248
tdoa2.d6-7,   ,1.0837974548339844
tdoa2.d7-0,   ,0.28150585293769836
tdoa2new.ts-0,   ,-125763632.0
tdoa2new.ts-1,   ,-125763632.0
tdoa2new.ts-2,   ,-125763632.0
tdoa2new.ts-3,   ,-125763632.0
tdoa2new.ts-4,   ,-125763632.0
tdoa2new.ts-5,   ,-125763632.0
tdoa2new.ts-6,   ,-125763632.0
tdoa2new.ts-7,   ,-125763632.0
tdoa2new.sn-0,   ,255.0
tdoa2new.sn-1,   ,255.0
tdoa2new.sn-2,   ,255.0
tdoa2new.sn-3,   ,255.0
tdoa2new.sn-4,   ,255.0
tdoa2new.sn-5,   ,255.0
tdoa2new.sn-6,   ,255.0
tdoa2new.sn-7,   ,255.0
tdoa2.d0-1,   ,1.2996186017990112
tdoa2.d1-2,   ,-0.9477363228797913
tdoa2.d2-3,   ,3.41091251373291
tdoa2.d3-4,   ,-0.7788327932357788
tdoa2.d4-5,   ,-1.2433174848556519
tdoa2.d5-6,   ,2.176978588104248
tdoa2.d6-7,   ,1.0837974548339844
tdoa2.d7-0,   ,0.28150585293769836
tdoa2new.ts-0,   ,-125763632.0
tdoa2new.ts-1,   ,-125763632.0
tdoa2new.ts-2,   ,-125763632.0
tdoa2new.ts-3,   ,-125763632.0
tdoa2new.ts-4,   ,-125763632.0
tdoa2new.ts-5,   ,-125763632.0
tdoa2new.ts-6,   ,-125763632.0
tdoa2new.ts-7,   ,-125763632.0
tdoa2new.sn-0,   ,255.0
tdoa2new.sn-1,   ,255.0
tdoa2new.sn-2,   ,255.0
tdoa2new.sn-3,   ,255.0
tdoa2new.sn-4,   ,255.0
tdoa2new.sn-5,   ,255.0
tdoa2new.sn-6,   ,255.0
tdoa2new.sn-7,   ,255.0
tdoa2.d0-1,   ,1.2996186017990112
tdoa2.d1-2,   ,-0.9477363228797913
tdoa2.d2-3,   ,3.41091251373291
tdoa2.d3-4,   ,-0.7788327932357788
tdoa2.d4-5,   ,-1.2433174848556519
tdoa2.d5-6,   ,2.176978588104248
tdoa2.d6-7,   ,1.0837974548339844
tdoa2.d7-0,   ,0.28150585293769836
tdoa2new.ts-0,   ,-125763632.0
tdoa2new.ts-1,   ,-125763632.0
tdoa2new.ts-2,   ,-125763632.0
tdoa2new.ts-3,   ,-125763632.0
tdoa2new.ts-4,   ,-125763632.0
tdoa2new.ts-5,   ,-125763632.0
tdoa2new.ts-6,   ,-125763632.0
tdoa2new.ts-7,   ,-125763632.0
tdoa2new.sn-0,   ,255.0
tdoa2new.sn-1,   ,255.0
tdoa2new.sn-2,   ,255.0
tdoa2new.sn-3,   ,255.0
tdoa2new.sn-4,   ,255.0
tdoa2new.sn-5,   ,255.0
tdoa2new.sn-6,   ,255.0
tdoa2new.sn-7,   ,255.0
tdoa2.d0-1,   ,1.2996186017990112
tdoa2.d1-2,   ,-0.9477363228797913
tdoa2.d2-3,   ,3.41091251373291
tdoa2.d3-4,   ,-0.7788327932357788
tdoa2.d4-5,   ,-1.2433174848556519
tdoa2.d5-6,   ,2.176978588104248
tdoa2.d6-7,   ,1.0837974548339844
tdoa2.d7-0,   ,0.28150585293769836
tdoa2new.ts-0,   ,-125763632.0
tdoa2new.ts-1,   ,-125763632.0
tdoa2new.ts-2,   ,-125763632.0
tdoa2new.ts-3,   ,-125763632.0
tdoa2new.ts-4,   ,-125763632.0
tdoa2new.ts-5,   ,-125763632.0
tdoa2new.ts-6,   ,-125763632.0
tdoa2new.ts-7,   ,-125763632.0
tdoa2new.sn-0,   ,255.0
tdoa2new.sn-1,   ,255.0
tdoa2new.sn-2,   ,255.0
tdoa2new.sn-3,   ,255.0
tdoa2new.sn-4,   ,255.0
tdoa2new.sn-5,   ,255.0
tdoa2new.sn-6,   ,255.0
tdoa2new.sn-7,   ,255.0
tdoa2.d0-1,   ,1.2996186017990112
tdoa2.d1-2,   ,-0.9477363228797913
tdoa2.d2-3,   ,3.41091251373291
tdoa2.d3-4,   ,-0.7788327932357788
tdoa2.d4-5,   ,-1.2433174848556519
tdoa2.d5-6,   ,2.176978588104248
tdoa2.d6-7,   ,1.0837974548339844
tdoa2.d7-0,   ,0.28150585293769836
tdoa2new.ts-0,   ,-125763632.0
tdoa2new.ts-1,   ,-125763632.0
tdoa2new.ts-2,   ,-125763632.0
tdoa2new.ts-3,   ,-125763632.0
tdoa2new.ts-4,   ,-125763632.0
tdoa2new.ts-5,   ,-125763632.0
tdoa2new.ts-6,   ,-125763632.0
tdoa2new.ts-7,   ,-125763632.0
tdoa2new.sn-0,   ,255.0
tdoa2new.sn-1,   ,255.0
tdoa2new.sn-2,   ,255.0
tdoa2new.sn-3,   ,255.0
tdoa2new.sn-4,   ,255.0
tdoa2new.sn-5,   ,255.0
tdoa2new.sn-6,   ,255.0
tdoa2new.sn-7,   ,255.0
tdoa2.d0-1,   ,1.2996186017990112
tdoa2.d1-2,   ,-0.9477363228797913
tdoa2.d2-3,   ,3.41091251373291
tdoa2.d3-4,   ,-0.7788327932357788
tdoa2.d4-5,   ,-1.2433174848556519
tdoa2.d5-6,   ,2.176978588104248
tdoa2.d6-7,   ,1.0837974548339844
tdoa2.d7-0,   ,0.28150585293769836
tdoa2new.ts-0,   ,-125763632.0
tdoa2new.ts-1,   ,-125763632.0
tdoa2new.ts-2,   ,-125763632.0
tdoa2new.ts-3,   ,-125763632.0
tdoa2new.ts-4,   ,-125763632.0
tdoa2new.ts-5,   ,-125763632.0
tdoa2new.ts-6,   ,-125763632.0
tdoa2new.ts-7,   ,-125763632.0
tdoa2new.sn-0,   ,255.0
tdoa2new.sn-1,   ,255.0
tdoa2new.sn-2,   ,255.0
tdoa2new.sn-3,   ,255.0
tdoa2new.sn-4,   ,255.0
tdoa2new.sn-5,   ,255.0
tdoa2new.sn-6,   ,255.0
tdoa2new.sn-7,   ,255.0
tdoa2.d0-1,   ,1.2996186017990112
tdoa2.d1-2,   ,-0.9477363228797913
tdoa2.d2-3,   ,3.41091251373291
tdoa2.d3-4,   ,-0.7788327932357788
tdoa2.d4-5,   ,-1.2433174848556519
tdoa2.d5-6,   ,2.176978588104248
tdoa2.d6-7,   ,1.0837974548339844
tdoa2.d7-0,   ,0.28150585293769836
tdoa2new.ts-0,   ,-125763632.0
tdoa2new.ts-1,   ,-125763632.0
tdoa2new.ts-2,   ,-125763632.0
tdoa2new.ts-3,   ,-125763632.0
tdoa2new.ts-4,   ,-125763632.0
tdoa2new.ts-5,   ,-125763632.0
tdoa2new.ts-6,   ,-125763632.0
tdoa2new.ts-7,   ,-125763632.0
tdoa2new.sn-0,   ,255.0
tdoa2new.sn-1,   ,255.0
tdoa2new.sn-2,   ,255.0
tdoa2new.sn-3,   ,255.0
tdoa2new.sn-4,   ,255.0
tdoa2new.sn-5,   ,255.0
tdoa2new.sn-6,   ,255.0
tdoa2new.sn-7,   ,255.0
tdoa2.d0-1,   ,1.2996186017990112
tdoa2.d1-2,   ,-0.9477363228797913
tdoa2.d2-3,   ,3.41091251373291
tdoa2.d3-4,   ,-0.7788327932357788
tdoa2.d4-5,   ,-1.2433174848556519
tdoa2.d5-6,   ,2.176978588104248
tdoa2.d6-7,   ,1.0837974548339844
tdoa2.d7-0,   ,0.28150585293769836
tdoa2new.ts-0,   ,-125763632.0
tdoa2new.ts-1,   ,-125763632.0
tdoa2new.ts-2,   ,-125763632.0
tdoa2new.ts-3,   ,-125763632.0
tdoa2new.ts-4,   ,-125763632.0
tdoa2new.ts-5,   ,-125763632.0
tdoa2new.ts-6,   ,-125763632.0
tdoa2new.ts-7,   ,-125763632.0
tdoa2new.sn-0,   ,255.0
tdoa2new.sn-1,   ,255.0
tdoa2new.sn-2,   ,255.0
tdoa2new.sn-3,   ,255.0
tdoa2new.sn-4,   ,255.0
tdoa2new.sn-5,   ,255.0
tdoa2new.sn-6,   ,255.0
tdoa2new.sn-7,   ,255.0
tdoa2.d0-1,   ,1.2996186017990112
tdoa2.d1-2,   ,-0.9477363228797913
tdoa2.d2-3,   ,3.41091251373291
tdoa2.d3-4,   ,-0.7788327932357788
tdoa2.d4-5,   ,-1.2433174848556519
tdoa2.d5-6,   ,2.176978588104248
tdoa2.d6-7,   ,1.0837974548339844
tdoa2.d7-0,   ,0.28150585293769836
tdoa2new.ts-0,   ,-125763632.0
tdoa2new.ts-1,   ,-125763632.0
tdoa2new.ts-2,   ,-125763632.0
tdoa2new.ts-3,   ,-125763632.0
tdoa2new.ts-4,   ,-125763632.0
tdoa2new.ts-5,   ,-125763632.0
tdoa2new.ts-6,   ,-125763632.0
tdoa2new.ts-7,   ,-125763632.0
tdoa2new.sn-0,   ,255.0
tdoa2new.sn-1,   ,255.0
tdoa2new.sn-2,   ,255.0
tdoa2new.sn-3,   ,255.0
tdoa2new.sn-4,   ,255.0
tdoa2new.sn-5,   ,255.0
tdoa2new.sn-6,   ,255.0
tdoa2new.sn-7,   ,255.0
tdoa2.d0-1,   ,1.2996186017990112
tdoa2.d1-2,   ,-0.9477363228797913
tdoa2.d2-3,   ,3.41091251373291
tdoa2.d3-4,   ,-0.7788327932357788
tdoa2.d4-5,   ,-1.2433174848556519
tdoa2.d5-6,   ,2.176978588104248
tdoa2.d6-7,   ,1.0837974548339844
tdoa2.d7-0,   ,0.28150585293769836
tdoa2new.ts-0,   ,-125763632.0
tdoa2new.ts-1,   ,-125763632.0
tdoa2new.ts-2,   ,-125763632.0
tdoa2new.ts-3,   ,-125763632.0
tdoa2new.ts-4,   ,-125763632.0
tdoa2new.ts-5,   ,-125763632.0
tdoa2new.ts-6,   ,-125763632.0
tdoa2new.ts-7,   ,-125763632.0
tdoa2new.sn-0,   ,255.0
tdoa2new.sn-1,   ,255.0
tdoa2new.sn-2,   ,255.0
tdoa2new.sn-3,   ,255.0
tdoa2new.sn-4,   ,255.0
tdoa2new.sn-5,   ,255.0
tdoa2new.sn-6,   ,255.0
tdoa2new.sn-7,   ,255.0
tdoa2.d0-1,   ,1.2996186017990112
tdoa2.d1-2,   ,-0.9477363228797913
tdoa2.d2-3,   ,3.41091251373291
tdoa2.d3-4,   ,-0.7788327932357788
tdoa2.d4-5,   ,-1.2433174848556519
tdoa2.d5-6,   ,2.284888982772827
tdoa2.d6-7,   ,1.0837974548339844
tdoa2.d7-0,   ,0.28150585293769836
tdoa2new.ts-0,   ,-125763632.0
tdoa2new.ts-1,   ,-125763632.0
tdoa2new.ts-2,   ,-125763632.0
tdoa2new.ts-3,   ,-125763632.0
tdoa2new.ts-4,   ,-125763632.0
tdoa2new.ts-5,   ,-125763632.0
tdoa2new.ts-6,   ,-125763632.0
tdoa2new.ts-7,   ,-125763632.0
tdoa2new.sn-0,   ,255.0
tdoa2new.sn-1,   ,255.0
tdoa2new.sn-2,   ,255.0
tdoa2new.sn-3,   ,255.0
tdoa2new.sn-4,   ,255.0
tdoa2new.sn-5,   ,255.0
tdoa2new.sn-6,   ,255.0
tdoa2new.sn-7,   ,255.0
tdoa2.d0-1,   ,1.2996186017990112
tdoa2.d1-2,   ,-0.9477363228797913
tdoa2.d2-3,   ,3.41091251373291
tdoa2.d3-4,   ,-0.7788327932357788
tdoa2.d4-5,   ,-1.2433174848556519
tdoa2.d5-6,   ,2.284888982772827
tdoa2.d6-7,   ,1.0837974548339844
tdoa2.d7-0,   ,0.28150585293769836
tdoa2new.ts-0,   ,-125763632.0
tdoa2new.ts-1,   ,-125763632.0
tdoa2new.ts-2,   ,-125763632.0
tdoa2new.ts-3,   ,-125763632.0
tdoa2new.ts-4,   ,-125763632.0
tdoa2new.ts-5,   ,-125763632.0
tdoa2new.ts-6,   ,-125763632.0
tdoa2new.ts-7,   ,-125763632.0
tdoa2new.sn-0,   ,255.0
tdoa2new.sn-1,   ,255.0
tdoa2new.sn-2,   ,255.0
tdoa2new.sn-3,   ,255.0
tdoa2new.sn-4,   ,255.0
tdoa2new.sn-5,   ,255.0
tdoa2new.sn-6,   ,255.0
tdoa2new.sn-7,   ,255.0
tdoa2.d0-1,   ,1.2996186017990112
tdoa2.d1-2,   ,-0.9477363228797913
tdoa2.d2-3,   ,3.41091251373291
tdoa2.d3-4,   ,-0.7788327932357788
tdoa2.d4-5,   ,-1.2433174848556519
tdoa2.d5-6,   ,2.284888982772827
tdoa2.d6-7,   ,1.0837974548339844
tdoa2.d7-0,   ,0.28150585293769836
tdoa2new.ts-0,   ,-125763632.0
tdoa2new.ts-1,   ,-125763632.0
tdoa2new.ts-2,   ,-125763632.0
tdoa2new.ts-3,   ,-125763632.0
tdoa2new.ts-4,   ,-125763632.0
tdoa2new.ts-5,   ,-125763632.0
tdoa2new.ts-6,   ,-125763632.0
tdoa2new.ts-7,   ,-125763632.0
tdoa2new.sn-0,   ,255.0
tdoa2new.sn-1,   ,255.0
tdoa2new.sn-2,   ,255.0
tdoa2new.sn-3,   ,255.0
tdoa2new.sn-4,   ,255.0
tdoa2new.sn-5,   ,255.0
tdoa2new.sn-6,   ,255.0
tdoa2new.sn-7,   ,255.0
tdoa2.d0-1,   ,1.2996186017990112
tdoa2.d1-2,   ,-0.9477363228797913
tdoa2.d2-3,   ,3.41091251373291
tdoa2.d3-4,   ,-0.7788327932357788
tdoa2.d4-5,   ,-1.2433174848556519
tdoa2.d5-6,   ,2.284888982772827
tdoa2.d6-7,   ,1.0837974548339844
tdoa2.d7-0,   ,0.28150585293769836
tdoa2new.ts-0,   ,-125763632.0
tdoa2new.ts-1,   ,-125763632.0
tdoa2new.ts-2,   ,-125763632.0
tdoa2new.ts-3,   ,-125763632.0
tdoa2new.ts-4,   ,-125763632.0
tdoa2new.ts-5,   ,-125763632.0
tdoa2new.ts-6,   ,-125763632.0
tdoa2new.ts-7,   ,-125763632.0
tdoa2new.sn-0,   ,255.0
tdoa2new.sn-1,   ,255.0
tdoa2new.sn-2,   ,255.0
tdoa2new.sn-3,   ,255.0
tdoa2new.sn-4,   ,255.0
tdoa2new.sn-5,   ,255.0
tdoa2new.sn-6,   ,255.0
tdoa2new.sn-7,   ,255.0
tdoa2.d0-1,   ,1.2996186017990112
tdoa2.d1-2,   ,-0.9477363228797913
tdoa2.d2-3,   ,3.41091251373291
tdoa2.d3-4,   ,-0.7788327932357788
tdoa2.d4-5,   ,-1.2433174848556519
tdoa2.d5-6,   ,2.284888982772827
tdoa2.d6-7,   ,1.0837974548339844
tdoa2.d7-0,   ,0.28150585293769836
tdoa2new.ts-0,   ,-125763632.0
tdoa2new.ts-1,   ,-125763632.0
tdoa2new.ts-2,   ,-125763632.0
tdoa2new.ts-3,   ,-125763632.0
tdoa2new.ts-4,   ,-125763632.0
tdoa2new.ts-5,   ,-125763632.0
tdoa2new.ts-6,   ,-125763632.0
tdoa2new.ts-7,   ,-125763632.0
tdoa2new.sn-0,   ,255.0
tdoa2new.sn-1,   ,255.0
tdoa2new.sn-2,   ,255.0
tdoa2new.sn-3,   ,255.0
tdoa2new.sn-4,   ,255.0
tdoa2new.sn-5,   ,255.0
tdoa2new.sn-6,   ,255.0
tdoa2new.sn-7,   ,255.0
tdoa2.d0-1,   ,1.2996186017990112
tdoa2.d1-2,   ,-0.9477363228797913
tdoa2.d2-3,   ,3.41091251373291
tdoa2.d3-4,   ,-0.7788327932357788
tdoa2.d4-5,   ,-1.2433174848556519
tdoa2.d5-6,   ,2.223896026611328
tdoa2.d6-7,   ,1.0837974548339844
tdoa2.d7-0,   ,0.28150585293769836
tdoa2new.ts-0,   ,-125763632.0
tdoa2new.ts-1,   ,-125763632.0
tdoa2new.ts-2,   ,-125763632.0
tdoa2new.ts-3,   ,-125763632.0
tdoa2new.ts-4,   ,-125763632.0
tdoa2new.ts-5,   ,-125763632.0
tdoa2new.ts-6,   ,-125763632.0
tdoa2new.ts-7,   ,-125763632.0
tdoa2new.sn-0,   ,255.0
tdoa2new.sn-1,   ,255.0
tdoa2new.sn-2,   ,255.0
tdoa2new.sn-3,   ,255.0
tdoa2new.sn-4,   ,255.0
tdoa2new.sn-5,   ,255.0
tdoa2new.sn-6,   ,255.0
tdoa2new.sn-7,   ,255.0
tdoa2.d0-1,   ,1.2996186017990112
tdoa2.d1-2,   ,-0.9477363228797913
tdoa2.d2-3,   ,3.41091251373291
tdoa2.d3-4,   ,-0.7788327932357788
tdoa2.d4-5,   ,-1.2433174848556519
tdoa2.d5-6,   ,2.223896026611328
tdoa2.d6-7,   ,1.0837974548339844
tdoa2.d7-0,   ,0.28150585293769836
tdoa2new.ts-0,   ,-125763632.0
tdoa2new.ts-1,   ,-125763632.0
tdoa2new.ts-2,   ,-125763632.0
tdoa2new.ts-3,   ,-125763632.0
tdoa2new.ts-4,   ,-125763632.0
tdoa2new.ts-5,   ,-125763632.0
tdoa2new.ts-6,   ,-125763632.0
tdoa2new.ts-7,   ,-125763632.0
tdoa2new.sn-0,   ,255.0
tdoa2new.sn-1,   ,255.0
tdoa2new.sn-2,   ,255.0
tdoa2new.sn-3,   ,255.0
tdoa2new.sn-4,   ,255.0
tdoa2new.sn-5,   ,255.0
tdoa2new.sn-6,   ,255.0
tdoa2new.sn-7,   ,255.0
tdoa2.d0-1,   ,1.2996186017990112
tdoa2.d1-2,   ,-0.9477363228797913
tdoa2.d2-3,   ,3.41091251373291
tdoa2.d3-4,   ,-0.7788327932357788
tdoa2.d4-5,   ,-1.2433174848556519
tdoa2.d5-6,   ,2.223896026611328
tdoa2.d6-7,   ,1.0837974548339844
tdoa2.d7-0,   ,0.28150585293769836
tdoa2new.ts-0,   ,-125763632.0
tdoa2new.ts-1,   ,-125763632.0
tdoa2new.ts-2,   ,-125763632.0
tdoa2new.ts-3,   ,-125763632.0
tdoa2new.ts-4,   ,-125763632.0
tdoa2new.ts-5,   ,-125763632.0
tdoa2new.ts-6,   ,-125763632.0
tdoa2new.ts-7,   ,-125763632.0
tdoa2new.sn-0,   ,255.0
tdoa2new.sn-1,   ,255.0
tdoa2new.sn-2,   ,255.0
tdoa2new.sn-3,   ,255.0
tdoa2new.sn-4,   ,255.0
tdoa2new.sn-5,   ,255.0
tdoa2new.sn-6,   ,255.0
tdoa2new.sn-7,   ,255.0
tdoa2.d0-1,   ,1.2996186017990112
tdoa2.d1-2,   ,-0.9477363228797913
tdoa2.d2-3,   ,3.41091251373291
tdoa2.d3-4,   ,-0.7788327932357788
tdoa2.d4-5,   ,-1.2433174848556519
tdoa2.d5-6,   ,2.223896026611328
tdoa2.d6-7,   ,1.0837974548339844
tdoa2.d7-0,   ,0.28150585293769836
