0.004399374593049288,0.0009256625198759139,0.001522060134448111,3.2474260330200195,2.2946834564208984,0.3450832962989807,4.995545864105225
0.005920446012169123,0.0009167416137643158,0.0014809040585532784,3.218431234359741,2.2989845275878906,0.30461692810058594,5.0004658699035645
0.0050062392838299274,0.0008945695590227842,0.0015227822586894035,3.0717225074768066,2.2923507690429688,0.2994168996810913,5.005470514297485
0.004328881856054068,0.0009271606104448438,0.0014828330604359508,3.1339428424835205,2.293208360671997,0.3093976676464081,4.995211601257324
0.003158177714794874,0.0008952362113632262,0.0015163148054853082,3.10836124420166,2.286402463912964,0.3125821352005005,4.995933532714844
0.005599138326942921,0.0009414615342393517,0.0015049056382849813,3.098814010620117,2.2816176414489746,0.2817589044570923,4.995855093002319
0.006235010921955109,0.0008913029450923204,0.0014864434488117695,3.199904680252075,2.286076784133911,0.31747835874557495,4.99603009223938
0.004101799335330725,0.000914011790882796,0.001504720887169242,3.086439847946167,2.2816238403320312,0.29098719358444214,5.001890659332275
0.004126441664993763,0.0009521369356662035,0.001510503119789064,3.2411773204803467,2.271446704864502,0.3437488079071045,4.994065046310425
0.0034159289207309484,0.0009046257473528385,0.001472313771955669,3.1415984630584717,2.2886416912078857,0.31059250235557556,5.00511908531189
0.0040689753368496895,0.0009972272673621774,0.0015151698607951403,3.2211837768554688,2.2825043201446533,0.32027867436408997,4.99632453918457
0.00448508420959115,0.0008802656666375697,0.0014802756486460567,3.1289079189300537,2.289124011993408,0.27977970242500305,4.997146129608154
0.0044381339102983475,0.000885349465534091,0.0014894617488607764,3.1753854751586914,2.2675302028656006,0.3091524839401245,4.996540069580078
0.0054733240976929665,0.0009274855256080627,0.0014375625178217888,3.1991331577301025,2.277811288833618,0.3267064690589905,4.995257377624512
0.003832263173535466,0.0009373400826007128,0.0014571604551747441,3.1983132362365723,2.2810463905334473,0.29559433460235596,4.995262861251831
0.003989774733781815,0.0009987843222916126,0.0014728371752426028,3.2636237144470215,2.272664785385132,0.3198225796222687,4.994210958480835
0.005841782316565514,0.0009150028927251697,0.0015032372903078794,3.2161622047424316,2.2928473949432373,0.2883366048336029,4.996066570281982
0.0056440457701683044,0.0009969007223844528,0.001528807682916522,3.1431376934051514,2.301089286804199,0.31687936186790466,4.996472358703613
0.0056976559571921825,0.0009152672719210386,0.0015165430959314108,3.2229878902435303,2.28118634223938,0.35471999645233154,4.995716094970703
0.0015428942861035466,0.0009538097656331956,0.0013985573314130306,3.0088016986846924,2.26324725151062,0.039342332631349564,5.0051188468933105
0.0014756859745830297,0.0009525028290227056,0.0013972338056191802,3.053619623184204,2.2652876377105713,0.05094732344150543,5.001971960067749
0.0015053404495120049,0.0009205310489051044,0.00138647120911628,3.065580129623413,2.270634651184082,0.06069048121571541,4.994691371917725
0.0014798552729189396,0.0009291099850088358,0.0013796559069305658,3.041452169418335,2.274101972579956,0.0342443510890007,4.997223138809204
0.0015003086300566792,0.0009310942841693759,0.0013983533717691898,3.06589674949646,2.264383554458618,0.05731673166155815,5.003870010375977
0.0015489818761125207,0.0009233165183104575,0.0014063342241570354,3.0681939125061035,2.2645769119262695,0.055851563811302185,4.99962592124939
0.0014863539254292846,0.0009291229653172195,0.0014030156889930367,3.0191967487335205,2.2715959548950195,0.006544292904436588,4.9976255893707275
0.0014806981198489666,0.0009257614146918058,0.0013618376106023788,3.0190725326538086,2.2741856575012207,0.03140393644571304,5.004413843154907
0.0015104971826076508,0.0008990372298285365,0.0013833452248945832,3.035625696182251,2.2539854049682617,0.07318011671304703,5.00576639175415
0.0014998241094872355,0.0009240362560376525,0.0014058563392609358,3.0533459186553955,2.2631030082702637,0.06553726643323898,5.003484725952148
0.0015082750469446182,0.0009321811376139522,0.0014112703502178192,3.0270440578460693,2.2657477855682373,0.05116267129778862,5.005245208740234
0.0014760992489755154,0.0009301711688749492,0.001401489251293242,2.992887496948242,2.253089666366577,0.02354745753109455,4.998991966247559
0.0014682362088933587,0.0009523669141344726,0.0014267103979364038,2.9826459884643555,2.2685630321502686,-0.013856947422027588,4.997215509414673
0.001488563953898847,0.0009435577085241675,0.0014076322549954057,2.9989418983459473,2.272533893585205,-0.028940627351403236,5.005043029785156
0.001464245142415166,0.0009124794160015881,0.0013951518340036273,2.998793601989746,2.261878252029419,-0.019332537427544594,4.997254133224487
0.0015088892541825771,0.0009415404056198895,0.0014256939757615328,3.002756118774414,2.2676942348480225,-0.0010687399189919233,4.997530937194824
0.0015165882650762796,0.0009441617876291275,0.0014381133951246738,2.9693756103515625,2.2573580741882324,-0.039843153208494186,5.0013110637664795
0.0015052251983433962,0.0009545749053359032,0.0014334152219817042,2.9472391605377197,2.2588272094726562,-0.036758579313755035,5.000283479690552
0.0015533592086285353,0.0009479293948970735,0.0014267712831497192,2.9821114540100098,2.2672579288482666,-0.03149573504924774,5.000623941421509
0.0015185686061158776,0.0009116239962168038,0.0014208360807970166,2.987133264541626,2.269683599472046,-0.010753431357443333,5.003246784210205
