0.0015183341456577182,0.001833841553889215,0.0016969874268397689,0.9420796632766724,4.64747953414917,0.07429417222738266,4.996319532394409
0.0014986034948378801,0.0017249442171305418,0.0016537063056603074,0.9068423509597778,4.596081256866455,0.21697407960891724,5.007222652435303
0.0015143344644457102,0.0017492964398115873,0.001670990721322596,0.8723538517951965,4.613802433013916,0.225154846906662,4.997180461883545
0.0014953218633309007,0.0017610762733966112,0.0016623204573988914,0.9041653275489807,4.616939544677734,0.21368657052516937,5.007468223571777
0.0014924872666597366,0.0018024840392172337,0.0016507029067724943,0.8932220935821533,4.603272914886475,0.2100144475698471,4.994926929473877
0.0014447637367993593,0.0018653342267498374,0.001669177203439176,0.9250595569610596,4.630352973937988,0.12801837921142578,4.995737075805664
0.0015171440318226814,0.0017502149567008018,0.0016675952356308699,0.9201443195343018,4.61473274230957,0.18004770576953888,4.997466087341309
0.001463585183955729,0.0017888994188979268,0.0016907331300899386,0.94279545545578,4.6470465660095215,0.15020613372325897,4.9954164028167725
0.0015333833871409297,0.0017182111041620374,0.001658403780311346,0.8583194613456726,4.582263469696045,0.26478803157806396,4.997197389602661
0.0014614240499213338,0.0017284858040511608,0.0016550932778045535,0.9154606461524963,4.629582405090332,0.19413670897483826,4.995117425918579
