tdoa2new.sn-0,   ,195.0
tdoa2new.sn-1,   ,195.0
tdoa2new.sn-2,   ,195.0
tdoa2new.sn-3,   ,195.0
tdoa2new.sn-4,   ,195.0
tdoa2new.sn-5,   ,195.0
tdoa2new.sn-6,   ,195.0
tdoa2new.sn-7,   ,195.0
tdoa2new.sn-0,   ,195.0
tdoa2new.sn-1,   ,195.0
tdoa2new.sn-2,   ,195.0
tdoa2new.sn-3,   ,195.0
tdoa2new.sn-4,   ,195.0
tdoa2new.sn-5,   ,195.0
tdoa2new.sn-6,   ,195.0
tdoa2new.sn-7,   ,195.0
tdoa2new.sn-0,   ,195.0
tdoa2new.sn-1,   ,195.0
tdoa2new.sn-2,   ,195.0
tdoa2new.sn-3,   ,195.0
tdoa2new.sn-4,   ,195.0
tdoa2new.sn-5,   ,195.0
tdoa2new.sn-6,   ,195.0
tdoa2new.sn-7,   ,195.0
tdoa2new.sn-0,   ,195.0
tdoa2new.sn-1,   ,195.0
tdoa2new.sn-2,   ,195.0
tdoa2new.sn-3,   ,195.0
tdoa2new.sn-4,   ,195.0
tdoa2new.sn-5,   ,195.0
tdoa2new.sn-6,   ,195.0
tdoa2new.sn-7,   ,195.0
tdoa2new.sn-0,   ,195.0
tdoa2new.sn-1,   ,195.0
tdoa2new.sn-2,   ,195.0
tdoa2new.sn-3,   ,195.0
tdoa2new.sn-4,   ,195.0
tdoa2new.sn-5,   ,195.0
tdoa2new.sn-6,   ,195.0
tdoa2new.sn-7,   ,195.0
tdoa2.d0-1,   ,-1.5201315879821777
tdoa2.d1-2,   ,-0.9477363228797913
tdoa2.d2-3,   ,3.41091251373291
tdoa2.d3-4,   ,-0.35188230872154236
tdoa2.d4-5,   ,-4.490017890930176
tdoa2.d5-6,   ,1.8954726457595825
tdoa2new.sn-0,   ,195.0
tdoa2new.sn-1,   ,195.0
tdoa2new.sn-2,   ,195.0
tdoa2new.sn-3,   ,195.0
tdoa2new.sn-4,   ,195.0
tdoa2new.sn-5,   ,195.0
tdoa2new.sn-6,   ,195.0
tdoa2new.sn-7,   ,195.0
tdoa2.d0-1,   ,-1.5201315879821777
tdoa2.d1-2,   ,-0.9477363228797913
tdoa2.d2-3,   ,3.41091251373291
tdoa2.d3-4,   ,-0.35188230872154236
tdoa2.d4-5,   ,-4.490017890930176
tdoa2.d5-6,   ,1.8954726457595825
tdoa2new.sn-0,   ,195.0
tdoa2new.sn-1,   ,195.0
tdoa2new.sn-2,   ,195.0
tdoa2new.sn-3,   ,195.0
tdoa2new.sn-4,   ,195.0
tdoa2new.sn-5,   ,195.0
tdoa2new.sn-6,   ,195.0
tdoa2new.sn-7,   ,195.0
tdoa2.d0-1,   ,-1.5201315879821777
tdoa2.d1-2,   ,-0.9477363228797913
tdoa2.d2-3,   ,3.41091251373291
tdoa2.d3-4,   ,-0.35188230872154236
tdoa2.d4-5,   ,-4.490017890930176
tdoa2.d5-6,   ,1.8954726457595825
tdoa2.d6-7,   ,1.0837974548339844
tdoa2.d7-0,   ,0.28150585293769836
tdoa2new.sn-0,   ,195.0
tdoa2new.sn-1,   ,195.0
tdoa2new.sn-2,   ,195.0
tdoa2new.sn-3,   ,195.0
tdoa2new.sn-4,   ,195.0
tdoa2new.sn-5,   ,195.0
tdoa2new.ts-0,   ,-125763320.0
tdoa2new.ts-1,   ,-125763320.0
tdoa2new.ts-2,   ,-125763320.0
tdoa2new.ts-3,   ,-125763320.0
tdoa2new.ts-4,   ,-125763320.0
tdoa2new.ts-5,   ,-125763320.0
tdoa2new.sn-6,   ,195.0
tdoa2new.sn-7,   ,195.0
tdoa2.d0-1,   ,-1.5201315879821777
tdoa2.d1-2,   ,-0.9477363228797913
tdoa2.d2-3,   ,3.41091251373291
tdoa2.d3-4,   ,-0.35188230872154236
tdoa2.d4-5,   ,-4.490017890930176
tdoa2.d5-6,   ,1.8954726457595825
tdoa2new.ts-6,   ,-125763320.0
tdoa2new.ts-7,   ,-125763320.0
tdoa2.d6-7,   ,1.0837974548339844
tdoa2.d7-0,   ,0.28150585293769836
tdoa2new.sn-0,   ,195.0
tdoa2new.sn-1,   ,195.0
tdoa2new.sn-2,   ,195.0
tdoa2new.sn-3,   ,195.0
tdoa2new.sn-4,   ,195.0
tdoa2new.sn-5,   ,195.0
tdoa2new.ts-0,   ,-125763320.0
tdoa2new.ts-1,   ,-125763320.0
tdoa2new.ts-2,   ,-125763320.0
tdoa2new.ts-3,   ,-125763320.0
tdoa2new.ts-4,   ,-125763320.0
tdoa2new.ts-5,   ,-125763320.0
tdoa2new.sn-6,   ,195.0
tdoa2new.sn-7,   ,195.0
tdoa2.d0-1,   ,-1.5201315879821777
tdoa2.d1-2,   ,-0.9477363228797913
tdoa2.d2-3,   ,3.41091251373291
tdoa2.d3-4,   ,-0.35188230872154236
tdoa2.d4-5,   ,-4.490017890930176
tdoa2.d5-6,   ,1.8954726457595825
tdoa2new.ts-6,   ,-125763320.0
tdoa2new.ts-7,   ,-125763320.0
tdoa2.d6-7,   ,1.0837974548339844
tdoa2.d7-0,   ,0.28150585293769836
tdoa2new.sn-0,   ,195.0
tdoa2new.sn-1,   ,195.0
tdoa2new.sn-2,   ,195.0
tdoa2new.sn-3,   ,195.0
tdoa2new.sn-4,   ,195.0
tdoa2new.sn-5,   ,195.0
tdoa2new.ts-0,   ,-125763320.0
tdoa2new.ts-1,   ,-125763320.0
tdoa2new.ts-2,   ,-125763320.0
tdoa2new.ts-3,   ,-125763320.0
tdoa2new.ts-4,   ,-125763320.0
tdoa2new.ts-5,   ,-125763320.0
tdoa2new.sn-6,   ,195.0
tdoa2new.sn-7,   ,195.0
tdoa2.d0-1,   ,-1.5201315879821777
tdoa2.d1-2,   ,-0.9477363228797913
tdoa2.d2-3,   ,3.41091251373291
tdoa2.d3-4,   ,-0.35188230872154236
tdoa2.d4-5,   ,-4.490017890930176
tdoa2.d5-6,   ,1.8954726457595825
tdoa2new.ts-6,   ,-125763320.0
tdoa2new.ts-7,   ,-125763320.0
tdoa2.d6-7,   ,1.0837974548339844
tdoa2.d7-0,   ,0.28150585293769836
tdoa2new.sn-0,   ,195.0
tdoa2new.sn-1,   ,195.0
tdoa2new.sn-2,   ,195.0
tdoa2new.sn-3,   ,195.0
tdoa2new.sn-4,   ,195.0
tdoa2new.sn-5,   ,195.0
tdoa2new.ts-0,   ,-125763320.0
tdoa2new.ts-1,   ,-125763320.0
tdoa2new.ts-2,   ,-125763320.0
tdoa2new.ts-3,   ,-125763320.0
tdoa2new.ts-4,   ,-125763320.0
tdoa2new.ts-5,   ,-125763320.0
tdoa2new.sn-6,   ,195.0
tdoa2new.sn-7,   ,195.0
tdoa2.d0-1,   ,-1.5201315879821777
tdoa2.d1-2,   ,-0.9477363228797913
tdoa2.d2-3,   ,3.41091251373291
tdoa2.d3-4,   ,-0.35188230872154236
tdoa2.d4-5,   ,-4.490017890930176
tdoa2.d5-6,   ,1.8954726457595825
tdoa2new.ts-6,   ,-125763320.0
tdoa2new.ts-7,   ,-125763320.0
tdoa2.d6-7,   ,1.0837974548339844
tdoa2.d7-0,   ,0.28150585293769836
tdoa2new.sn-0,   ,195.0
tdoa2new.sn-1,   ,195.0
tdoa2new.sn-2,   ,195.0
tdoa2new.sn-3,   ,195.0
tdoa2new.sn-4,   ,195.0
tdoa2new.sn-5,   ,195.0
tdoa2new.ts-0,   ,-125763320.0
tdoa2new.ts-1,   ,-125763320.0
tdoa2new.ts-2,   ,-125763320.0
tdoa2new.ts-3,   ,-125763320.0
tdoa2new.ts-4,   ,-125763320.0
tdoa2new.ts-5,   ,-125763320.0
tdoa2new.sn-6,   ,195.0
tdoa2new.sn-7,   ,195.0
tdoa2.d0-1,   ,-1.5201315879821777
tdoa2.d1-2,   ,-0.9477363228797913
tdoa2.d2-3,   ,3.41091251373291
tdoa2.d3-4,   ,-0.35188230872154236
tdoa2.d4-5,   ,-4.490017890930176
tdoa2.d5-6,   ,1.8954726457595825
tdoa2new.ts-6,   ,-125763320.0
tdoa2new.ts-7,   ,-125763320.0
tdoa2.d6-7,   ,1.0837974548339844
tdoa2.d7-0,   ,0.28150585293769836
tdoa2new.sn-0,   ,195.0
tdoa2new.sn-1,   ,195.0
tdoa2new.sn-2,   ,195.0
tdoa2new.sn-3,   ,195.0
tdoa2new.sn-4,   ,195.0
tdoa2new.sn-5,   ,195.0
tdoa2new.ts-0,   ,-125763320.0
tdoa2new.ts-1,   ,-125763320.0
tdoa2new.ts-2,   ,-125763320.0
tdoa2new.ts-3,   ,-125763320.0
tdoa2new.ts-4,   ,-125763320.0
tdoa2new.ts-5,   ,-125763320.0
tdoa2new.sn-6,   ,195.0
tdoa2new.sn-7,   ,195.0
tdoa2.d0-1,   ,-1.5201315879821777
tdoa2.d1-2,   ,-0.9477363228797913
tdoa2.d2-3,   ,3.41091251373291
tdoa2.d3-4,   ,-0.35188230872154236
tdoa2.d4-5,   ,-4.490017890930176
tdoa2.d5-6,   ,1.8954726457595825
tdoa2new.ts-6,   ,-125763320.0
tdoa2new.ts-7,   ,-125763320.0
tdoa2.d6-7,   ,1.0837974548339844
tdoa2.d7-0,   ,0.28150585293769836
tdoa2new.sn-0,   ,195.0
tdoa2new.sn-1,   ,195.0
tdoa2new.sn-2,   ,195.0
tdoa2new.sn-3,   ,195.0
tdoa2new.sn-4,   ,195.0
tdoa2new.sn-5,   ,195.0
tdoa2new.ts-0,   ,-125763320.0
tdoa2new.ts-1,   ,-125763320.0
tdoa2new.ts-2,   ,-125763320.0
tdoa2new.ts-3,   ,-125763320.0
tdoa2new.ts-4,   ,-125763320.0
tdoa2new.ts-5,   ,-125763320.0
tdoa2new.sn-6,   ,195.0
tdoa2new.sn-7,   ,195.0
tdoa2.d0-1,   ,-1.5201315879821777
tdoa2.d1-2,   ,-0.9477363228797913
tdoa2.d2-3,   ,3.41091251373291
tdoa2.d3-4,   ,-0.35188230872154236
tdoa2.d4-5,   ,-4.490017890930176
tdoa2.d5-6,   ,1.8954726457595825
tdoa2new.ts-6,   ,-125763320.0
tdoa2new.ts-7,   ,-125763320.0
tdoa2.d6-7,   ,1.0837974548339844
tdoa2.d7-0,   ,0.28150585293769836
tdoa2new.sn-0,   ,195.0
tdoa2new.sn-1,   ,195.0
tdoa2new.sn-2,   ,195.0
tdoa2new.sn-3,   ,195.0
tdoa2new.sn-4,   ,195.0
tdoa2new.sn-5,   ,195.0
tdoa2new.ts-0,   ,-125763320.0
tdoa2new.ts-1,   ,-125763320.0
tdoa2new.ts-2,   ,-125763320.0
tdoa2new.ts-3,   ,-125763320.0
tdoa2new.ts-4,   ,-125763320.0
tdoa2new.ts-5,   ,-125763320.0
tdoa2new.sn-6,   ,195.0
tdoa2new.sn-7,   ,195.0
tdoa2.d0-1,   ,-1.5201315879821777
tdoa2.d1-2,   ,-0.9477363228797913
tdoa2.d2-3,   ,3.41091251373291
tdoa2.d3-4,   ,-0.35188230872154236
tdoa2.d4-5,   ,-4.490017890930176
tdoa2.d5-6,   ,1.8954726457595825
tdoa2new.ts-6,   ,-125763320.0
tdoa2new.ts-7,   ,-125763320.0
tdoa2.d6-7,   ,1.0837974548339844
tdoa2.d7-0,   ,0.28150585293769836
tdoa2new.sn-0,   ,195.0
tdoa2new.sn-1,   ,195.0
tdoa2new.sn-2,   ,195.0
tdoa2new.sn-3,   ,195.0
tdoa2new.sn-4,   ,195.0
tdoa2new.sn-5,   ,195.0
tdoa2new.ts-0,   ,-125763320.0
tdoa2new.ts-1,   ,-125763320.0
tdoa2new.ts-2,   ,-125763320.0
tdoa2new.ts-3,   ,-125763320.0
tdoa2new.ts-4,   ,-125763320.0
tdoa2new.ts-5,   ,-125763320.0
tdoa2new.sn-6,   ,195.0
tdoa2new.sn-7,   ,195.0
tdoa2.d0-1,   ,-1.5201315879821777
tdoa2.d1-2,   ,-0.9477363228797913
tdoa2.d2-3,   ,3.41091251373291
tdoa2.d3-4,   ,-0.35188230872154236
tdoa2.d4-5,   ,-4.490017890930176
tdoa2.d5-6,   ,1.8954726457595825
tdoa2new.ts-6,   ,-125763320.0
tdoa2new.ts-7,   ,-125763320.0
tdoa2.d6-7,   ,1.0837974548339844
tdoa2.d7-0,   ,0.28150585293769836
tdoa2new.sn-0,   ,195.0
tdoa2new.sn-1,   ,195.0
tdoa2new.sn-2,   ,195.0
tdoa2new.sn-3,   ,195.0
tdoa2new.sn-4,   ,195.0
tdoa2new.sn-5,   ,195.0
tdoa2new.ts-0,   ,-125763320.0
tdoa2new.ts-1,   ,-125763320.0
tdoa2new.ts-2,   ,-125763320.0
tdoa2new.ts-3,   ,-125763320.0
tdoa2new.ts-4,   ,-125763320.0
tdoa2new.ts-5,   ,-125763320.0
tdoa2new.sn-6,   ,195.0
tdoa2new.sn-7,   ,195.0
tdoa2.d0-1,   ,-1.5201315879821777
tdoa2.d1-2,   ,-0.9477363228797913
tdoa2.d2-3,   ,3.41091251373291
tdoa2.d3-4,   ,-0.35188230872154236
tdoa2.d4-5,   ,-4.490017890930176
tdoa2.d5-6,   ,1.8954726457595825
tdoa2new.ts-6,   ,-125763320.0
tdoa2new.ts-7,   ,-125763320.0
tdoa2.d6-7,   ,1.0837974548339844
tdoa2.d7-0,   ,0.28150585293769836
tdoa2new.sn-0,   ,195.0
tdoa2new.sn-1,   ,195.0
tdoa2new.sn-2,   ,195.0
tdoa2new.sn-3,   ,195.0
tdoa2new.sn-4,   ,195.0
tdoa2new.sn-5,   ,195.0
tdoa2new.ts-0,   ,-125763320.0
tdoa2new.ts-1,   ,-125763320.0
tdoa2new.ts-2,   ,-125763320.0
tdoa2new.ts-3,   ,-125763320.0
tdoa2new.ts-4,   ,-125763320.0
tdoa2new.ts-5,   ,-125763320.0
tdoa2new.sn-6,   ,195.0
tdoa2new.sn-7,   ,195.0
tdoa2.d0-1,   ,-1.5201315879821777
tdoa2.d1-2,   ,-0.9477363228797913
tdoa2.d2-3,   ,3.41091251373291
tdoa2.d3-4,   ,-0.35188230872154236
tdoa2.d4-5,   ,-4.490017890930176
tdoa2.d5-6,   ,1.8954726457595825
tdoa2new.ts-6,   ,-125763320.0
tdoa2new.ts-7,   ,-125763320.0
tdoa2.d6-7,   ,1.0837974548339844
tdoa2.d7-0,   ,0.28150585293769836
tdoa2new.sn-0,   ,195.0
tdoa2new.sn-1,   ,195.0
tdoa2new.sn-2,   ,195.0
tdoa2new.sn-3,   ,195.0
tdoa2new.sn-4,   ,195.0
tdoa2new.sn-5,   ,195.0
tdoa2new.ts-0,   ,-125763320.0
tdoa2new.ts-1,   ,-125763320.0
tdoa2new.ts-2,   ,-125763320.0
tdoa2new.ts-3,   ,-125763320.0
tdoa2new.ts-4,   ,-125763320.0
tdoa2new.ts-5,   ,-125763320.0
tdoa2new.sn-6,   ,195.0
tdoa2new.sn-7,   ,195.0
tdoa2.d0-1,   ,-1.5201315879821777
tdoa2.d1-2,   ,-0.9477363228797913
tdoa2.d2-3,   ,3.41091251373291
tdoa2.d3-4,   ,-0.35188230872154236
tdoa2.d4-5,   ,-4.490017890930176
tdoa2.d5-6,   ,1.8954726457595825
tdoa2new.ts-6,   ,-125763320.0
tdoa2new.ts-7,   ,-125763320.0
tdoa2.d6-7,   ,1.0837974548339844
tdoa2.d7-0,   ,0.28150585293769836
tdoa2new.sn-0,   ,195.0
tdoa2new.sn-1,   ,195.0
tdoa2new.sn-2,   ,195.0
tdoa2new.sn-3,   ,195.0
tdoa2new.sn-4,   ,195.0
tdoa2new.sn-5,   ,195.0
tdoa2new.ts-0,   ,-125763320.0
tdoa2new.ts-1,   ,-125763320.0
tdoa2new.ts-2,   ,-125763320.0
tdoa2new.ts-3,   ,-125763320.0
tdoa2new.ts-4,   ,-125763320.0
tdoa2new.ts-5,   ,-125763320.0
tdoa2new.sn-6,   ,195.0
tdoa2new.sn-7,   ,195.0
tdoa2.d0-1,   ,-1.5201315879821777
tdoa2.d1-2,   ,-0.9477363228797913
tdoa2.d2-3,   ,3.41091251373291
tdoa2.d3-4,   ,-0.35188230872154236
tdoa2.d4-5,   ,-4.490017890930176
tdoa2.d5-6,   ,1.8954726457595825
tdoa2new.ts-6,   ,-125763320.0
tdoa2new.ts-7,   ,-125763320.0
tdoa2.d6-7,   ,1.0837974548339844
tdoa2.d7-0,   ,0.28150585293769836
tdoa2new.sn-0,   ,195.0
tdoa2new.sn-1,   ,195.0
tdoa2new.sn-2,   ,195.0
tdoa2new.sn-3,   ,195.0
tdoa2new.sn-4,   ,195.0
tdoa2new.sn-5,   ,195.0
tdoa2new.ts-0,   ,-125763320.0
tdoa2new.ts-1,   ,-125763320.0
tdoa2new.ts-2,   ,-125763320.0
tdoa2new.ts-3,   ,-125763320.0
tdoa2new.ts-4,   ,-125763320.0
tdoa2new.ts-5,   ,-125763320.0
tdoa2new.sn-6,   ,195.0
tdoa2new.sn-7,   ,195.0
tdoa2.d0-1,   ,-1.5201315879821777
tdoa2.d1-2,   ,-0.9477363228797913
tdoa2.d2-3,   ,3.41091251373291
tdoa2.d3-4,   ,-0.35188230872154236
tdoa2.d4-5,   ,-4.490017890930176
tdoa2.d5-6,   ,1.8954726457595825
tdoa2new.ts-6,   ,-125763320.0
tdoa2new.ts-7,   ,-125763320.0
tdoa2.d6-7,   ,1.0837974548339844
tdoa2.d7-0,   ,0.28150585293769836
tdoa2new.sn-0,   ,195.0
tdoa2new.sn-1,   ,195.0
tdoa2new.sn-2,   ,195.0
tdoa2new.sn-3,   ,195.0
tdoa2new.sn-4,   ,195.0
tdoa2new.sn-5,   ,195.0
tdoa2new.ts-0,   ,-125763320.0
tdoa2new.ts-1,   ,-125763320.0
tdoa2new.ts-2,   ,-125763320.0
tdoa2new.ts-3,   ,-125763320.0
tdoa2new.ts-4,   ,-125763320.0
tdoa2new.ts-5,   ,-125763320.0
tdoa2new.sn-6,   ,195.0
tdoa2new.sn-7,   ,195.0
tdoa2.d0-1,   ,-1.5201315879821777
tdoa2.d1-2,   ,-0.9477363228797913
tdoa2.d2-3,   ,3.41091251373291
tdoa2.d3-4,   ,-0.35188230872154236
tdoa2.d4-5,   ,-4.490017890930176
tdoa2.d5-6,   ,1.8954726457595825
tdoa2new.ts-6,   ,-125763320.0
tdoa2new.ts-7,   ,-125763320.0
tdoa2.d6-7,   ,1.0837974548339844
tdoa2.d7-0,   ,0.28150585293769836
tdoa2new.sn-0,   ,195.0
tdoa2new.sn-1,   ,195.0
tdoa2new.sn-2,   ,195.0
tdoa2new.sn-3,   ,195.0
tdoa2new.sn-4,   ,195.0
tdoa2new.sn-5,   ,195.0
tdoa2new.ts-0,   ,-125763320.0
tdoa2new.ts-1,   ,-125763320.0
tdoa2new.ts-2,   ,-125763320.0
tdoa2new.ts-3,   ,-125763320.0
tdoa2new.ts-4,   ,-125763320.0
tdoa2new.ts-5,   ,-125763320.0
tdoa2new.sn-6,   ,195.0
tdoa2new.sn-7,   ,195.0
tdoa2.d0-1,   ,-1.5201315879821777
tdoa2.d1-2,   ,-0.9477363228797913
tdoa2.d2-3,   ,3.41091251373291
tdoa2.d3-4,   ,-0.35188230872154236
tdoa2.d4-5,   ,-4.490017890930176
tdoa2.d5-6,   ,1.8954726457595825
tdoa2new.ts-6,   ,-125763320.0
tdoa2new.ts-7,   ,-125763320.0
tdoa2.d6-7,   ,1.0837974548339844
tdoa2.d7-0,   ,0.28150585293769836
tdoa2new.sn-0,   ,195.0
tdoa2new.sn-1,   ,195.0
tdoa2new.sn-2,   ,195.0
tdoa2new.sn-3,   ,195.0
tdoa2new.sn-4,   ,195.0
tdoa2new.sn-5,   ,195.0
tdoa2new.ts-0,   ,-125763320.0
tdoa2new.ts-1,   ,-125763320.0
tdoa2new.ts-2,   ,-125763320.0
tdoa2new.ts-3,   ,-125763320.0
tdoa2new.ts-4,   ,-125763320.0
tdoa2new.ts-5,   ,-125763320.0
tdoa2new.sn-6,   ,195.0
tdoa2new.sn-7,   ,195.0
tdoa2.d0-1,   ,-1.5201315879821777
tdoa2.d1-2,   ,-0.9477363228797913
tdoa2.d2-3,   ,3.41091251373291
tdoa2.d3-4,   ,-0.35188230872154236
tdoa2.d4-5,   ,-4.490017890930176
tdoa2.d5-6,   ,1.8954726457595825
tdoa2new.ts-6,   ,-125763320.0
tdoa2new.ts-7,   ,-125763320.0
tdoa2.d6-7,   ,1.0837974548339844
tdoa2.d7-0,   ,0.28150585293769836
tdoa2new.sn-0,   ,195.0
tdoa2new.sn-1,   ,195.0
tdoa2new.sn-2,   ,195.0
tdoa2new.sn-3,   ,195.0
tdoa2new.sn-4,   ,195.0
tdoa2new.sn-5,   ,195.0
tdoa2new.ts-0,   ,-125763320.0
tdoa2new.ts-1,   ,-125763320.0
tdoa2new.ts-2,   ,-125763320.0
tdoa2new.ts-3,   ,-125763320.0
tdoa2new.ts-4,   ,-125763320.0
tdoa2new.ts-5,   ,-125763320.0
tdoa2new.sn-6,   ,195.0
tdoa2new.sn-7,   ,195.0
tdoa2.d0-1,   ,-1.5201315879821777
tdoa2.d1-2,   ,-0.9477363228797913
tdoa2.d2-3,   ,3.41091251373291
tdoa2.d3-4,   ,-0.35188230872154236
tdoa2.d4-5,   ,-4.490017890930176
tdoa2.d5-6,   ,1.8954726457595825
tdoa2new.ts-6,   ,-125763320.0
tdoa2new.ts-7,   ,-125763320.0
tdoa2.d6-7,   ,1.0837974548339844
tdoa2.d7-0,   ,0.28150585293769836
tdoa2new.sn-0,   ,195.0
tdoa2new.sn-1,   ,195.0
tdoa2new.sn-2,   ,195.0
tdoa2new.sn-3,   ,195.0
tdoa2new.sn-4,   ,195.0
tdoa2new.sn-5,   ,195.0
tdoa2new.ts-0,   ,-125763320.0
tdoa2new.ts-1,   ,-125763320.0
tdoa2new.ts-2,   ,-125763320.0
tdoa2new.ts-3,   ,-125763320.0
tdoa2new.ts-4,   ,-125763320.0
tdoa2new.ts-5,   ,-125763320.0
tdoa2new.sn-6,   ,195.0
tdoa2new.sn-7,   ,195.0
tdoa2.d0-1,   ,-1.5201315879821777
tdoa2.d1-2,   ,-0.9477363228797913
tdoa2.d2-3,   ,3.41091251373291
tdoa2.d3-4,   ,-0.35188230872154236
tdoa2.d4-5,   ,-4.490017890930176
tdoa2.d5-6,   ,1.8954726457595825
tdoa2new.ts-6,   ,-125763320.0
tdoa2new.ts-7,   ,-125763320.0
tdoa2.d6-7,   ,1.0837974548339844
tdoa2.d7-0,   ,0.28150585293769836
tdoa2new.sn-0,   ,195.0
tdoa2new.sn-1,   ,195.0
tdoa2new.sn-2,   ,195.0
tdoa2new.sn-3,   ,195.0
tdoa2new.sn-4,   ,195.0
tdoa2new.sn-5,   ,195.0
tdoa2new.ts-0,   ,-125763320.0
tdoa2new.ts-1,   ,-125763320.0
tdoa2new.ts-2,   ,-125763320.0
tdoa2new.ts-3,   ,-125763320.0
tdoa2new.ts-4,   ,-125763320.0
tdoa2new.ts-5,   ,-125763320.0
tdoa2new.sn-6,   ,195.0
tdoa2new.sn-7,   ,195.0
tdoa2.d0-1,   ,-1.5201315879821777
tdoa2.d1-2,   ,-0.9477363228797913
tdoa2.d2-3,   ,3.41091251373291
tdoa2.d3-4,   ,-0.35188230872154236
tdoa2.d4-5,   ,-4.490017890930176
tdoa2.d5-6,   ,1.8954726457595825
tdoa2new.ts-6,   ,-125763320.0
tdoa2new.ts-7,   ,-125763320.0
tdoa2.d6-7,   ,1.0837974548339844
tdoa2.d7-0,   ,0.28150585293769836
tdoa2new.sn-0,   ,195.0
tdoa2new.sn-1,   ,195.0
tdoa2new.sn-2,   ,195.0
tdoa2new.sn-3,   ,195.0
tdoa2new.sn-4,   ,195.0
tdoa2new.sn-5,   ,195.0
tdoa2new.ts-0,   ,-125763320.0
tdoa2new.ts-1,   ,-125763320.0
tdoa2new.ts-2,   ,-125763320.0
tdoa2new.ts-3,   ,-125763320.0
tdoa2new.ts-4,   ,-125763320.0
tdoa2new.ts-5,   ,-125763320.0
tdoa2new.sn-6,   ,195.0
tdoa2new.sn-7,   ,195.0
tdoa2.d0-1,   ,-1.5201315879821777
tdoa2.d1-2,   ,-0.9477363228797913
tdoa2.d2-3,   ,3.41091251373291
tdoa2.d3-4,   ,-0.35188230872154236
tdoa2.d4-5,   ,-4.490017890930176
tdoa2.d5-6,   ,1.8954726457595825
tdoa2new.ts-6,   ,-125763320.0
tdoa2new.ts-7,   ,-125763320.0
tdoa2.d6-7,   ,1.0837974548339844
tdoa2.d7-0,   ,0.28150585293769836
tdoa2new.sn-0,   ,195.0
tdoa2new.sn-1,   ,195.0
tdoa2new.sn-2,   ,195.0
tdoa2new.sn-3,   ,195.0
tdoa2new.sn-4,   ,195.0
tdoa2new.sn-5,   ,195.0
tdoa2new.ts-0,   ,-125763320.0
tdoa2new.ts-1,   ,-125763320.0
tdoa2new.ts-2,   ,-125763320.0
tdoa2new.ts-3,   ,-125763320.0
tdoa2new.ts-4,   ,-125763320.0
tdoa2new.ts-5,   ,-125763320.0
tdoa2new.sn-6,   ,195.0
tdoa2new.sn-7,   ,195.0
tdoa2.d0-1,   ,-1.5201315879821777
tdoa2.d1-2,   ,-0.9477363228797913
tdoa2.d2-3,   ,3.41091251373291
tdoa2.d3-4,   ,-0.35188230872154236
tdoa2.d4-5,   ,-4.490017890930176
tdoa2.d5-6,   ,1.8954726457595825
tdoa2new.ts-6,   ,-125763320.0
tdoa2new.ts-7,   ,-125763320.0
tdoa2.d6-7,   ,1.0837974548339844
tdoa2.d7-0,   ,0.28150585293769836
tdoa2new.sn-0,   ,195.0
tdoa2new.sn-1,   ,195.0
tdoa2new.sn-2,   ,195.0
tdoa2new.sn-3,   ,195.0
tdoa2new.sn-4,   ,195.0
tdoa2new.sn-5,   ,195.0
tdoa2new.ts-0,   ,-125763320.0
tdoa2new.ts-1,   ,-125763320.0
tdoa2new.ts-2,   ,-125763320.0
tdoa2new.ts-3,   ,-125763320.0
tdoa2new.ts-4,   ,-125763320.0
tdoa2new.ts-5,   ,-125763320.0
tdoa2new.sn-6,   ,195.0
tdoa2new.sn-7,   ,195.0
tdoa2.d0-1,   ,-1.5201315879821777
tdoa2.d1-2,   ,-0.9477363228797913
tdoa2.d2-3,   ,3.41091251373291
tdoa2.d3-4,   ,-0.35188230872154236
tdoa2.d4-5,   ,-4.490017890930176
tdoa2.d5-6,   ,1.8954726457595825
tdoa2new.ts-6,   ,-125763320.0
tdoa2new.ts-7,   ,-125763320.0
tdoa2.d6-7,   ,1.0837974548339844
tdoa2.d7-0,   ,0.28150585293769836
tdoa2new.sn-0,   ,195.0
tdoa2new.sn-1,   ,195.0
tdoa2new.sn-2,   ,195.0
tdoa2new.sn-3,   ,195.0
tdoa2new.sn-4,   ,195.0
tdoa2new.sn-5,   ,195.0
tdoa2new.ts-0,   ,-125763320.0
tdoa2new.ts-1,   ,-125763320.0
tdoa2new.ts-2,   ,-125763320.0
tdoa2new.ts-3,   ,-125763320.0
tdoa2new.ts-4,   ,-125763320.0
tdoa2new.ts-5,   ,-125763320.0
tdoa2new.sn-6,   ,195.0
tdoa2new.sn-7,   ,195.0
tdoa2.d0-1,   ,-1.5201315879821777
tdoa2.d1-2,   ,-0.9477363228797913
tdoa2.d2-3,   ,3.41091251373291
tdoa2.d3-4,   ,-0.35188230872154236
tdoa2.d4-5,   ,-4.490017890930176
tdoa2.d5-6,   ,1.8954726457595825
tdoa2new.ts-6,   ,-125763320.0
tdoa2new.ts-7,   ,-125763320.0
tdoa2.d6-7,   ,1.0837974548339844
tdoa2.d7-0,   ,0.28150585293769836
tdoa2new.sn-0,   ,195.0
tdoa2new.sn-1,   ,195.0
tdoa2new.sn-2,   ,195.0
tdoa2new.sn-3,   ,195.0
tdoa2new.sn-4,   ,195.0
tdoa2new.sn-5,   ,195.0
tdoa2new.ts-0,   ,-125763320.0
tdoa2new.ts-1,   ,-125763320.0
tdoa2new.ts-2,   ,-125763320.0
tdoa2new.ts-3,   ,-125763320.0
tdoa2new.ts-4,   ,-125763320.0
tdoa2new.ts-5,   ,-125763320.0
tdoa2new.sn-6,   ,195.0
tdoa2new.sn-7,   ,195.0
tdoa2.d0-1,   ,-1.5201315879821777
tdoa2.d1-2,   ,-0.9477363228797913
tdoa2.d2-3,   ,3.41091251373291
tdoa2.d3-4,   ,-0.35188230872154236
tdoa2.d4-5,   ,-4.490017890930176
tdoa2.d5-6,   ,1.8954726457595825
tdoa2new.ts-6,   ,-125763320.0
tdoa2new.ts-7,   ,-125763320.0
tdoa2.d6-7,   ,1.0837974548339844
tdoa2.d7-0,   ,0.28150585293769836
tdoa2new.sn-0,   ,195.0
tdoa2new.sn-1,   ,195.0
tdoa2new.sn-2,   ,195.0
tdoa2new.sn-3,   ,195.0
tdoa2new.sn-4,   ,195.0
tdoa2new.sn-5,   ,195.0
tdoa2new.sn-6,   ,195.0
tdoa2new.sn-7,   ,195.0
tdoa2new.ts-6,   ,-125763320.0
tdoa2new.ts-7,   ,-125763320.0
tdoa2new.ts-6,   ,-125763320.0
tdoa2new.ts-7,   ,-125763320.0
tdoa2new.ts-6,   ,-125763320.0
tdoa2new.ts-7,   ,-125763320.0
tdoa2new.ts-0,   ,-125763320.0
tdoa2new.ts-1,   ,-125763320.0
tdoa2new.ts-2,   ,-125763320.0
tdoa2new.ts-3,   ,-125763320.0
tdoa2new.ts-4,   ,-125763320.0
tdoa2new.ts-5,   ,-125763320.0
tdoa2.d0-1,   ,-1.5201315879821777
tdoa2.d1-2,   ,-0.9477363228797913
tdoa2.d2-3,   ,3.41091251373291
tdoa2.d3-4,   ,-0.35188230872154236
tdoa2.d4-5,   ,-4.490017890930176
tdoa2.d5-6,   ,1.8954726457595825
tdoa2new.ts-6,   ,-125763320.0
tdoa2new.ts-7,   ,-125763320.0
tdoa2.d6-7,   ,1.0837974548339844
tdoa2.d7-0,   ,0.28150585293769836
tdoa2new.ts-6,   ,-125763320.0
tdoa2new.ts-7,   ,-125763320.0
tdoa2new.ts-0,   ,-125763320.0
tdoa2new.ts-1,   ,-125763320.0
tdoa2new.ts-2,   ,-125763320.0
tdoa2new.ts-3,   ,-125763320.0
tdoa2new.ts-4,   ,-125763320.0
tdoa2new.ts-5,   ,-125763320.0
tdoa2new.sn-6,   ,195.0
tdoa2new.sn-7,   ,195.0
tdoa2new.ts-0,   ,-125763320.0
tdoa2new.ts-1,   ,-125763320.0
tdoa2new.ts-2,   ,-125763320.0
tdoa2new.ts-3,   ,-125763320.0
tdoa2new.ts-4,   ,-125763320.0
tdoa2new.ts-5,   ,-125763320.0
tdoa2new.sn-6,   ,195.0
tdoa2new.sn-7,   ,195.0
tdoa2.d0-1,   ,-1.5201315879821777
tdoa2.d1-2,   ,-0.9477363228797913
tdoa2.d2-3,   ,3.41091251373291
tdoa2.d3-4,   ,-0.35188230872154236
tdoa2.d4-5,   ,-4.490017890930176
tdoa2.d5-6,   ,1.8954726457595825
tdoa2new.ts-6,   ,-125763320.0
tdoa2new.ts-7,   ,-125763320.0
tdoa2new.ts-0,   ,-125763320.0
tdoa2new.ts-1,   ,-125763320.0
tdoa2new.ts-2,   ,-125763320.0
tdoa2new.ts-3,   ,-125763320.0
tdoa2new.ts-4,   ,-125763320.0
tdoa2new.ts-5,   ,-125763320.0
tdoa2new.ts-6,   ,-125763320.0
tdoa2new.ts-7,   ,-125763320.0
tdoa2.d0-1,   ,-1.5201315879821777
tdoa2.d1-2,   ,-0.9477363228797913
tdoa2.d2-3,   ,3.41091251373291
tdoa2.d3-4,   ,-0.35188230872154236
tdoa2.d4-5,   ,-4.490017890930176
tdoa2.d5-6,   ,1.8954726457595825
tdoa2new.ts-6,   ,-125763320.0
tdoa2new.ts-7,   ,-125763320.0
tdoa2.d6-7,   ,1.0837974548339844
tdoa2.d7-0,   ,0.28150585293769836
tdoa2new.sn-0,   ,195.0
tdoa2new.sn-1,   ,195.0
tdoa2new.sn-2,   ,195.0
tdoa2new.sn-3,   ,195.0
tdoa2new.sn-4,   ,195.0
tdoa2new.sn-5,   ,195.0
tdoa2new.sn-6,   ,195.0
tdoa2new.sn-7,   ,195.0
tdoa2.d0-1,   ,-1.5201315879821777
tdoa2.d1-2,   ,-0.9477363228797913
tdoa2.d2-3,   ,3.41091251373291
tdoa2.d3-4,   ,-0.35188230872154236
tdoa2.d4-5,   ,-4.490017890930176
tdoa2.d5-6,   ,1.8954726457595825
tdoa2new.ts-6,   ,-125763320.0
tdoa2new.ts-7,   ,-125763320.0
tdoa2new.sn-6,   ,195.0
tdoa2new.sn-7,   ,195.0
tdoa2.d0-1,   ,-1.5201315879821777
tdoa2.d1-2,   ,-0.9477363228797913
tdoa2.d2-3,   ,3.41091251373291
tdoa2.d3-4,   ,-0.35188230872154236
tdoa2.d4-5,   ,-4.490017890930176
tdoa2.d5-6,   ,1.8954726457595825
tdoa2.d0-1,   ,-1.5201315879821777
tdoa2.d1-2,   ,-0.9477363228797913
tdoa2.d2-3,   ,3.41091251373291
tdoa2.d3-4,   ,-0.35188230872154236
tdoa2.d4-5,   ,-4.490017890930176
tdoa2.d5-6,   ,1.8954726457595825
tdoa2new.ts-6,   ,-125763320.0
tdoa2new.ts-7,   ,-125763320.0
tdoa2new.ts-0,   ,-125763320.0
tdoa2new.ts-1,   ,-125763320.0
tdoa2new.ts-2,   ,-125763320.0
tdoa2new.ts-3,   ,-125763320.0
tdoa2new.ts-4,   ,-125763320.0
tdoa2new.ts-5,   ,-125763320.0
tdoa2.d0-1,   ,-1.5201315879821777
tdoa2.d1-2,   ,-0.9477363228797913
tdoa2.d2-3,   ,3.41091251373291
tdoa2.d3-4,   ,-0.35188230872154236
tdoa2.d4-5,   ,-4.490017890930176
tdoa2.d5-6,   ,1.8954726457595825
tdoa2new.ts-6,   ,-125763320.0
tdoa2new.ts-7,   ,-125763320.0
tdoa2new.ts-6,   ,-125763320.0
tdoa2new.ts-7,   ,-125763320.0
tdoa2.d6-7,   ,1.0837974548339844
tdoa2.d7-0,   ,0.28150585293769836
tdoa2new.ts-0,   ,-125763320.0
tdoa2new.ts-1,   ,-125763320.0
tdoa2new.ts-2,   ,-125763320.0
tdoa2new.ts-3,   ,-125763320.0
tdoa2new.ts-4,   ,-125763320.0
tdoa2new.ts-5,   ,-125763320.0
tdoa2new.sn-6,   ,195.0
tdoa2new.sn-7,   ,195.0
tdoa2new.ts-0,   ,-125763320.0
tdoa2new.ts-1,   ,-125763320.0
tdoa2new.ts-2,   ,-125763320.0
tdoa2new.ts-3,   ,-125763320.0
tdoa2new.ts-4,   ,-125763320.0
tdoa2new.ts-5,   ,-125763320.0
tdoa2new.ts-6,   ,-125763320.0
tdoa2new.ts-7,   ,-125763320.0
tdoa2new.sn-6,   ,195.0
tdoa2new.sn-7,   ,195.0
tdoa2new.ts-6,   ,-125763320.0
tdoa2new.ts-7,   ,-125763320.0
tdoa2new.ts-6,   ,-125763320.0
tdoa2new.ts-7,   ,-125763320.0
tdoa2new.ts-6,   ,-125763320.0
tdoa2new.ts-7,   ,-125763320.0
tdoa2new.ts-0,   ,-125763320.0
tdoa2new.ts-1,   ,-125763320.0
tdoa2new.ts-2,   ,-125763320.0
tdoa2new.ts-3,   ,-125763320.0
tdoa2new.ts-4,   ,-125763320.0
tdoa2new.ts-5,   ,-125763320.0
tdoa2.d0-1,   ,-1.5201315879821777
tdoa2.d1-2,   ,-0.9477363228797913
tdoa2.d2-3,   ,3.41091251373291
tdoa2.d3-4,   ,-0.35188230872154236
tdoa2.d4-5,   ,-4.490017890930176
tdoa2.d5-6,   ,1.8954726457595825
tdoa2.d0-1,   ,-1.5201315879821777
tdoa2.d1-2,   ,-0.9477363228797913
tdoa2.d2-3,   ,3.41091251373291
tdoa2.d3-4,   ,-0.35188230872154236
tdoa2.d4-5,   ,-4.490017890930176
tdoa2.d5-6,   ,1.8954726457595825
tdoa2new.ts-6,   ,-125763320.0
tdoa2new.ts-7,   ,-125763320.0
tdoa2.d6-7,   ,1.0837974548339844
tdoa2.d7-0,   ,0.28150585293769836
tdoa2new.ts-0,   ,-125763320.0
tdoa2new.ts-1,   ,-125763320.0
tdoa2new.ts-2,   ,-125763320.0
tdoa2new.ts-3,   ,-125763320.0
tdoa2new.ts-4,   ,-125763320.0
tdoa2new.ts-5,   ,-125763320.0
tdoa2new.ts-6,   ,-125763320.0
tdoa2new.ts-7,   ,-125763320.0
tdoa2.d6-7,   ,1.0837974548339844
tdoa2.d7-0,   ,0.28150585293769836
tdoa2.d0-1,   ,-1.5201315879821777
tdoa2.d1-2,   ,-0.9477363228797913
tdoa2.d2-3,   ,3.41091251373291
tdoa2.d3-4,   ,-0.35188230872154236
tdoa2.d4-5,   ,-4.490017890930176
tdoa2.d5-6,   ,1.8954726457595825
tdoa2.d0-1,   ,-1.5201315879821777
tdoa2.d1-2,   ,-0.9477363228797913
tdoa2.d2-3,   ,3.41091251373291
tdoa2.d3-4,   ,-0.35188230872154236
tdoa2.d4-5,   ,-4.490017890930176
tdoa2.d5-6,   ,1.8954726457595825
tdoa2new.sn-6,   ,195.0
tdoa2new.sn-7,   ,195.0
tdoa2new.ts-0,   ,-125763320.0
tdoa2new.ts-1,   ,-125763320.0
tdoa2new.ts-2,   ,-125763320.0
tdoa2new.ts-3,   ,-125763320.0
tdoa2new.ts-4,   ,-125763320.0
tdoa2new.ts-5,   ,-125763320.0
tdoa2new.sn-6,   ,195.0
tdoa2new.sn-7,   ,195.0
tdoa2.d0-1,   ,-1.5201315879821777
tdoa2.d1-2,   ,-0.9477363228797913
tdoa2.d2-3,   ,3.41091251373291
tdoa2.d3-4,   ,-0.35188230872154236
tdoa2.d4-5,   ,-4.490017890930176
tdoa2.d5-6,   ,1.8954726457595825
tdoa2new.ts-0,   ,-125763320.0
tdoa2new.ts-1,   ,-125763320.0
tdoa2new.ts-2,   ,-125763320.0
tdoa2new.ts-3,   ,-125763320.0
tdoa2new.ts-4,   ,-125763320.0
tdoa2new.ts-5,   ,-125763320.0
tdoa2new.sn-6,   ,195.0
tdoa2new.sn-7,   ,195.0
tdoa2.d0-1,   ,-1.5201315879821777
tdoa2.d1-2,   ,-0.9477363228797913
tdoa2.d2-3,   ,3.41091251373291
tdoa2.d3-4,   ,-0.35188230872154236
tdoa2.d4-5,   ,-4.490017890930176
tdoa2.d5-6,   ,1.8954726457595825
tdoa2new.ts-6,   ,-125763320.0
tdoa2new.ts-7,   ,-125763320.0
tdoa2new.sn-6,   ,195.0
tdoa2new.sn-7,   ,195.0
tdoa2new.sn-6,   ,195.0
tdoa2new.sn-7,   ,195.0
tdoa2.d0-1,   ,-1.5201315879821777
tdoa2.d1-2,   ,-0.9477363228797913
tdoa2.d2-3,   ,3.41091251373291
tdoa2.d3-4,   ,-0.35188230872154236
tdoa2.d4-5,   ,-4.490017890930176
tdoa2.d5-6,   ,1.8954726457595825
tdoa2new.ts-0,   ,-125763320.0
tdoa2new.ts-1,   ,-125763320.0
tdoa2new.ts-2,   ,-125763320.0
tdoa2new.ts-3,   ,-125763320.0
tdoa2new.ts-4,   ,-125763320.0
tdoa2new.ts-5,   ,-125763320.0
tdoa2new.sn-6,   ,195.0
tdoa2new.sn-7,   ,195.0
tdoa2.d0-1,   ,-1.5201315879821777
tdoa2.d1-2,   ,-0.9477363228797913
tdoa2.d2-3,   ,3.41091251373291
tdoa2.d3-4,   ,-0.35188230872154236
tdoa2.d4-5,   ,-4.490017890930176
tdoa2.d5-6,   ,1.8954726457595825
tdoa2new.ts-6,   ,-125763320.0
tdoa2new.ts-7,   ,-125763320.0
tdoa2new.ts-6,   ,-125763320.0
tdoa2new.ts-7,   ,-125763320.0
tdoa2.d0-1,   ,-1.5201315879821777
tdoa2.d1-2,   ,-0.9477363228797913
tdoa2.d2-3,   ,3.41091251373291
tdoa2.d3-4,   ,-0.35188230872154236
tdoa2.d4-5,   ,-4.490017890930176
tdoa2.d5-6,   ,1.8954726457595825
tdoa2.d0-1,   ,-1.5201315879821777
tdoa2.d1-2,   ,-0.9477363228797913
tdoa2.d2-3,   ,3.41091251373291
tdoa2.d3-4,   ,-0.35188230872154236
tdoa2.d4-5,   ,-4.490017890930176
tdoa2.d5-6,   ,1.8954726457595825
tdoa2new.ts-6,   ,-125763320.0
tdoa2new.ts-7,   ,-125763320.0
tdoa2new.ts-0,   ,-125763320.0
tdoa2new.ts-1,   ,-125763320.0
tdoa2new.ts-2,   ,-125763320.0
tdoa2new.ts-3,   ,-125763320.0
tdoa2new.ts-4,   ,-125763320.0
tdoa2new.ts-5,   ,-125763320.0
tdoa2new.ts-6,   ,-125763320.0
tdoa2new.ts-7,   ,-125763320.0
tdoa2.d0-1,   ,-1.5201315879821777
tdoa2.d1-2,   ,-0.9477363228797913
tdoa2.d2-3,   ,3.41091251373291
tdoa2.d3-4,   ,-0.35188230872154236
tdoa2.d4-5,   ,-4.490017890930176
tdoa2.d5-6,   ,1.8954726457595825
tdoa2.d0-1,   ,-1.5201315879821777
tdoa2.d1-2,   ,-0.9477363228797913
tdoa2.d2-3,   ,3.41091251373291
tdoa2.d3-4,   ,-0.35188230872154236
tdoa2.d4-5,   ,-4.490017890930176
tdoa2.d5-6,   ,1.8954726457595825
tdoa2new.ts-6,   ,-125763320.0
tdoa2new.ts-7,   ,-125763320.0
tdoa2.d0-1,   ,-1.5201315879821777
tdoa2.d1-2,   ,-0.9477363228797913
tdoa2.d2-3,   ,3.41091251373291
tdoa2.d3-4,   ,-0.35188230872154236
tdoa2.d4-5,   ,-4.490017890930176
tdoa2.d5-6,   ,1.8954726457595825
tdoa2new.sn-6,   ,195.0
tdoa2new.sn-7,   ,195.0
tdoa2.d0-1,   ,-1.5201315879821777
tdoa2.d1-2,   ,-0.9477363228797913
tdoa2.d2-3,   ,3.41091251373291
tdoa2.d3-4,   ,-0.35188230872154236
tdoa2.d4-5,   ,-4.490017890930176
tdoa2.d5-6,   ,1.8954726457595825
tdoa2.d0-1,   ,-1.5201315879821777
tdoa2.d1-2,   ,-0.9477363228797913
tdoa2.d2-3,   ,3.41091251373291
tdoa2.d3-4,   ,-0.35188230872154236
tdoa2.d4-5,   ,-4.490017890930176
tdoa2.d5-6,   ,1.8954726457595825
tdoa2new.ts-6,   ,-125763320.0
tdoa2new.ts-7,   ,-125763320.0
tdoa2.d0-1,   ,-1.5201315879821777
tdoa2.d1-2,   ,-0.9477363228797913
tdoa2.d2-3,   ,3.41091251373291
tdoa2.d3-4,   ,-0.35188230872154236
tdoa2.d4-5,   ,-4.490017890930176
tdoa2.d5-6,   ,1.8954726457595825
tdoa2new.ts-6,   ,-125763320.0
tdoa2new.ts-7,   ,-125763320.0
tdoa2.d0-1,   ,-1.5201315879821777
tdoa2.d1-2,   ,-0.9477363228797913
tdoa2.d2-3,   ,3.41091251373291
tdoa2.d3-4,   ,-0.35188230872154236
tdoa2.d4-5,   ,-4.490017890930176
tdoa2.d5-6,   ,1.8954726457595825
tdoa2new.ts-6,   ,-125763320.0
tdoa2new.ts-7,   ,-125763320.0
tdoa2.d0-1,   ,-1.5201315879821777
tdoa2.d1-2,   ,-0.9477363228797913
tdoa2.d2-3,   ,3.41091251373291
tdoa2.d3-4,   ,-0.35188230872154236
tdoa2.d4-5,   ,-4.490017890930176
tdoa2.d5-6,   ,1.8954726457595825
tdoa2new.ts-6,   ,-125763320.0
tdoa2new.ts-7,   ,-125763320.0
tdoa2new.sn-6,   ,195.0
tdoa2new.sn-7,   ,195.0
tdoa2new.sn-6,   ,195.0
tdoa2new.sn-7,   ,195.0
tdoa2new.ts-6,   ,-125763320.0
tdoa2new.ts-7,   ,-125763320.0
tdoa2.d0-1,   ,-1.5201315879821777
tdoa2.d1-2,   ,-0.9477363228797913
tdoa2.d2-3,   ,3.41091251373291
tdoa2.d3-4,   ,-0.35188230872154236
tdoa2.d4-5,   ,-4.490017890930176
tdoa2.d5-6,   ,1.8954726457595825
tdoa2new.ts-6,   ,-125763320.0
tdoa2new.ts-7,   ,-125763320.0
tdoa2.d0-1,   ,-1.5201315879821777
tdoa2.d1-2,   ,-0.9477363228797913
tdoa2.d2-3,   ,3.41091251373291
tdoa2.d3-4,   ,-0.35188230872154236
tdoa2.d4-5,   ,-4.490017890930176
tdoa2.d5-6,   ,1.8954726457595825
tdoa2new.ts-6,   ,-125763320.0
tdoa2new.ts-7,   ,-125763320.0
tdoa2.d0-1,   ,-1.5201315879821777
tdoa2.d1-2,   ,-0.9477363228797913
tdoa2.d2-3,   ,3.41091251373291
tdoa2.d3-4,   ,-0.35188230872154236
tdoa2.d4-5,   ,-4.490017890930176
tdoa2.d5-6,   ,1.8954726457595825
tdoa2.d0-1,   ,-1.5201315879821777
tdoa2.d1-2,   ,-0.9477363228797913
tdoa2.d2-3,   ,3.41091251373291
tdoa2.d3-4,   ,-0.35188230872154236
tdoa2.d4-5,   ,-4.490017890930176
tdoa2.d5-6,   ,1.8954726457595825
tdoa2new.ts-6,   ,-125763320.0
tdoa2new.ts-7,   ,-125763320.0
tdoa2.d0-1,   ,-1.5201315879821777
tdoa2.d1-2,   ,-0.9477363228797913
tdoa2.d2-3,   ,3.41091251373291
tdoa2.d3-4,   ,-0.35188230872154236
tdoa2.d4-5,   ,-4.490017890930176
tdoa2.d5-6,   ,1.8954726457595825
tdoa2new.ts-0,   ,-125763320.0
tdoa2new.ts-1,   ,-125763320.0
tdoa2new.ts-2,   ,-125763320.0
tdoa2new.ts-3,   ,-125763320.0
tdoa2new.ts-4,   ,-125763320.0
tdoa2new.ts-5,   ,-125763320.0
tdoa2.d0-1,   ,-1.5201315879821777
tdoa2.d1-2,   ,-0.9477363228797913
tdoa2.d2-3,   ,3.41091251373291
tdoa2.d3-4,   ,-0.35188230872154236
tdoa2.d4-5,   ,-4.490017890930176
tdoa2.d5-6,   ,1.8954726457595825
tdoa2new.sn-6,   ,195.0
tdoa2new.sn-7,   ,195.0
tdoa2new.sn-6,   ,195.0
tdoa2new.sn-7,   ,195.0
tdoa2.d0-1,   ,-1.5201315879821777
tdoa2.d1-2,   ,-0.9477363228797913
tdoa2.d2-3,   ,3.41091251373291
tdoa2.d3-4,   ,-0.35188230872154236
tdoa2.d4-5,   ,-4.490017890930176
tdoa2.d5-6,   ,1.8954726457595825
tdoa2new.ts-6,   ,-125763320.0
tdoa2new.ts-7,   ,-125763320.0
tdoa2new.ts-0,   ,-125763320.0
tdoa2new.ts-1,   ,-125763320.0
tdoa2new.ts-2,   ,-125763320.0
tdoa2new.ts-3,   ,-125763320.0
tdoa2new.ts-4,   ,-125763320.0
tdoa2new.ts-5,   ,-125763320.0
tdoa2new.ts-0,   ,-125763320.0
tdoa2new.ts-1,   ,-125763320.0
tdoa2new.ts-2,   ,-125763320.0
tdoa2new.ts-3,   ,-125763320.0
tdoa2new.ts-4,   ,-125763320.0
tdoa2new.ts-5,   ,-125763320.0
tdoa2new.ts-6,   ,-125763320.0
tdoa2new.ts-7,   ,-125763320.0
tdoa2new.sn-6,   ,195.0
tdoa2new.sn-7,   ,195.0
tdoa2new.ts-0,   ,-125763320.0
tdoa2new.ts-1,   ,-125763320.0
tdoa2new.ts-2,   ,-125763320.0
tdoa2new.ts-3,   ,-125763320.0
tdoa2new.ts-4,   ,-125763320.0
tdoa2new.ts-5,   ,-125763320.0
tdoa2new.ts-6,   ,-125763320.0
tdoa2new.ts-7,   ,-125763320.0
tdoa2new.sn-6,   ,195.0
tdoa2new.sn-7,   ,195.0
tdoa2new.sn-6,   ,195.0
tdoa2new.sn-7,   ,195.0
tdoa2new.ts-0,   ,-125763320.0
tdoa2new.ts-1,   ,-125763320.0
tdoa2new.ts-2,   ,-125763320.0
tdoa2new.ts-3,   ,-125763320.0
tdoa2new.ts-4,   ,-125763320.0
tdoa2new.ts-5,   ,-125763320.0
tdoa2new.sn-6,   ,195.0
tdoa2new.sn-7,   ,195.0
tdoa2new.ts-6,   ,-125763320.0
tdoa2new.ts-7,   ,-125763320.0
tdoa2.d0-1,   ,-1.5201315879821777
tdoa2.d1-2,   ,-0.9477363228797913
tdoa2.d2-3,   ,3.41091251373291
tdoa2.d3-4,   ,-0.35188230872154236
tdoa2.d4-5,   ,-4.490017890930176
tdoa2.d5-6,   ,1.8954726457595825
tdoa2new.ts-6,   ,-125763320.0
tdoa2new.ts-7,   ,-125763320.0
tdoa2.d6-7,   ,1.0837974548339844
tdoa2.d7-0,   ,0.28150585293769836
tdoa2new.ts-6,   ,-125763320.0
tdoa2new.ts-7,   ,-125763320.0
tdoa2.d0-1,   ,-1.5201315879821777
tdoa2.d1-2,   ,-0.9477363228797913
tdoa2.d2-3,   ,3.41091251373291
tdoa2.d3-4,   ,-0.35188230872154236
tdoa2.d4-5,   ,-4.490017890930176
tdoa2.d5-6,   ,1.8954726457595825
tdoa2new.sn-6,   ,195.0
tdoa2new.sn-7,   ,195.0
tdoa2.d0-1,   ,-1.5201315879821777
tdoa2.d1-2,   ,-0.9477363228797913
tdoa2.d2-3,   ,3.41091251373291
tdoa2.d3-4,   ,-0.35188230872154236
tdoa2.d4-5,   ,-4.490017890930176
tdoa2.d5-6,   ,1.8954726457595825
tdoa2new.ts-6,   ,-125763320.0
tdoa2new.ts-7,   ,-125763320.0
tdoa2.d0-1,   ,-1.5201315879821777
tdoa2.d1-2,   ,-0.9477363228797913
tdoa2.d2-3,   ,3.41091251373291
tdoa2.d3-4,   ,-0.35188230872154236
tdoa2.d4-5,   ,-4.490017890930176
tdoa2.d5-6,   ,1.8954726457595825
tdoa2new.ts-6,   ,-125763320.0
tdoa2new.ts-7,   ,-125763320.0
tdoa2new.ts-6,   ,-125763320.0
tdoa2new.ts-7,   ,-125763320.0
tdoa2new.sn-6,   ,195.0
tdoa2new.sn-7,   ,195.0
tdoa2new.sn-6,   ,195.0
tdoa2new.sn-7,   ,195.0
tdoa2new.ts-0,   ,-125763320.0
tdoa2new.ts-1,   ,-125763320.0
tdoa2new.ts-2,   ,-125763320.0
tdoa2new.ts-3,   ,-125763320.0
tdoa2new.ts-4,   ,-125763320.0
tdoa2new.ts-5,   ,-125763320.0
tdoa2new.ts-6,   ,-125763320.0
tdoa2new.ts-7,   ,-125763320.0
tdoa2.d6-7,   ,1.0837974548339844
tdoa2.d7-0,   ,0.28150585293769836
tdoa2.d0-1,   ,-1.5201315879821777
tdoa2.d1-2,   ,-0.9477363228797913
tdoa2.d2-3,   ,3.41091251373291
tdoa2.d3-4,   ,-0.35188230872154236
tdoa2.d4-5,   ,-4.490017890930176
tdoa2.d5-6,   ,1.8954726457595825
tdoa2.d0-1,   ,-1.5201315879821777
tdoa2.d1-2,   ,-0.9477363228797913
tdoa2.d2-3,   ,3.41091251373291
tdoa2.d3-4,   ,-0.35188230872154236
tdoa2.d4-5,   ,-4.490017890930176
tdoa2.d5-6,   ,1.8954726457595825
tdoa2new.ts-6,   ,-125763320.0
tdoa2new.ts-7,   ,-125763320.0
