tdoa2new.sn-0,   ,206.0
tdoa2new.sn-1,   ,206.0
tdoa2new.sn-2,   ,206.0
tdoa2new.sn-3,   ,206.0
tdoa2new.sn-4,   ,206.0
tdoa2new.sn-5,   ,206.0
tdoa2new.sn-6,   ,206.0
tdoa2new.sn-7,   ,206.0
tdoa2.d0-1,   ,-1.5482821464538574
tdoa2.d1-2,   ,-1.6186585426330566
tdoa2.d2-3,   ,5.648883819580078
tdoa2.d3-4,   ,1.1447904109954834
tdoa2.d4-5,   ,-3.683034658432007
tdoa2.d5-6,   ,1.4075292348861694
tdoa2.d6-7,   ,1.1447904109954834
tdoa2.d7-0,   ,0.28150585293769836
tdoa2new.ts-0,   ,-1199505152.0
tdoa2new.ts-1,   ,-1199505152.0
tdoa2new.ts-2,   ,-1199505152.0
tdoa2new.ts-3,   ,-1199505152.0
tdoa2new.ts-4,   ,-1199505152.0
tdoa2new.ts-5,   ,-1199505152.0
tdoa2new.ts-6,   ,-1199505152.0
tdoa2new.ts-7,   ,-1199505152.0
tdoa2new.sn-0,   ,206.0
tdoa2new.sn-1,   ,206.0
tdoa2new.sn-2,   ,206.0
tdoa2new.sn-3,   ,206.0
tdoa2new.sn-4,   ,206.0
tdoa2new.sn-5,   ,206.0
tdoa2new.sn-6,   ,206.0
tdoa2new.sn-7,   ,206.0
tdoa2.d0-1,   ,-1.5482821464538574
tdoa2.d1-2,   ,-1.6186585426330566
tdoa2.d2-3,   ,5.648883819580078
tdoa2.d3-4,   ,1.1447904109954834
tdoa2.d4-5,   ,-3.683034658432007
tdoa2.d5-6,   ,1.4075292348861694
tdoa2.d6-7,   ,1.1447904109954834
tdoa2.d7-0,   ,0.28150585293769836
tdoa2new.ts-0,   ,-1199505152.0
tdoa2new.ts-1,   ,-1199505152.0
tdoa2new.ts-2,   ,-1199505152.0
tdoa2new.ts-3,   ,-1199505152.0
tdoa2new.ts-4,   ,-1199505152.0
tdoa2new.ts-5,   ,-1199505152.0
tdoa2new.ts-6,   ,-1199505152.0
tdoa2new.ts-7,   ,-1199505152.0
tdoa2new.sn-0,   ,206.0
tdoa2new.sn-1,   ,206.0
tdoa2new.sn-2,   ,206.0
tdoa2new.sn-3,   ,206.0
tdoa2new.sn-4,   ,206.0
tdoa2new.sn-5,   ,206.0
tdoa2new.sn-6,   ,206.0
tdoa2new.sn-7,   ,206.0
tdoa2.d0-1,   ,-1.5482821464538574
tdoa2.d1-2,   ,-1.6186585426330566
tdoa2.d2-3,   ,5.648883819580078
tdoa2.d3-4,   ,1.1447904109954834
tdoa2.d4-5,   ,-3.683034658432007
tdoa2.d5-6,   ,1.4075292348861694
tdoa2.d6-7,   ,1.1447904109954834
tdoa2.d7-0,   ,0.28150585293769836
tdoa2new.ts-0,   ,-1199505152.0
tdoa2new.ts-1,   ,-1199505152.0
tdoa2new.ts-2,   ,-1199505152.0
tdoa2new.ts-3,   ,-1199505152.0
tdoa2new.ts-4,   ,-1199505152.0
tdoa2new.ts-5,   ,-1199505152.0
tdoa2new.ts-6,   ,-1199505152.0
tdoa2new.ts-7,   ,-1199505152.0
tdoa2new.sn-0,   ,206.0
tdoa2new.sn-1,   ,206.0
tdoa2new.sn-2,   ,206.0
tdoa2new.sn-3,   ,206.0
tdoa2new.sn-4,   ,206.0
tdoa2new.sn-5,   ,206.0
tdoa2new.sn-6,   ,206.0
tdoa2new.sn-7,   ,206.0
tdoa2.d0-1,   ,-1.5482821464538574
tdoa2.d1-2,   ,-1.6186585426330566
tdoa2.d2-3,   ,5.648883819580078
tdoa2.d3-4,   ,1.1447904109954834
tdoa2.d4-5,   ,-3.683034658432007
tdoa2.d5-6,   ,1.4075292348861694
tdoa2.d6-7,   ,1.1447904109954834
tdoa2.d7-0,   ,0.28150585293769836
tdoa2new.ts-0,   ,-1199505152.0
tdoa2new.ts-1,   ,-1199505152.0
tdoa2new.ts-2,   ,-1199505152.0
tdoa2new.ts-3,   ,-1199505152.0
tdoa2new.ts-4,   ,-1199505152.0
tdoa2new.ts-5,   ,-1199505152.0
tdoa2new.ts-6,   ,-1199505152.0
tdoa2new.ts-7,   ,-1199505152.0
tdoa2new.sn-0,   ,206.0
tdoa2new.sn-1,   ,206.0
tdoa2new.sn-2,   ,206.0
tdoa2new.sn-3,   ,206.0
tdoa2new.sn-4,   ,206.0
tdoa2new.sn-5,   ,206.0
tdoa2new.sn-6,   ,206.0
tdoa2new.sn-7,   ,206.0
tdoa2.d0-1,   ,-1.5482821464538574
tdoa2.d1-2,   ,-1.6186585426330566
tdoa2.d2-3,   ,5.648883819580078
tdoa2.d3-4,   ,1.1447904109954834
tdoa2.d4-5,   ,-3.683034658432007
tdoa2.d5-6,   ,1.4075292348861694
tdoa2.d6-7,   ,1.1447904109954834
tdoa2.d7-0,   ,0.28150585293769836
tdoa2new.ts-0,   ,-1199505152.0
tdoa2new.ts-1,   ,-1199505152.0
tdoa2new.ts-2,   ,-1199505152.0
tdoa2new.ts-3,   ,-1199505152.0
tdoa2new.ts-4,   ,-1199505152.0
tdoa2new.ts-5,   ,-1199505152.0
tdoa2new.ts-6,   ,-1199505152.0
tdoa2new.ts-7,   ,-1199505152.0
tdoa2new.sn-0,   ,206.0
tdoa2new.sn-1,   ,206.0
tdoa2new.sn-2,   ,206.0
tdoa2new.sn-3,   ,206.0
tdoa2new.sn-4,   ,206.0
tdoa2new.sn-5,   ,206.0
tdoa2new.sn-6,   ,206.0
tdoa2new.sn-7,   ,206.0
tdoa2.d0-1,   ,-1.5482821464538574
tdoa2.d1-2,   ,-1.6186585426330566
tdoa2.d2-3,   ,5.648883819580078
tdoa2.d3-4,   ,1.1447904109954834
tdoa2.d4-5,   ,-3.683034658432007
tdoa2.d5-6,   ,1.4075292348861694
tdoa2.d6-7,   ,1.1447904109954834
tdoa2.d7-0,   ,0.28150585293769836
tdoa2new.ts-0,   ,-1199505152.0
tdoa2new.ts-1,   ,-1199505152.0
tdoa2new.ts-2,   ,-1199505152.0
tdoa2new.ts-3,   ,-1199505152.0
tdoa2new.ts-4,   ,-1199505152.0
tdoa2new.ts-5,   ,-1199505152.0
tdoa2new.ts-6,   ,-1199505152.0
tdoa2new.ts-7,   ,-1199505152.0
tdoa2new.sn-0,   ,206.0
tdoa2new.sn-1,   ,206.0
tdoa2new.sn-2,   ,206.0
tdoa2new.sn-3,   ,206.0
tdoa2new.sn-4,   ,206.0
tdoa2new.sn-5,   ,206.0
tdoa2new.sn-6,   ,206.0
tdoa2new.sn-7,   ,206.0
tdoa2.d0-1,   ,-1.5482821464538574
tdoa2.d1-2,   ,-1.6186585426330566
tdoa2.d2-3,   ,5.648883819580078
tdoa2.d3-4,   ,1.1447904109954834
tdoa2.d4-5,   ,-3.683034658432007
tdoa2.d5-6,   ,1.4075292348861694
tdoa2.d6-7,   ,1.1447904109954834
tdoa2.d7-0,   ,0.28150585293769836
tdoa2new.ts-0,   ,-1199505152.0
tdoa2new.ts-1,   ,-1199505152.0
tdoa2new.ts-2,   ,-1199505152.0
tdoa2new.ts-3,   ,-1199505152.0
tdoa2new.ts-4,   ,-1199505152.0
tdoa2new.ts-5,   ,-1199505152.0
tdoa2new.ts-6,   ,-1199505152.0
tdoa2new.ts-7,   ,-1199505152.0
tdoa2new.sn-0,   ,206.0
tdoa2new.sn-1,   ,206.0
tdoa2new.sn-2,   ,206.0
tdoa2new.sn-3,   ,206.0
tdoa2new.sn-4,   ,206.0
tdoa2new.sn-5,   ,206.0
tdoa2new.sn-6,   ,206.0
tdoa2new.sn-7,   ,206.0
tdoa2.d0-1,   ,-1.5482821464538574
tdoa2.d1-2,   ,-1.6186585426330566
tdoa2.d2-3,   ,5.648883819580078
tdoa2.d3-4,   ,1.1447904109954834
tdoa2.d4-5,   ,-3.683034658432007
tdoa2.d5-6,   ,1.4075292348861694
tdoa2.d6-7,   ,1.1447904109954834
tdoa2.d7-0,   ,0.28150585293769836
tdoa2new.ts-0,   ,-1199505152.0
tdoa2new.ts-1,   ,-1199505152.0
tdoa2new.ts-2,   ,-1199505152.0
tdoa2new.ts-3,   ,-1199505152.0
tdoa2new.ts-4,   ,-1199505152.0
tdoa2new.ts-5,   ,-1199505152.0
tdoa2new.ts-6,   ,-1199505152.0
tdoa2new.ts-7,   ,-1199505152.0
tdoa2new.sn-0,   ,206.0
tdoa2new.sn-1,   ,206.0
tdoa2new.sn-2,   ,206.0
tdoa2new.sn-3,   ,206.0
tdoa2new.sn-4,   ,206.0
tdoa2new.sn-5,   ,206.0
tdoa2new.sn-6,   ,206.0
tdoa2new.sn-7,   ,206.0
tdoa2.d0-1,   ,-1.5482821464538574
tdoa2.d1-2,   ,-1.6186585426330566
tdoa2.d2-3,   ,5.648883819580078
tdoa2.d3-4,   ,1.1447904109954834
tdoa2.d4-5,   ,-3.683034658432007
tdoa2.d5-6,   ,1.4075292348861694
tdoa2.d6-7,   ,1.1447904109954834
tdoa2.d7-0,   ,0.28150585293769836
tdoa2new.ts-0,   ,-1199505152.0
tdoa2new.ts-1,   ,-1199505152.0
tdoa2new.ts-2,   ,-1199505152.0
tdoa2new.ts-3,   ,-1199505152.0
tdoa2new.ts-4,   ,-1199505152.0
tdoa2new.ts-5,   ,-1199505152.0
tdoa2new.ts-6,   ,-1199505152.0
tdoa2new.ts-7,   ,-1199505152.0
tdoa2new.sn-0,   ,206.0
tdoa2new.sn-1,   ,206.0
tdoa2new.sn-2,   ,206.0
tdoa2new.sn-3,   ,206.0
tdoa2new.sn-4,   ,206.0
tdoa2new.sn-5,   ,206.0
tdoa2new.sn-6,   ,206.0
tdoa2new.sn-7,   ,206.0
tdoa2.d0-1,   ,-1.5482821464538574
tdoa2.d1-2,   ,-1.6186585426330566
tdoa2.d2-3,   ,5.648883819580078
tdoa2.d3-4,   ,1.1447904109954834
tdoa2.d4-5,   ,-3.683034658432007
tdoa2.d5-6,   ,1.4075292348861694
tdoa2.d6-7,   ,1.1447904109954834
tdoa2.d7-0,   ,0.28150585293769836
tdoa2new.ts-0,   ,-1199505152.0
tdoa2new.ts-1,   ,-1199505152.0
tdoa2new.ts-2,   ,-1199505152.0
tdoa2new.ts-3,   ,-1199505152.0
tdoa2new.ts-4,   ,-1199505152.0
tdoa2new.ts-5,   ,-1199505152.0
tdoa2new.ts-6,   ,-1199505152.0
tdoa2new.ts-7,   ,-1199505152.0
tdoa2new.sn-0,   ,206.0
tdoa2new.sn-1,   ,206.0
tdoa2new.sn-2,   ,206.0
tdoa2new.sn-3,   ,206.0
tdoa2new.sn-4,   ,206.0
tdoa2new.sn-5,   ,206.0
tdoa2new.sn-6,   ,206.0
tdoa2new.sn-7,   ,206.0
tdoa2.d0-1,   ,-1.5482821464538574
tdoa2.d1-2,   ,-1.6186585426330566
tdoa2.d2-3,   ,5.648883819580078
tdoa2.d3-4,   ,1.1447904109954834
tdoa2.d4-5,   ,-3.683034658432007
tdoa2.d5-6,   ,1.4075292348861694
tdoa2.d6-7,   ,1.1447904109954834
tdoa2.d7-0,   ,0.28150585293769836
tdoa2new.ts-0,   ,-1199505152.0
tdoa2new.ts-1,   ,-1199505152.0
tdoa2new.ts-2,   ,-1199505152.0
tdoa2new.ts-3,   ,-1199505152.0
tdoa2new.ts-4,   ,-1199505152.0
tdoa2new.ts-5,   ,-1199505152.0
tdoa2new.ts-6,   ,-1199505152.0
tdoa2new.ts-7,   ,-1199505152.0
tdoa2new.sn-0,   ,206.0
tdoa2new.sn-1,   ,206.0
tdoa2new.sn-2,   ,206.0
tdoa2new.sn-3,   ,206.0
tdoa2new.sn-4,   ,206.0
tdoa2new.sn-5,   ,206.0
tdoa2new.sn-6,   ,206.0
tdoa2new.sn-7,   ,206.0
tdoa2.d0-1,   ,-1.5482821464538574
tdoa2.d1-2,   ,-1.6186585426330566
tdoa2.d2-3,   ,5.648883819580078
tdoa2.d3-4,   ,1.1447904109954834
tdoa2.d4-5,   ,-3.683034658432007
tdoa2.d5-6,   ,1.4075292348861694
tdoa2.d6-7,   ,1.1447904109954834
tdoa2.d7-0,   ,0.28150585293769836
tdoa2new.ts-0,   ,-1199505152.0
tdoa2new.ts-1,   ,-1199505152.0
tdoa2new.ts-2,   ,-1199505152.0
tdoa2new.ts-3,   ,-1199505152.0
tdoa2new.ts-4,   ,-1199505152.0
tdoa2new.ts-5,   ,-1199505152.0
tdoa2new.ts-6,   ,-1199505152.0
tdoa2new.ts-7,   ,-1199505152.0
tdoa2new.sn-0,   ,206.0
tdoa2new.sn-1,   ,206.0
tdoa2new.sn-2,   ,206.0
tdoa2new.sn-3,   ,206.0
tdoa2new.sn-4,   ,206.0
tdoa2new.sn-5,   ,206.0
tdoa2new.sn-6,   ,206.0
tdoa2new.sn-7,   ,206.0
tdoa2.d0-1,   ,-1.5482821464538574
tdoa2.d1-2,   ,-1.6186585426330566
tdoa2.d2-3,   ,5.648883819580078
tdoa2.d3-4,   ,1.1447904109954834
tdoa2.d4-5,   ,-3.683034658432007
tdoa2.d5-6,   ,1.4075292348861694
tdoa2.d6-7,   ,1.1447904109954834
tdoa2.d7-0,   ,0.28150585293769836
tdoa2new.ts-0,   ,-1199505152.0
tdoa2new.ts-1,   ,-1199505152.0
tdoa2new.ts-2,   ,-1199505152.0
tdoa2new.ts-3,   ,-1199505152.0
tdoa2new.ts-4,   ,-1199505152.0
tdoa2new.ts-5,   ,-1199505152.0
tdoa2new.ts-6,   ,-1199505152.0
tdoa2new.ts-7,   ,-1199505152.0
tdoa2new.sn-0,   ,206.0
tdoa2new.sn-1,   ,206.0
tdoa2new.sn-2,   ,206.0
tdoa2new.sn-3,   ,206.0
tdoa2new.sn-4,   ,206.0
tdoa2new.sn-5,   ,206.0
tdoa2new.sn-6,   ,206.0
tdoa2new.sn-7,   ,206.0
tdoa2.d0-1,   ,-1.5482821464538574
tdoa2.d1-2,   ,-1.6186585426330566
tdoa2.d2-3,   ,5.648883819580078
tdoa2.d3-4,   ,1.1447904109954834
tdoa2.d4-5,   ,-3.683034658432007
tdoa2.d5-6,   ,1.4075292348861694
tdoa2.d6-7,   ,1.1447904109954834
tdoa2.d7-0,   ,0.28150585293769836
tdoa2new.ts-0,   ,-1199505152.0
tdoa2new.ts-1,   ,-1199505152.0
tdoa2new.ts-2,   ,-1199505152.0
tdoa2new.ts-3,   ,-1199505152.0
tdoa2new.ts-4,   ,-1199505152.0
tdoa2new.ts-5,   ,-1199505152.0
tdoa2new.ts-6,   ,-1199505152.0
tdoa2new.ts-7,   ,-1199505152.0
tdoa2new.sn-0,   ,206.0
tdoa2new.sn-1,   ,206.0
tdoa2new.sn-2,   ,206.0
tdoa2new.sn-3,   ,206.0
tdoa2new.sn-4,   ,206.0
tdoa2new.sn-5,   ,206.0
tdoa2new.sn-6,   ,206.0
tdoa2new.sn-7,   ,206.0
tdoa2.d0-1,   ,-1.5482821464538574
tdoa2.d1-2,   ,-1.6186585426330566
tdoa2.d2-3,   ,5.648883819580078
tdoa2.d3-4,   ,1.1447904109954834
tdoa2.d4-5,   ,-3.683034658432007
tdoa2.d5-6,   ,1.4075292348861694
tdoa2.d6-7,   ,1.1447904109954834
tdoa2.d7-0,   ,0.28150585293769836
tdoa2new.ts-0,   ,-1199505152.0
tdoa2new.ts-1,   ,-1199505152.0
tdoa2new.ts-2,   ,-1199505152.0
tdoa2new.ts-3,   ,-1199505152.0
tdoa2new.ts-4,   ,-1199505152.0
tdoa2new.ts-5,   ,-1199505152.0
tdoa2new.ts-6,   ,-1199505152.0
tdoa2new.ts-7,   ,-1199505152.0
tdoa2new.sn-0,   ,206.0
tdoa2new.sn-1,   ,206.0
tdoa2new.sn-2,   ,206.0
tdoa2new.sn-3,   ,206.0
tdoa2new.sn-4,   ,206.0
tdoa2new.sn-5,   ,206.0
tdoa2new.sn-6,   ,206.0
tdoa2new.sn-7,   ,206.0
tdoa2.d0-1,   ,-1.5482821464538574
tdoa2.d1-2,   ,-1.6186585426330566
tdoa2.d2-3,   ,5.648883819580078
tdoa2.d3-4,   ,1.1447904109954834
tdoa2.d4-5,   ,-3.683034658432007
tdoa2.d5-6,   ,1.4075292348861694
tdoa2.d6-7,   ,1.1447904109954834
tdoa2.d7-0,   ,0.28150585293769836
tdoa2new.ts-0,   ,-1199505152.0
tdoa2new.ts-1,   ,-1199505152.0
tdoa2new.ts-2,   ,-1199505152.0
tdoa2new.ts-3,   ,-1199505152.0
tdoa2new.ts-4,   ,-1199505152.0
tdoa2new.ts-5,   ,-1199505152.0
tdoa2new.ts-6,   ,-1199505152.0
tdoa2new.ts-7,   ,-1199505152.0
tdoa2new.sn-0,   ,206.0
tdoa2new.sn-1,   ,206.0
tdoa2new.sn-2,   ,206.0
tdoa2new.sn-3,   ,206.0
tdoa2new.sn-4,   ,206.0
tdoa2new.sn-5,   ,206.0
tdoa2new.sn-6,   ,206.0
tdoa2new.sn-7,   ,206.0
tdoa2.d0-1,   ,-1.5482821464538574
tdoa2.d1-2,   ,-1.6186585426330566
tdoa2.d2-3,   ,5.648883819580078
tdoa2.d3-4,   ,1.1447904109954834
tdoa2.d4-5,   ,-3.683034658432007
tdoa2.d5-6,   ,1.4075292348861694
tdoa2.d6-7,   ,1.1447904109954834
tdoa2.d7-0,   ,0.28150585293769836
tdoa2new.ts-0,   ,-1199505152.0
tdoa2new.ts-1,   ,-1199505152.0
tdoa2new.ts-2,   ,-1199505152.0
tdoa2new.ts-3,   ,-1199505152.0
tdoa2new.ts-4,   ,-1199505152.0
tdoa2new.ts-5,   ,-1199505152.0
tdoa2new.ts-6,   ,-1199505152.0
tdoa2new.ts-7,   ,-1199505152.0
tdoa2new.sn-0,   ,206.0
tdoa2new.sn-1,   ,206.0
tdoa2new.sn-2,   ,206.0
tdoa2new.sn-3,   ,206.0
tdoa2new.sn-4,   ,206.0
tdoa2new.sn-5,   ,206.0
tdoa2new.sn-6,   ,206.0
tdoa2new.sn-7,   ,206.0
tdoa2.d0-1,   ,-1.5482821464538574
tdoa2.d1-2,   ,-1.6186585426330566
tdoa2.d2-3,   ,5.648883819580078
tdoa2.d3-4,   ,1.1447904109954834
tdoa2.d4-5,   ,-3.683034658432007
tdoa2.d5-6,   ,1.4075292348861694
tdoa2.d6-7,   ,1.1447904109954834
tdoa2.d7-0,   ,0.28150585293769836
tdoa2new.ts-0,   ,-1199505152.0
tdoa2new.ts-1,   ,-1199505152.0
tdoa2new.ts-2,   ,-1199505152.0
tdoa2new.ts-3,   ,-1199505152.0
tdoa2new.ts-4,   ,-1199505152.0
tdoa2new.ts-5,   ,-1199505152.0
tdoa2new.ts-6,   ,-1199505152.0
tdoa2new.ts-7,   ,-1199505152.0
tdoa2new.sn-0,   ,206.0
tdoa2new.sn-1,   ,206.0
tdoa2new.sn-2,   ,206.0
tdoa2new.sn-3,   ,206.0
tdoa2new.sn-4,   ,206.0
tdoa2new.sn-5,   ,206.0
tdoa2new.sn-6,   ,206.0
tdoa2new.sn-7,   ,206.0
tdoa2.d0-1,   ,-1.5482821464538574
tdoa2.d1-2,   ,-1.6186585426330566
tdoa2.d2-3,   ,5.648883819580078
tdoa2.d3-4,   ,1.1447904109954834
tdoa2.d4-5,   ,-3.683034658432007
tdoa2.d5-6,   ,1.4075292348861694
tdoa2.d6-7,   ,1.1447904109954834
tdoa2.d7-0,   ,0.28150585293769836
tdoa2new.ts-0,   ,-1199505152.0
tdoa2new.ts-1,   ,-1199505152.0
tdoa2new.ts-2,   ,-1199505152.0
tdoa2new.ts-3,   ,-1199505152.0
tdoa2new.ts-4,   ,-1199505152.0
tdoa2new.ts-5,   ,-1199505152.0
tdoa2new.ts-6,   ,-1199505152.0
tdoa2new.ts-7,   ,-1199505152.0
tdoa2new.sn-0,   ,206.0
tdoa2new.sn-1,   ,206.0
tdoa2new.sn-2,   ,206.0
tdoa2new.sn-3,   ,206.0
tdoa2new.sn-4,   ,206.0
tdoa2new.sn-5,   ,206.0
tdoa2new.sn-6,   ,206.0
tdoa2new.sn-7,   ,206.0
tdoa2.d0-1,   ,-1.5482821464538574
tdoa2.d1-2,   ,-1.6186585426330566
tdoa2.d2-3,   ,5.648883819580078
tdoa2.d3-4,   ,1.1447904109954834
tdoa2.d4-5,   ,-3.683034658432007
tdoa2.d5-6,   ,1.4075292348861694
tdoa2.d6-7,   ,1.1447904109954834
tdoa2.d7-0,   ,0.28150585293769836
tdoa2new.ts-0,   ,-1199505152.0
tdoa2new.ts-1,   ,-1199505152.0
tdoa2new.ts-2,   ,-1199505152.0
tdoa2new.ts-3,   ,-1199505152.0
tdoa2new.ts-4,   ,-1199505152.0
tdoa2new.ts-5,   ,-1199505152.0
tdoa2new.ts-6,   ,-1199505152.0
tdoa2new.ts-7,   ,-1199505152.0
tdoa2new.sn-0,   ,206.0
tdoa2new.sn-1,   ,206.0
tdoa2new.sn-2,   ,206.0
tdoa2new.sn-3,   ,206.0
tdoa2new.sn-4,   ,206.0
tdoa2new.sn-5,   ,206.0
tdoa2new.sn-6,   ,206.0
tdoa2new.sn-7,   ,206.0
tdoa2.d0-1,   ,-1.5482821464538574
tdoa2.d1-2,   ,-1.6186585426330566
tdoa2.d2-3,   ,5.648883819580078
tdoa2.d3-4,   ,1.1447904109954834
tdoa2.d4-5,   ,-3.683034658432007
tdoa2.d5-6,   ,1.4075292348861694
tdoa2.d6-7,   ,1.1447904109954834
tdoa2.d7-0,   ,0.28150585293769836
tdoa2new.ts-0,   ,-1199505152.0
tdoa2new.ts-1,   ,-1199505152.0
tdoa2new.ts-2,   ,-1199505152.0
tdoa2new.ts-3,   ,-1199505152.0
tdoa2new.ts-4,   ,-1199505152.0
tdoa2new.ts-5,   ,-1199505152.0
tdoa2new.ts-6,   ,-1199505152.0
tdoa2new.ts-7,   ,-1199505152.0
tdoa2new.sn-0,   ,206.0
tdoa2new.sn-1,   ,206.0
tdoa2new.sn-2,   ,206.0
tdoa2new.sn-3,   ,206.0
tdoa2new.sn-4,   ,206.0
tdoa2new.sn-5,   ,206.0
tdoa2new.sn-6,   ,206.0
tdoa2new.sn-7,   ,206.0
tdoa2.d0-1,   ,-1.5482821464538574
tdoa2.d1-2,   ,-1.6186585426330566
tdoa2.d2-3,   ,5.648883819580078
tdoa2.d3-4,   ,1.1447904109954834
tdoa2.d4-5,   ,-3.683034658432007
tdoa2.d5-6,   ,1.4075292348861694
tdoa2.d6-7,   ,1.1447904109954834
tdoa2.d7-0,   ,0.28150585293769836
tdoa2new.ts-0,   ,-1199505152.0
tdoa2new.ts-1,   ,-1199505152.0
tdoa2new.ts-2,   ,-1199505152.0
tdoa2new.ts-3,   ,-1199505152.0
tdoa2new.ts-4,   ,-1199505152.0
tdoa2new.ts-5,   ,-1199505152.0
tdoa2new.ts-6,   ,-1199505152.0
tdoa2new.ts-7,   ,-1199505152.0
tdoa2new.sn-0,   ,206.0
tdoa2new.sn-1,   ,206.0
tdoa2new.sn-2,   ,206.0
tdoa2new.sn-3,   ,206.0
tdoa2new.sn-4,   ,206.0
tdoa2new.sn-5,   ,206.0
tdoa2new.sn-6,   ,206.0
tdoa2new.sn-7,   ,206.0
tdoa2.d0-1,   ,-1.5482821464538574
tdoa2.d1-2,   ,-1.6186585426330566
tdoa2.d2-3,   ,5.648883819580078
tdoa2.d3-4,   ,1.1447904109954834
tdoa2.d4-5,   ,-3.683034658432007
tdoa2.d5-6,   ,1.4075292348861694
tdoa2.d6-7,   ,1.1447904109954834
tdoa2.d7-0,   ,0.28150585293769836
tdoa2new.ts-0,   ,-1199505152.0
tdoa2new.ts-1,   ,-1199505152.0
tdoa2new.ts-2,   ,-1199505152.0
tdoa2new.ts-3,   ,-1199505152.0
tdoa2new.ts-4,   ,-1199505152.0
tdoa2new.ts-5,   ,-1199505152.0
tdoa2new.ts-6,   ,-1199505152.0
tdoa2new.ts-7,   ,-1199505152.0
tdoa2new.sn-0,   ,206.0
tdoa2new.sn-1,   ,206.0
tdoa2new.sn-2,   ,206.0
tdoa2new.sn-3,   ,206.0
tdoa2new.sn-4,   ,206.0
tdoa2new.sn-5,   ,206.0
tdoa2new.sn-6,   ,206.0
tdoa2new.sn-7,   ,206.0
tdoa2.d0-1,   ,-1.5482821464538574
tdoa2.d1-2,   ,-1.6186585426330566
tdoa2.d2-3,   ,5.648883819580078
tdoa2.d3-4,   ,1.1447904109954834
tdoa2.d4-5,   ,-3.683034658432007
tdoa2.d5-6,   ,1.4075292348861694
tdoa2.d6-7,   ,1.1447904109954834
tdoa2.d7-0,   ,0.28150585293769836
tdoa2new.ts-0,   ,-1199505152.0
tdoa2new.ts-1,   ,-1199505152.0
tdoa2new.ts-2,   ,-1199505152.0
tdoa2new.ts-3,   ,-1199505152.0
tdoa2new.ts-4,   ,-1199505152.0
tdoa2new.ts-5,   ,-1199505152.0
tdoa2new.ts-6,   ,-1199505152.0
tdoa2new.ts-7,   ,-1199505152.0
tdoa2new.sn-0,   ,206.0
tdoa2new.sn-1,   ,206.0
tdoa2new.sn-2,   ,206.0
tdoa2new.sn-3,   ,206.0
tdoa2new.sn-4,   ,206.0
tdoa2new.sn-5,   ,206.0
tdoa2new.sn-6,   ,206.0
tdoa2new.sn-7,   ,206.0
tdoa2.d0-1,   ,-1.5482821464538574
tdoa2.d1-2,   ,-1.6186585426330566
tdoa2.d2-3,   ,5.648883819580078
tdoa2.d3-4,   ,1.1447904109954834
tdoa2.d4-5,   ,-3.683034658432007
tdoa2.d5-6,   ,1.4075292348861694
tdoa2.d6-7,   ,1.1447904109954834
tdoa2.d7-0,   ,0.28150585293769836
tdoa2new.ts-0,   ,-1199505152.0
tdoa2new.ts-1,   ,-1199505152.0
tdoa2new.ts-2,   ,-1199505152.0
tdoa2new.ts-3,   ,-1199505152.0
tdoa2new.ts-4,   ,-1199505152.0
tdoa2new.ts-5,   ,-1199505152.0
tdoa2new.ts-6,   ,-1199505152.0
tdoa2new.ts-7,   ,-1199505152.0
tdoa2new.sn-0,   ,206.0
tdoa2new.sn-1,   ,206.0
tdoa2new.sn-2,   ,206.0
tdoa2new.sn-3,   ,206.0
tdoa2new.sn-4,   ,206.0
tdoa2new.sn-5,   ,206.0
tdoa2new.sn-6,   ,206.0
tdoa2new.sn-7,   ,206.0
tdoa2.d0-1,   ,-1.5482821464538574
tdoa2.d1-2,   ,-1.6186585426330566
tdoa2.d2-3,   ,5.648883819580078
tdoa2.d3-4,   ,1.1447904109954834
tdoa2.d4-5,   ,-3.683034658432007
tdoa2.d5-6,   ,1.4075292348861694
tdoa2.d6-7,   ,1.1447904109954834
tdoa2.d7-0,   ,0.28150585293769836
tdoa2new.ts-0,   ,-1199505152.0
tdoa2new.ts-1,   ,-1199505152.0
tdoa2new.ts-2,   ,-1199505152.0
tdoa2new.ts-3,   ,-1199505152.0
tdoa2new.ts-4,   ,-1199505152.0
tdoa2new.ts-5,   ,-1199505152.0
tdoa2new.ts-6,   ,-1199505152.0
tdoa2new.ts-7,   ,-1199505152.0
tdoa2new.sn-0,   ,206.0
tdoa2new.sn-1,   ,206.0
tdoa2new.sn-2,   ,206.0
tdoa2new.sn-3,   ,206.0
tdoa2new.sn-4,   ,206.0
tdoa2new.sn-5,   ,206.0
tdoa2new.sn-6,   ,206.0
tdoa2new.sn-7,   ,206.0
tdoa2.d0-1,   ,-1.5482821464538574
tdoa2.d1-2,   ,-1.6186585426330566
tdoa2.d2-3,   ,5.648883819580078
tdoa2.d3-4,   ,1.1447904109954834
tdoa2.d4-5,   ,-3.683034658432007
tdoa2.d5-6,   ,1.4075292348861694
tdoa2.d6-7,   ,1.1447904109954834
tdoa2.d7-0,   ,0.28150585293769836
tdoa2new.ts-0,   ,-1199505152.0
tdoa2new.ts-1,   ,-1199505152.0
tdoa2new.ts-2,   ,-1199505152.0
tdoa2new.ts-3,   ,-1199505152.0
tdoa2new.ts-4,   ,-1199505152.0
tdoa2new.ts-5,   ,-1199505152.0
tdoa2new.ts-6,   ,-1199505152.0
tdoa2new.ts-7,   ,-1199505152.0
tdoa2new.sn-0,   ,206.0
tdoa2new.sn-1,   ,206.0
tdoa2new.sn-2,   ,206.0
tdoa2new.sn-3,   ,206.0
tdoa2new.sn-4,   ,206.0
tdoa2new.sn-5,   ,206.0
tdoa2new.sn-6,   ,206.0
tdoa2new.sn-7,   ,206.0
tdoa2.d0-1,   ,-1.5482821464538574
tdoa2.d1-2,   ,-1.6186585426330566
tdoa2.d2-3,   ,5.648883819580078
tdoa2.d3-4,   ,1.1447904109954834
tdoa2.d4-5,   ,-3.683034658432007
tdoa2.d5-6,   ,1.4075292348861694
tdoa2.d6-7,   ,1.1447904109954834
tdoa2.d7-0,   ,0.28150585293769836
tdoa2new.ts-0,   ,-1199505152.0
tdoa2new.ts-1,   ,-1199505152.0
tdoa2new.ts-2,   ,-1199505152.0
tdoa2new.ts-3,   ,-1199505152.0
tdoa2new.ts-4,   ,-1199505152.0
tdoa2new.ts-5,   ,-1199505152.0
tdoa2new.ts-6,   ,-1199505152.0
tdoa2new.ts-7,   ,-1199505152.0
tdoa2new.sn-0,   ,206.0
tdoa2new.sn-1,   ,206.0
tdoa2new.sn-2,   ,206.0
tdoa2new.sn-3,   ,206.0
tdoa2new.sn-4,   ,206.0
tdoa2new.sn-5,   ,206.0
tdoa2new.sn-6,   ,206.0
tdoa2new.sn-7,   ,206.0
tdoa2.d0-1,   ,-1.5482821464538574
tdoa2.d1-2,   ,-1.6186585426330566
tdoa2.d2-3,   ,5.648883819580078
tdoa2.d3-4,   ,1.1447904109954834
tdoa2.d4-5,   ,-3.683034658432007
tdoa2.d5-6,   ,1.4075292348861694
tdoa2.d6-7,   ,1.1447904109954834
tdoa2.d7-0,   ,0.28150585293769836
tdoa2new.ts-0,   ,-1199505152.0
tdoa2new.ts-1,   ,-1199505152.0
tdoa2new.ts-2,   ,-1199505152.0
tdoa2new.ts-3,   ,-1199505152.0
tdoa2new.ts-4,   ,-1199505152.0
tdoa2new.ts-5,   ,-1199505152.0
tdoa2new.ts-6,   ,-1199505152.0
tdoa2new.ts-7,   ,-1199505152.0
tdoa2new.sn-0,   ,206.0
tdoa2new.sn-1,   ,206.0
tdoa2new.sn-2,   ,206.0
tdoa2new.sn-3,   ,206.0
tdoa2new.sn-4,   ,206.0
tdoa2new.sn-5,   ,206.0
tdoa2new.sn-6,   ,206.0
tdoa2new.sn-7,   ,206.0
tdoa2.d0-1,   ,-1.5482821464538574
tdoa2.d1-2,   ,-1.6186585426330566
tdoa2.d2-3,   ,5.648883819580078
tdoa2.d3-4,   ,1.1447904109954834
tdoa2.d4-5,   ,-3.683034658432007
tdoa2.d5-6,   ,1.4075292348861694
tdoa2.d6-7,   ,1.1447904109954834
tdoa2.d7-0,   ,0.28150585293769836
tdoa2new.ts-0,   ,-1199505152.0
tdoa2new.ts-1,   ,-1199505152.0
tdoa2new.ts-2,   ,-1199505152.0
tdoa2new.ts-3,   ,-1199505152.0
tdoa2new.ts-4,   ,-1199505152.0
tdoa2new.ts-5,   ,-1199505152.0
tdoa2new.ts-6,   ,-1199505152.0
tdoa2new.ts-7,   ,-1199505152.0
tdoa2new.sn-0,   ,206.0
tdoa2new.sn-1,   ,206.0
tdoa2new.sn-2,   ,206.0
tdoa2new.sn-3,   ,206.0
tdoa2new.sn-4,   ,206.0
tdoa2new.sn-5,   ,206.0
tdoa2new.sn-6,   ,206.0
tdoa2new.sn-7,   ,206.0
tdoa2.d0-1,   ,-1.5482821464538574
tdoa2.d1-2,   ,-1.6186585426330566
tdoa2.d2-3,   ,5.648883819580078
tdoa2.d3-4,   ,1.1447904109954834
tdoa2.d4-5,   ,-3.683034658432007
tdoa2.d5-6,   ,1.4075292348861694
tdoa2.d6-7,   ,1.1447904109954834
tdoa2.d7-0,   ,0.28150585293769836
tdoa2new.ts-0,   ,-1199505152.0
tdoa2new.ts-1,   ,-1199505152.0
tdoa2new.ts-2,   ,-1199505152.0
tdoa2new.ts-3,   ,-1199505152.0
tdoa2new.ts-4,   ,-1199505152.0
tdoa2new.ts-5,   ,-1199505152.0
tdoa2new.ts-6,   ,-1199505152.0
tdoa2new.ts-7,   ,-1199505152.0
tdoa2new.sn-0,   ,206.0
tdoa2new.sn-1,   ,206.0
tdoa2new.sn-2,   ,206.0
tdoa2new.sn-3,   ,206.0
tdoa2new.sn-4,   ,206.0
tdoa2new.sn-5,   ,206.0
tdoa2new.sn-6,   ,206.0
tdoa2new.sn-7,   ,206.0
tdoa2.d0-1,   ,-1.5482821464538574
tdoa2.d1-2,   ,-1.6186585426330566
tdoa2.d2-3,   ,5.648883819580078
tdoa2.d3-4,   ,1.1447904109954834
tdoa2.d4-5,   ,-3.683034658432007
tdoa2.d5-6,   ,1.4075292348861694
tdoa2.d6-7,   ,1.1447904109954834
tdoa2.d7-0,   ,0.28150585293769836
tdoa2new.ts-0,   ,-1199505152.0
tdoa2new.ts-1,   ,-1199505152.0
tdoa2new.ts-2,   ,-1199505152.0
tdoa2new.ts-3,   ,-1199505152.0
tdoa2new.ts-4,   ,-1199505152.0
tdoa2new.ts-5,   ,-1199505152.0
tdoa2new.ts-6,   ,-1199505152.0
tdoa2new.ts-7,   ,-1199505152.0
tdoa2new.sn-0,   ,206.0
tdoa2new.sn-1,   ,206.0
tdoa2new.sn-2,   ,206.0
tdoa2new.sn-3,   ,206.0
tdoa2new.sn-4,   ,206.0
tdoa2new.sn-5,   ,206.0
tdoa2new.sn-6,   ,206.0
tdoa2new.sn-7,   ,206.0
tdoa2.d0-1,   ,-1.5482821464538574
tdoa2.d1-2,   ,-1.6186585426330566
tdoa2.d2-3,   ,5.648883819580078
tdoa2.d3-4,   ,1.1447904109954834
tdoa2.d4-5,   ,-3.683034658432007
tdoa2.d5-6,   ,1.4075292348861694
tdoa2.d6-7,   ,1.1447904109954834
tdoa2.d7-0,   ,0.28150585293769836
tdoa2new.ts-0,   ,-1199505152.0
tdoa2new.ts-1,   ,-1199505152.0
tdoa2new.ts-2,   ,-1199505152.0
tdoa2new.ts-3,   ,-1199505152.0
tdoa2new.ts-4,   ,-1199505152.0
tdoa2new.ts-5,   ,-1199505152.0
tdoa2new.ts-6,   ,-1199505152.0
tdoa2new.ts-7,   ,-1199505152.0
tdoa2new.sn-0,   ,206.0
tdoa2new.sn-1,   ,206.0
tdoa2new.sn-2,   ,206.0
tdoa2new.sn-3,   ,206.0
tdoa2new.sn-4,   ,206.0
tdoa2new.sn-5,   ,206.0
tdoa2new.sn-6,   ,206.0
tdoa2new.sn-7,   ,206.0
tdoa2.d0-1,   ,-1.5482821464538574
tdoa2.d1-2,   ,-1.6186585426330566
tdoa2.d2-3,   ,5.648883819580078
tdoa2.d3-4,   ,1.1447904109954834
tdoa2.d4-5,   ,-3.683034658432007
tdoa2.d5-6,   ,1.4075292348861694
tdoa2.d6-7,   ,1.1447904109954834
tdoa2.d7-0,   ,0.28150585293769836
tdoa2new.ts-0,   ,-1199505152.0
tdoa2new.ts-1,   ,-1199505152.0
tdoa2new.ts-2,   ,-1199505152.0
tdoa2new.ts-3,   ,-1199505152.0
tdoa2new.ts-4,   ,-1199505152.0
tdoa2new.ts-5,   ,-1199505152.0
tdoa2new.ts-6,   ,-1199505152.0
tdoa2new.ts-7,   ,-1199505152.0
tdoa2new.sn-0,   ,206.0
tdoa2new.sn-1,   ,206.0
tdoa2new.sn-2,   ,206.0
tdoa2new.sn-3,   ,206.0
tdoa2new.sn-4,   ,206.0
tdoa2new.sn-5,   ,206.0
tdoa2new.sn-6,   ,206.0
tdoa2new.sn-7,   ,206.0
tdoa2.d0-1,   ,-1.5482821464538574
tdoa2.d1-2,   ,-1.6186585426330566
tdoa2.d2-3,   ,5.648883819580078
tdoa2.d3-4,   ,1.1447904109954834
tdoa2.d4-5,   ,-3.683034658432007
tdoa2.d5-6,   ,1.4075292348861694
tdoa2.d6-7,   ,1.1447904109954834
tdoa2.d7-0,   ,0.28150585293769836
tdoa2new.ts-0,   ,-1199505152.0
tdoa2new.ts-1,   ,-1199505152.0
tdoa2new.ts-2,   ,-1199505152.0
tdoa2new.ts-3,   ,-1199505152.0
tdoa2new.ts-4,   ,-1199505152.0
tdoa2new.ts-5,   ,-1199505152.0
tdoa2new.ts-6,   ,-1199505152.0
tdoa2new.ts-7,   ,-1199505152.0
tdoa2new.sn-0,   ,206.0
tdoa2new.sn-1,   ,206.0
tdoa2new.sn-2,   ,206.0
tdoa2new.sn-3,   ,206.0
tdoa2new.sn-4,   ,206.0
tdoa2new.sn-5,   ,206.0
tdoa2new.sn-6,   ,206.0
tdoa2new.sn-7,   ,206.0
tdoa2.d0-1,   ,-1.5482821464538574
tdoa2.d1-2,   ,-1.6186585426330566
tdoa2.d2-3,   ,5.648883819580078
tdoa2.d3-4,   ,1.1447904109954834
tdoa2.d4-5,   ,-3.683034658432007
tdoa2.d5-6,   ,1.4075292348861694
tdoa2.d6-7,   ,1.1447904109954834
tdoa2.d7-0,   ,0.28150585293769836
tdoa2new.ts-0,   ,-1199505152.0
tdoa2new.ts-1,   ,-1199505152.0
tdoa2new.ts-2,   ,-1199505152.0
tdoa2new.ts-3,   ,-1199505152.0
tdoa2new.ts-4,   ,-1199505152.0
tdoa2new.ts-5,   ,-1199505152.0
tdoa2new.ts-6,   ,-1199505152.0
tdoa2new.ts-7,   ,-1199505152.0
tdoa2new.sn-0,   ,206.0
tdoa2new.sn-1,   ,206.0
tdoa2new.sn-2,   ,206.0
tdoa2new.sn-3,   ,206.0
tdoa2new.sn-4,   ,206.0
tdoa2new.sn-5,   ,206.0
tdoa2new.sn-6,   ,206.0
tdoa2new.sn-7,   ,206.0
tdoa2.d0-1,   ,-1.5482821464538574
tdoa2.d1-2,   ,-1.6186585426330566
tdoa2.d2-3,   ,5.648883819580078
tdoa2.d3-4,   ,1.1447904109954834
tdoa2.d4-5,   ,-3.683034658432007
tdoa2.d5-6,   ,1.4075292348861694
tdoa2.d6-7,   ,1.1447904109954834
tdoa2.d7-0,   ,0.28150585293769836
tdoa2new.ts-0,   ,-1199505152.0
tdoa2new.ts-1,   ,-1199505152.0
tdoa2new.ts-2,   ,-1199505152.0
tdoa2new.ts-3,   ,-1199505152.0
tdoa2new.ts-4,   ,-1199505152.0
tdoa2new.ts-5,   ,-1199505152.0
tdoa2new.ts-6,   ,-1199505152.0
tdoa2new.ts-7,   ,-1199505152.0
tdoa2new.sn-0,   ,206.0
tdoa2new.sn-1,   ,206.0
tdoa2new.sn-2,   ,206.0
tdoa2new.sn-3,   ,206.0
tdoa2new.sn-4,   ,206.0
tdoa2new.sn-5,   ,206.0
tdoa2new.sn-6,   ,206.0
tdoa2new.sn-7,   ,206.0
tdoa2.d0-1,   ,-1.5482821464538574
tdoa2.d1-2,   ,-1.6186585426330566
tdoa2.d2-3,   ,5.648883819580078
tdoa2.d3-4,   ,1.1447904109954834
tdoa2.d4-5,   ,-3.683034658432007
tdoa2.d5-6,   ,1.4075292348861694
tdoa2.d6-7,   ,1.1447904109954834
tdoa2.d7-0,   ,0.28150585293769836
tdoa2new.ts-0,   ,-1199505152.0
tdoa2new.ts-1,   ,-1199505152.0
tdoa2new.ts-2,   ,-1199505152.0
tdoa2new.ts-3,   ,-1199505152.0
tdoa2new.ts-4,   ,-1199505152.0
tdoa2new.ts-5,   ,-1199505152.0
tdoa2new.ts-6,   ,-1199505152.0
tdoa2new.ts-7,   ,-1199505152.0
tdoa2new.sn-0,   ,206.0
tdoa2new.sn-1,   ,206.0
tdoa2new.sn-2,   ,206.0
tdoa2new.sn-3,   ,206.0
tdoa2new.sn-4,   ,206.0
tdoa2new.sn-5,   ,206.0
tdoa2new.sn-6,   ,206.0
tdoa2new.sn-7,   ,206.0
tdoa2.d0-1,   ,-1.5482821464538574
tdoa2.d1-2,   ,-1.6186585426330566
tdoa2.d2-3,   ,5.648883819580078
tdoa2.d3-4,   ,1.1447904109954834
tdoa2.d4-5,   ,-3.683034658432007
tdoa2.d5-6,   ,1.4075292348861694
tdoa2.d6-7,   ,1.1447904109954834
tdoa2.d7-0,   ,0.28150585293769836
tdoa2new.ts-0,   ,-1199505152.0
tdoa2new.ts-1,   ,-1199505152.0
tdoa2new.ts-2,   ,-1199505152.0
tdoa2new.ts-3,   ,-1199505152.0
tdoa2new.ts-4,   ,-1199505152.0
tdoa2new.ts-5,   ,-1199505152.0
tdoa2new.ts-6,   ,-1199505152.0
tdoa2new.ts-7,   ,-1199505152.0
tdoa2new.sn-0,   ,206.0
tdoa2new.sn-1,   ,206.0
tdoa2new.sn-2,   ,206.0
tdoa2new.sn-3,   ,206.0
tdoa2new.sn-4,   ,206.0
tdoa2new.sn-5,   ,206.0
tdoa2new.sn-6,   ,206.0
tdoa2new.sn-7,   ,206.0
tdoa2.d0-1,   ,-1.5482821464538574
tdoa2.d1-2,   ,-1.6186585426330566
tdoa2.d2-3,   ,5.648883819580078
tdoa2.d3-4,   ,1.1447904109954834
tdoa2.d4-5,   ,-3.683034658432007
tdoa2.d5-6,   ,1.4075292348861694
tdoa2.d6-7,   ,1.1447904109954834
tdoa2.d7-0,   ,0.28150585293769836
tdoa2new.ts-0,   ,-1199505152.0
tdoa2new.ts-1,   ,-1199505152.0
tdoa2new.ts-2,   ,-1199505152.0
tdoa2new.ts-3,   ,-1199505152.0
tdoa2new.ts-4,   ,-1199505152.0
tdoa2new.ts-5,   ,-1199505152.0
tdoa2new.ts-6,   ,-1199505152.0
tdoa2new.ts-7,   ,-1199505152.0
tdoa2new.sn-0,   ,206.0
tdoa2new.sn-1,   ,206.0
tdoa2new.sn-2,   ,206.0
tdoa2new.sn-3,   ,206.0
tdoa2new.sn-4,   ,206.0
tdoa2new.sn-5,   ,206.0
tdoa2new.sn-6,   ,206.0
tdoa2new.sn-7,   ,206.0
tdoa2.d0-1,   ,-1.5482821464538574
tdoa2.d1-2,   ,-1.6186585426330566
tdoa2.d2-3,   ,5.648883819580078
tdoa2.d3-4,   ,1.1447904109954834
tdoa2.d4-5,   ,-3.683034658432007
tdoa2.d5-6,   ,1.4075292348861694
tdoa2.d6-7,   ,1.1447904109954834
tdoa2.d7-0,   ,0.28150585293769836
tdoa2new.ts-0,   ,-1199505152.0
tdoa2new.ts-1,   ,-1199505152.0
tdoa2new.ts-2,   ,-1199505152.0
tdoa2new.ts-3,   ,-1199505152.0
tdoa2new.ts-4,   ,-1199505152.0
tdoa2new.ts-5,   ,-1199505152.0
tdoa2new.ts-6,   ,-1199505152.0
tdoa2new.ts-7,   ,-1199505152.0
tdoa2new.sn-0,   ,206.0
tdoa2new.sn-1,   ,206.0
tdoa2new.sn-2,   ,206.0
tdoa2new.sn-3,   ,206.0
tdoa2new.sn-4,   ,206.0
tdoa2new.sn-5,   ,206.0
tdoa2new.sn-6,   ,206.0
tdoa2new.sn-7,   ,206.0
tdoa2.d0-1,   ,-1.5482821464538574
tdoa2.d1-2,   ,-1.6186585426330566
tdoa2.d2-3,   ,5.648883819580078
tdoa2.d3-4,   ,1.1447904109954834
tdoa2.d4-5,   ,-3.683034658432007
tdoa2.d5-6,   ,1.4075292348861694
tdoa2.d6-7,   ,1.1447904109954834
tdoa2.d7-0,   ,0.28150585293769836
tdoa2new.ts-0,   ,-1199505152.0
tdoa2new.ts-1,   ,-1199505152.0
tdoa2new.ts-2,   ,-1199505152.0
tdoa2new.ts-3,   ,-1199505152.0
tdoa2new.ts-4,   ,-1199505152.0
tdoa2new.ts-5,   ,-1199505152.0
tdoa2new.ts-6,   ,-1199505152.0
tdoa2new.ts-7,   ,-1199505152.0
tdoa2new.sn-0,   ,206.0
tdoa2new.sn-1,   ,206.0
tdoa2new.sn-2,   ,206.0
tdoa2new.sn-3,   ,206.0
tdoa2new.sn-4,   ,206.0
tdoa2new.sn-5,   ,206.0
tdoa2new.sn-6,   ,206.0
tdoa2new.sn-7,   ,206.0
tdoa2.d0-1,   ,-1.5482821464538574
tdoa2.d1-2,   ,-1.6186585426330566
tdoa2.d2-3,   ,5.648883819580078
tdoa2.d3-4,   ,1.1447904109954834
tdoa2.d4-5,   ,-3.683034658432007
tdoa2.d5-6,   ,1.4075292348861694
tdoa2.d6-7,   ,1.1447904109954834
tdoa2.d7-0,   ,0.28150585293769836
tdoa2new.ts-0,   ,-1199505152.0
tdoa2new.ts-1,   ,-1199505152.0
tdoa2new.ts-2,   ,-1199505152.0
tdoa2new.ts-3,   ,-1199505152.0
tdoa2new.ts-4,   ,-1199505152.0
tdoa2new.ts-5,   ,-1199505152.0
tdoa2new.ts-6,   ,-1199505152.0
tdoa2new.ts-7,   ,-1199505152.0
tdoa2new.sn-0,   ,206.0
tdoa2new.sn-1,   ,206.0
tdoa2new.sn-2,   ,206.0
tdoa2new.sn-3,   ,206.0
tdoa2new.sn-4,   ,206.0
tdoa2new.sn-5,   ,206.0
tdoa2new.sn-6,   ,206.0
tdoa2new.sn-7,   ,206.0
tdoa2.d0-1,   ,-1.5482821464538574
tdoa2.d1-2,   ,-1.6186585426330566
tdoa2.d2-3,   ,5.648883819580078
tdoa2.d3-4,   ,1.1447904109954834
tdoa2.d4-5,   ,-3.683034658432007
tdoa2.d5-6,   ,1.4075292348861694
tdoa2.d6-7,   ,1.1447904109954834
tdoa2.d7-0,   ,0.28150585293769836
tdoa2new.ts-0,   ,-1199505152.0
tdoa2new.ts-1,   ,-1199505152.0
tdoa2new.ts-2,   ,-1199505152.0
tdoa2new.ts-3,   ,-1199505152.0
tdoa2new.ts-4,   ,-1199505152.0
tdoa2new.ts-5,   ,-1199505152.0
tdoa2new.ts-6,   ,-1199505152.0
tdoa2new.ts-7,   ,-1199505152.0
tdoa2new.sn-0,   ,206.0
tdoa2new.sn-1,   ,206.0
tdoa2new.sn-2,   ,206.0
tdoa2new.sn-3,   ,206.0
tdoa2new.sn-4,   ,206.0
tdoa2new.sn-5,   ,206.0
tdoa2new.sn-6,   ,206.0
tdoa2new.sn-7,   ,206.0
tdoa2.d0-1,   ,-1.5482821464538574
tdoa2.d1-2,   ,-1.6186585426330566
tdoa2.d2-3,   ,5.648883819580078
tdoa2.d3-4,   ,1.1447904109954834
tdoa2.d4-5,   ,-3.683034658432007
tdoa2.d5-6,   ,1.4075292348861694
tdoa2.d6-7,   ,1.1447904109954834
tdoa2.d7-0,   ,0.28150585293769836
tdoa2new.ts-0,   ,-1199505152.0
tdoa2new.ts-1,   ,-1199505152.0
tdoa2new.ts-2,   ,-1199505152.0
tdoa2new.ts-3,   ,-1199505152.0
tdoa2new.ts-4,   ,-1199505152.0
tdoa2new.ts-5,   ,-1199505152.0
tdoa2new.ts-6,   ,-1199505152.0
tdoa2new.ts-7,   ,-1199505152.0
tdoa2new.sn-0,   ,206.0
tdoa2new.sn-1,   ,206.0
tdoa2new.sn-2,   ,206.0
tdoa2new.sn-3,   ,206.0
tdoa2new.sn-4,   ,206.0
tdoa2new.sn-5,   ,206.0
tdoa2new.sn-6,   ,206.0
tdoa2new.sn-7,   ,206.0
tdoa2.d0-1,   ,-1.5482821464538574
tdoa2.d1-2,   ,-1.6186585426330566
tdoa2.d2-3,   ,5.648883819580078
tdoa2.d3-4,   ,1.1447904109954834
tdoa2.d4-5,   ,-3.683034658432007
tdoa2.d5-6,   ,1.4075292348861694
tdoa2.d6-7,   ,1.1447904109954834
tdoa2.d7-0,   ,0.28150585293769836
tdoa2new.ts-0,   ,-1199505152.0
tdoa2new.ts-1,   ,-1199505152.0
tdoa2new.ts-2,   ,-1199505152.0
tdoa2new.ts-3,   ,-1199505152.0
tdoa2new.ts-4,   ,-1199505152.0
tdoa2new.ts-5,   ,-1199505152.0
tdoa2new.ts-6,   ,-1199505152.0
tdoa2new.ts-7,   ,-1199505152.0
tdoa2new.sn-0,   ,206.0
tdoa2new.sn-1,   ,206.0
tdoa2new.sn-2,   ,206.0
tdoa2new.sn-3,   ,206.0
tdoa2new.sn-4,   ,206.0
tdoa2new.sn-5,   ,206.0
tdoa2new.sn-6,   ,206.0
tdoa2new.sn-7,   ,206.0
tdoa2.d0-1,   ,-1.5482821464538574
tdoa2.d1-2,   ,-1.6186585426330566
tdoa2.d2-3,   ,5.648883819580078
tdoa2.d3-4,   ,1.1447904109954834
tdoa2.d4-5,   ,-3.683034658432007
tdoa2.d5-6,   ,1.4075292348861694
tdoa2.d6-7,   ,1.1447904109954834
tdoa2.d7-0,   ,0.28150585293769836
tdoa2new.ts-0,   ,-1199505152.0
tdoa2new.ts-1,   ,-1199505152.0
tdoa2new.ts-2,   ,-1199505152.0
tdoa2new.ts-3,   ,-1199505152.0
tdoa2new.ts-4,   ,-1199505152.0
tdoa2new.ts-5,   ,-1199505152.0
tdoa2new.ts-6,   ,-1199505152.0
tdoa2new.ts-7,   ,-1199505152.0
tdoa2new.sn-0,   ,206.0
tdoa2new.sn-1,   ,206.0
tdoa2new.sn-2,   ,206.0
tdoa2new.sn-3,   ,206.0
tdoa2new.sn-4,   ,206.0
tdoa2new.sn-5,   ,206.0
tdoa2new.sn-6,   ,206.0
tdoa2new.sn-7,   ,206.0
tdoa2.d0-1,   ,-1.5482821464538574
tdoa2.d1-2,   ,-1.6186585426330566
tdoa2.d2-3,   ,5.648883819580078
tdoa2.d3-4,   ,1.1447904109954834
tdoa2.d4-5,   ,-3.683034658432007
tdoa2.d5-6,   ,1.4075292348861694
tdoa2.d6-7,   ,1.1447904109954834
tdoa2.d7-0,   ,0.28150585293769836
tdoa2new.ts-0,   ,-1199505152.0
tdoa2new.ts-1,   ,-1199505152.0
tdoa2new.ts-2,   ,-1199505152.0
tdoa2new.ts-3,   ,-1199505152.0
tdoa2new.ts-4,   ,-1199505152.0
tdoa2new.ts-5,   ,-1199505152.0
tdoa2new.ts-6,   ,-1199505152.0
tdoa2new.ts-7,   ,-1199505152.0
tdoa2new.sn-0,   ,206.0
tdoa2new.sn-1,   ,206.0
tdoa2new.sn-2,   ,206.0
tdoa2new.sn-3,   ,206.0
tdoa2new.sn-4,   ,206.0
tdoa2new.sn-5,   ,206.0
tdoa2new.sn-6,   ,206.0
tdoa2new.sn-7,   ,206.0
tdoa2.d0-1,   ,-1.5482821464538574
tdoa2.d1-2,   ,-1.6186585426330566
tdoa2.d2-3,   ,5.648883819580078
tdoa2.d3-4,   ,1.1447904109954834
tdoa2.d4-5,   ,-3.683034658432007
tdoa2.d5-6,   ,1.4075292348861694
tdoa2.d6-7,   ,1.1447904109954834
tdoa2.d7-0,   ,0.28150585293769836
tdoa2new.ts-0,   ,-1199505152.0
tdoa2new.ts-1,   ,-1199505152.0
tdoa2new.ts-2,   ,-1199505152.0
tdoa2new.ts-3,   ,-1199505152.0
tdoa2new.ts-4,   ,-1199505152.0
tdoa2new.ts-5,   ,-1199505152.0
tdoa2new.ts-6,   ,-1199505152.0
tdoa2new.ts-7,   ,-1199505152.0
tdoa2new.sn-0,   ,206.0
tdoa2new.sn-1,   ,206.0
tdoa2new.sn-2,   ,206.0
tdoa2new.sn-3,   ,206.0
tdoa2new.sn-4,   ,206.0
tdoa2new.sn-5,   ,206.0
tdoa2new.sn-6,   ,206.0
tdoa2new.sn-7,   ,206.0
tdoa2.d0-1,   ,-1.5482821464538574
tdoa2.d1-2,   ,-1.6186585426330566
tdoa2.d2-3,   ,5.648883819580078
tdoa2.d3-4,   ,1.1447904109954834
tdoa2.d4-5,   ,-3.683034658432007
tdoa2.d5-6,   ,1.4075292348861694
tdoa2.d6-7,   ,1.1447904109954834
tdoa2.d7-0,   ,0.28150585293769836
tdoa2new.ts-0,   ,-1199505152.0
tdoa2new.ts-1,   ,-1199505152.0
tdoa2new.ts-2,   ,-1199505152.0
tdoa2new.ts-3,   ,-1199505152.0
tdoa2new.ts-4,   ,-1199505152.0
tdoa2new.ts-5,   ,-1199505152.0
tdoa2new.ts-6,   ,-1199505152.0
tdoa2new.ts-7,   ,-1199505152.0
tdoa2new.sn-0,   ,206.0
tdoa2new.sn-1,   ,206.0
tdoa2new.sn-2,   ,206.0
tdoa2new.sn-3,   ,206.0
tdoa2new.sn-4,   ,206.0
tdoa2new.sn-5,   ,206.0
tdoa2new.sn-6,   ,206.0
tdoa2new.sn-7,   ,206.0
tdoa2.d0-1,   ,-1.5482821464538574
tdoa2.d1-2,   ,-1.6186585426330566
tdoa2.d2-3,   ,5.648883819580078
tdoa2.d3-4,   ,1.1447904109954834
tdoa2.d4-5,   ,-3.683034658432007
tdoa2.d5-6,   ,1.4075292348861694
tdoa2.d6-7,   ,1.1447904109954834
tdoa2.d7-0,   ,0.28150585293769836
tdoa2new.ts-0,   ,-1199505152.0
tdoa2new.ts-1,   ,-1199505152.0
tdoa2new.ts-2,   ,-1199505152.0
tdoa2new.ts-3,   ,-1199505152.0
tdoa2new.ts-4,   ,-1199505152.0
tdoa2new.ts-5,   ,-1199505152.0
tdoa2new.ts-6,   ,-1199505152.0
tdoa2new.ts-7,   ,-1199505152.0
tdoa2new.sn-0,   ,206.0
tdoa2new.sn-1,   ,206.0
tdoa2new.sn-2,   ,206.0
tdoa2new.sn-3,   ,206.0
tdoa2new.sn-4,   ,206.0
tdoa2new.sn-5,   ,206.0
tdoa2new.sn-6,   ,206.0
tdoa2new.sn-7,   ,206.0
tdoa2.d0-1,   ,-1.5482821464538574
tdoa2.d1-2,   ,-1.6186585426330566
tdoa2.d2-3,   ,5.648883819580078
tdoa2.d3-4,   ,1.1447904109954834
tdoa2.d4-5,   ,-3.683034658432007
tdoa2.d5-6,   ,1.4075292348861694
tdoa2.d6-7,   ,1.1447904109954834
tdoa2.d7-0,   ,0.28150585293769836
tdoa2new.ts-0,   ,-1199505152.0
tdoa2new.ts-1,   ,-1199505152.0
tdoa2new.ts-2,   ,-1199505152.0
tdoa2new.ts-3,   ,-1199505152.0
tdoa2new.ts-4,   ,-1199505152.0
tdoa2new.ts-5,   ,-1199505152.0
tdoa2new.ts-6,   ,-1199505152.0
tdoa2new.ts-7,   ,-1199505152.0
tdoa2new.sn-0,   ,206.0
tdoa2new.sn-1,   ,206.0
tdoa2new.sn-2,   ,206.0
tdoa2new.sn-3,   ,206.0
tdoa2new.sn-4,   ,206.0
tdoa2new.sn-5,   ,206.0
tdoa2new.sn-6,   ,206.0
tdoa2new.sn-7,   ,206.0
tdoa2.d0-1,   ,-1.5482821464538574
tdoa2.d1-2,   ,-1.6186585426330566
tdoa2.d2-3,   ,5.648883819580078
tdoa2.d3-4,   ,1.1447904109954834
tdoa2.d4-5,   ,-3.683034658432007
tdoa2.d5-6,   ,1.4075292348861694
tdoa2.d6-7,   ,1.1447904109954834
tdoa2.d7-0,   ,0.28150585293769836
tdoa2new.ts-0,   ,-1199505152.0
tdoa2new.ts-1,   ,-1199505152.0
tdoa2new.ts-2,   ,-1199505152.0
tdoa2new.ts-3,   ,-1199505152.0
tdoa2new.ts-4,   ,-1199505152.0
tdoa2new.ts-5,   ,-1199505152.0
tdoa2new.ts-6,   ,-1199505152.0
tdoa2new.ts-7,   ,-1199505152.0
tdoa2new.sn-0,   ,206.0
tdoa2new.sn-1,   ,206.0
tdoa2new.sn-2,   ,206.0
tdoa2new.sn-3,   ,206.0
tdoa2new.sn-4,   ,206.0
tdoa2new.sn-5,   ,206.0
tdoa2new.sn-6,   ,206.0
tdoa2new.sn-7,   ,206.0
tdoa2.d0-1,   ,-1.5482821464538574
tdoa2.d1-2,   ,-1.6186585426330566
tdoa2.d2-3,   ,5.648883819580078
tdoa2.d3-4,   ,1.1447904109954834
tdoa2.d4-5,   ,-3.683034658432007
tdoa2.d5-6,   ,1.4075292348861694
tdoa2.d6-7,   ,1.1447904109954834
tdoa2.d7-0,   ,0.28150585293769836
tdoa2new.ts-0,   ,-1199505152.0
tdoa2new.ts-1,   ,-1199505152.0
tdoa2new.ts-2,   ,-1199505152.0
tdoa2new.ts-3,   ,-1199505152.0
tdoa2new.ts-4,   ,-1199505152.0
tdoa2new.ts-5,   ,-1199505152.0
tdoa2new.ts-6,   ,-1199505152.0
tdoa2new.ts-7,   ,-1199505152.0
tdoa2new.sn-0,   ,206.0
tdoa2new.sn-1,   ,206.0
tdoa2new.sn-2,   ,206.0
tdoa2new.sn-3,   ,206.0
tdoa2new.sn-4,   ,206.0
tdoa2new.sn-5,   ,206.0
tdoa2new.sn-6,   ,206.0
tdoa2new.sn-7,   ,206.0
tdoa2.d0-1,   ,-1.5482821464538574
tdoa2.d1-2,   ,-1.6186585426330566
tdoa2.d2-3,   ,5.648883819580078
tdoa2.d3-4,   ,1.1447904109954834
tdoa2.d4-5,   ,-3.683034658432007
tdoa2.d5-6,   ,1.4075292348861694
tdoa2.d6-7,   ,1.1447904109954834
tdoa2.d7-0,   ,0.28150585293769836
tdoa2new.ts-0,   ,-1199505152.0
tdoa2new.ts-1,   ,-1199505152.0
tdoa2new.ts-2,   ,-1199505152.0
tdoa2new.ts-3,   ,-1199505152.0
tdoa2new.ts-4,   ,-1199505152.0
tdoa2new.ts-5,   ,-1199505152.0
tdoa2new.ts-6,   ,-1199505152.0
tdoa2new.ts-7,   ,-1199505152.0
tdoa2new.sn-0,   ,206.0
tdoa2new.sn-1,   ,206.0
tdoa2new.sn-2,   ,206.0
tdoa2new.sn-3,   ,206.0
tdoa2new.sn-4,   ,206.0
tdoa2new.sn-5,   ,206.0
tdoa2new.sn-6,   ,206.0
tdoa2new.sn-7,   ,206.0
tdoa2.d0-1,   ,-1.5482821464538574
tdoa2.d1-2,   ,-1.6186585426330566
tdoa2.d2-3,   ,5.648883819580078
tdoa2.d3-4,   ,1.1447904109954834
tdoa2.d4-5,   ,-3.683034658432007
tdoa2.d5-6,   ,1.4075292348861694
tdoa2.d6-7,   ,1.1447904109954834
tdoa2.d7-0,   ,0.28150585293769836
tdoa2new.ts-0,   ,-1199505152.0
tdoa2new.ts-1,   ,-1199505152.0
tdoa2new.ts-2,   ,-1199505152.0
tdoa2new.ts-3,   ,-1199505152.0
tdoa2new.ts-4,   ,-1199505152.0
tdoa2new.ts-5,   ,-1199505152.0
tdoa2new.ts-6,   ,-1199505152.0
tdoa2new.ts-7,   ,-1199505152.0
tdoa2new.sn-0,   ,206.0
tdoa2new.sn-1,   ,206.0
tdoa2new.sn-2,   ,206.0
tdoa2new.sn-3,   ,206.0
tdoa2new.sn-4,   ,206.0
tdoa2new.sn-5,   ,206.0
tdoa2new.sn-6,   ,206.0
tdoa2new.sn-7,   ,206.0
tdoa2.d0-1,   ,-1.5482821464538574
tdoa2.d1-2,   ,-1.6186585426330566
tdoa2.d2-3,   ,5.648883819580078
tdoa2.d3-4,   ,1.1447904109954834
tdoa2.d4-5,   ,-3.683034658432007
tdoa2.d5-6,   ,1.4075292348861694
tdoa2.d6-7,   ,1.1447904109954834
tdoa2.d7-0,   ,0.28150585293769836
tdoa2new.ts-0,   ,-1199505152.0
tdoa2new.ts-1,   ,-1199505152.0
tdoa2new.ts-2,   ,-1199505152.0
tdoa2new.ts-3,   ,-1199505152.0
tdoa2new.ts-4,   ,-1199505152.0
tdoa2new.ts-5,   ,-1199505152.0
tdoa2new.ts-6,   ,-1199505152.0
tdoa2new.ts-7,   ,-1199505152.0
tdoa2new.sn-0,   ,206.0
tdoa2new.sn-1,   ,206.0
tdoa2new.sn-2,   ,206.0
tdoa2new.sn-3,   ,206.0
tdoa2new.sn-4,   ,206.0
tdoa2new.sn-5,   ,206.0
tdoa2new.sn-6,   ,206.0
tdoa2new.sn-7,   ,206.0
tdoa2.d0-1,   ,-1.5482821464538574
tdoa2.d1-2,   ,-1.6186585426330566
tdoa2.d2-3,   ,5.648883819580078
tdoa2.d3-4,   ,1.1447904109954834
tdoa2.d4-5,   ,-3.683034658432007
tdoa2.d5-6,   ,1.4075292348861694
tdoa2.d6-7,   ,1.1447904109954834
tdoa2.d7-0,   ,0.28150585293769836
tdoa2new.ts-0,   ,-1199505152.0
tdoa2new.ts-1,   ,-1199505152.0
tdoa2new.ts-2,   ,-1199505152.0
tdoa2new.ts-3,   ,-1199505152.0
tdoa2new.ts-4,   ,-1199505152.0
tdoa2new.ts-5,   ,-1199505152.0
tdoa2new.ts-6,   ,-1199505152.0
tdoa2new.ts-7,   ,-1199505152.0
tdoa2new.sn-0,   ,206.0
tdoa2new.sn-1,   ,206.0
tdoa2new.sn-2,   ,206.0
tdoa2new.sn-3,   ,206.0
tdoa2new.sn-4,   ,206.0
tdoa2new.sn-5,   ,206.0
tdoa2new.sn-6,   ,206.0
tdoa2new.sn-7,   ,206.0
tdoa2.d0-1,   ,-1.5482821464538574
tdoa2.d1-2,   ,-1.6186585426330566
tdoa2.d2-3,   ,5.648883819580078
tdoa2.d3-4,   ,1.1447904109954834
tdoa2.d4-5,   ,-3.683034658432007
tdoa2.d5-6,   ,1.4075292348861694
tdoa2.d6-7,   ,1.1447904109954834
tdoa2.d7-0,   ,0.28150585293769836
tdoa2new.ts-0,   ,-1199505152.0
tdoa2new.ts-1,   ,-1199505152.0
tdoa2new.ts-2,   ,-1199505152.0
tdoa2new.ts-3,   ,-1199505152.0
tdoa2new.ts-4,   ,-1199505152.0
tdoa2new.ts-5,   ,-1199505152.0
tdoa2new.ts-6,   ,-1199505152.0
tdoa2new.ts-7,   ,-1199505152.0
tdoa2new.sn-0,   ,206.0
tdoa2new.sn-1,   ,206.0
tdoa2new.sn-2,   ,206.0
tdoa2new.sn-3,   ,206.0
tdoa2new.sn-4,   ,206.0
tdoa2new.sn-5,   ,206.0
tdoa2new.sn-6,   ,206.0
tdoa2new.sn-7,   ,206.0
tdoa2.d0-1,   ,-1.5482821464538574
tdoa2.d1-2,   ,-1.6186585426330566
tdoa2.d2-3,   ,5.648883819580078
tdoa2.d3-4,   ,1.1447904109954834
tdoa2.d4-5,   ,-3.683034658432007
tdoa2.d5-6,   ,1.4075292348861694
tdoa2.d6-7,   ,1.1447904109954834
tdoa2.d7-0,   ,0.28150585293769836
tdoa2new.ts-0,   ,-1199505152.0
tdoa2new.ts-1,   ,-1199505152.0
tdoa2new.ts-2,   ,-1199505152.0
tdoa2new.ts-3,   ,-1199505152.0
tdoa2new.ts-4,   ,-1199505152.0
tdoa2new.ts-5,   ,-1199505152.0
tdoa2new.ts-6,   ,-1199505152.0
tdoa2new.ts-7,   ,-1199505152.0
tdoa2new.sn-0,   ,206.0
tdoa2new.sn-1,   ,206.0
tdoa2new.sn-2,   ,206.0
tdoa2new.sn-3,   ,206.0
tdoa2new.sn-4,   ,206.0
tdoa2new.sn-5,   ,206.0
tdoa2new.sn-6,   ,206.0
tdoa2new.sn-7,   ,206.0
tdoa2.d0-1,   ,-1.5482821464538574
tdoa2.d1-2,   ,-1.6186585426330566
tdoa2.d2-3,   ,5.648883819580078
tdoa2.d3-4,   ,1.1447904109954834
tdoa2.d4-5,   ,-3.683034658432007
tdoa2.d5-6,   ,1.4075292348861694
tdoa2.d6-7,   ,1.1447904109954834
tdoa2.d7-0,   ,0.28150585293769836
tdoa2new.ts-0,   ,-1199505152.0
tdoa2new.ts-1,   ,-1199505152.0
tdoa2new.ts-2,   ,-1199505152.0
tdoa2new.ts-3,   ,-1199505152.0
tdoa2new.ts-4,   ,-1199505152.0
tdoa2new.ts-5,   ,-1199505152.0
tdoa2new.ts-6,   ,-1199505152.0
tdoa2new.ts-7,   ,-1199505152.0
tdoa2new.sn-0,   ,206.0
tdoa2new.sn-1,   ,206.0
tdoa2new.sn-2,   ,206.0
tdoa2new.sn-3,   ,206.0
tdoa2new.sn-4,   ,206.0
tdoa2new.sn-5,   ,206.0
tdoa2new.sn-6,   ,206.0
tdoa2new.sn-7,   ,206.0
tdoa2.d0-1,   ,-1.5482821464538574
tdoa2.d1-2,   ,-1.6186585426330566
tdoa2.d2-3,   ,5.648883819580078
tdoa2.d3-4,   ,1.1447904109954834
tdoa2.d4-5,   ,-3.683034658432007
tdoa2.d5-6,   ,1.4075292348861694
tdoa2.d6-7,   ,1.1447904109954834
tdoa2.d7-0,   ,0.28150585293769836
tdoa2new.ts-0,   ,-1199505152.0
tdoa2new.ts-1,   ,-1199505152.0
tdoa2new.ts-2,   ,-1199505152.0
tdoa2new.ts-3,   ,-1199505152.0
tdoa2new.ts-4,   ,-1199505152.0
tdoa2new.ts-5,   ,-1199505152.0
tdoa2new.ts-6,   ,-1199505152.0
tdoa2new.ts-7,   ,-1199505152.0
tdoa2new.sn-0,   ,206.0
tdoa2new.sn-1,   ,206.0
tdoa2new.sn-2,   ,206.0
tdoa2new.sn-3,   ,206.0
tdoa2new.sn-4,   ,206.0
tdoa2new.sn-5,   ,206.0
tdoa2new.sn-6,   ,206.0
tdoa2new.sn-7,   ,206.0
tdoa2.d0-1,   ,-1.5482821464538574
tdoa2.d1-2,   ,-1.6186585426330566
tdoa2.d2-3,   ,5.648883819580078
tdoa2.d3-4,   ,1.1447904109954834
tdoa2.d4-5,   ,-3.683034658432007
tdoa2.d5-6,   ,1.4075292348861694
tdoa2.d6-7,   ,1.1447904109954834
tdoa2.d7-0,   ,0.28150585293769836
tdoa2new.ts-0,   ,-1199505152.0
tdoa2new.ts-1,   ,-1199505152.0
tdoa2new.ts-2,   ,-1199505152.0
tdoa2new.ts-3,   ,-1199505152.0
tdoa2new.ts-4,   ,-1199505152.0
tdoa2new.ts-5,   ,-1199505152.0
tdoa2new.ts-6,   ,-1199505152.0
tdoa2new.ts-7,   ,-1199505152.0
tdoa2new.sn-0,   ,206.0
tdoa2new.sn-1,   ,206.0
tdoa2new.sn-2,   ,206.0
tdoa2new.sn-3,   ,206.0
tdoa2new.sn-4,   ,206.0
tdoa2new.sn-5,   ,206.0
tdoa2new.sn-6,   ,206.0
tdoa2new.sn-7,   ,206.0
tdoa2.d0-1,   ,-1.5482821464538574
tdoa2.d1-2,   ,-1.6186585426330566
tdoa2.d2-3,   ,5.648883819580078
tdoa2.d3-4,   ,1.1447904109954834
tdoa2.d4-5,   ,-3.683034658432007
tdoa2.d5-6,   ,1.4075292348861694
tdoa2.d6-7,   ,1.1447904109954834
tdoa2.d7-0,   ,0.28150585293769836
tdoa2new.ts-0,   ,-1199505152.0
tdoa2new.ts-1,   ,-1199505152.0
tdoa2new.ts-2,   ,-1199505152.0
tdoa2new.ts-3,   ,-1199505152.0
tdoa2new.ts-4,   ,-1199505152.0
tdoa2new.ts-5,   ,-1199505152.0
tdoa2new.ts-6,   ,-1199505152.0
tdoa2new.ts-7,   ,-1199505152.0
tdoa2new.sn-0,   ,206.0
tdoa2new.sn-1,   ,206.0
tdoa2new.sn-2,   ,206.0
tdoa2new.sn-3,   ,206.0
tdoa2new.sn-4,   ,206.0
tdoa2new.sn-5,   ,206.0
tdoa2new.sn-6,   ,206.0
tdoa2new.sn-7,   ,206.0
tdoa2.d0-1,   ,-1.5482821464538574
tdoa2.d1-2,   ,-1.6186585426330566
tdoa2.d2-3,   ,5.648883819580078
tdoa2.d3-4,   ,1.1447904109954834
tdoa2.d4-5,   ,-3.683034658432007
tdoa2.d5-6,   ,1.4075292348861694
tdoa2.d6-7,   ,1.1447904109954834
tdoa2.d7-0,   ,0.28150585293769836
tdoa2new.ts-0,   ,-1199505152.0
tdoa2new.ts-1,   ,-1199505152.0
tdoa2new.ts-2,   ,-1199505152.0
tdoa2new.ts-3,   ,-1199505152.0
tdoa2new.ts-4,   ,-1199505152.0
tdoa2new.ts-5,   ,-1199505152.0
tdoa2new.ts-6,   ,-1199505152.0
tdoa2new.ts-7,   ,-1199505152.0
tdoa2new.sn-0,   ,206.0
tdoa2new.sn-1,   ,206.0
tdoa2new.sn-2,   ,206.0
tdoa2new.sn-3,   ,206.0
tdoa2new.sn-4,   ,206.0
tdoa2new.sn-5,   ,206.0
tdoa2new.sn-6,   ,206.0
tdoa2new.sn-7,   ,206.0
tdoa2.d0-1,   ,-1.5482821464538574
tdoa2.d1-2,   ,-1.6186585426330566
tdoa2.d2-3,   ,5.648883819580078
tdoa2.d3-4,   ,1.1447904109954834
tdoa2.d4-5,   ,-3.683034658432007
tdoa2.d5-6,   ,1.4075292348861694
tdoa2.d6-7,   ,1.1447904109954834
tdoa2.d7-0,   ,0.28150585293769836
tdoa2new.ts-0,   ,-1199505152.0
tdoa2new.ts-1,   ,-1199505152.0
tdoa2new.ts-2,   ,-1199505152.0
tdoa2new.ts-3,   ,-1199505152.0
tdoa2new.ts-4,   ,-1199505152.0
tdoa2new.ts-5,   ,-1199505152.0
tdoa2new.ts-6,   ,-1199505152.0
tdoa2new.ts-7,   ,-1199505152.0
tdoa2new.sn-0,   ,206.0
tdoa2new.sn-1,   ,206.0
tdoa2new.sn-2,   ,206.0
tdoa2new.sn-3,   ,206.0
tdoa2new.sn-4,   ,206.0
tdoa2new.sn-5,   ,206.0
tdoa2new.sn-6,   ,206.0
tdoa2new.sn-7,   ,206.0
tdoa2.d0-1,   ,-1.5482821464538574
tdoa2.d1-2,   ,-1.6186585426330566
tdoa2.d2-3,   ,5.648883819580078
tdoa2.d3-4,   ,1.1447904109954834
tdoa2.d4-5,   ,-3.683034658432007
tdoa2.d5-6,   ,1.4075292348861694
tdoa2.d6-7,   ,1.1447904109954834
tdoa2.d7-0,   ,0.28150585293769836
tdoa2new.ts-0,   ,-1199505152.0
tdoa2new.ts-1,   ,-1199505152.0
tdoa2new.ts-2,   ,-1199505152.0
tdoa2new.ts-3,   ,-1199505152.0
tdoa2new.ts-4,   ,-1199505152.0
tdoa2new.ts-5,   ,-1199505152.0
tdoa2new.ts-6,   ,-1199505152.0
tdoa2new.ts-7,   ,-1199505152.0
tdoa2new.sn-0,   ,206.0
tdoa2new.sn-1,   ,206.0
tdoa2new.sn-2,   ,206.0
tdoa2new.sn-3,   ,206.0
tdoa2new.sn-4,   ,206.0
tdoa2new.sn-5,   ,206.0
tdoa2new.sn-6,   ,206.0
tdoa2new.sn-7,   ,206.0
tdoa2.d0-1,   ,-1.5482821464538574
tdoa2.d1-2,   ,-1.6186585426330566
tdoa2.d2-3,   ,5.648883819580078
tdoa2.d3-4,   ,1.1447904109954834
tdoa2.d4-5,   ,-3.683034658432007
tdoa2.d5-6,   ,1.4075292348861694
tdoa2.d6-7,   ,1.1447904109954834
tdoa2.d7-0,   ,0.28150585293769836
tdoa2new.ts-0,   ,-1199505152.0
tdoa2new.ts-1,   ,-1199505152.0
tdoa2new.ts-2,   ,-1199505152.0
tdoa2new.ts-3,   ,-1199505152.0
tdoa2new.ts-4,   ,-1199505152.0
tdoa2new.ts-5,   ,-1199505152.0
tdoa2new.ts-6,   ,-1199505152.0
tdoa2new.ts-7,   ,-1199505152.0
tdoa2new.sn-0,   ,206.0
tdoa2new.sn-1,   ,206.0
tdoa2new.sn-2,   ,206.0
tdoa2new.sn-3,   ,206.0
tdoa2new.sn-4,   ,206.0
tdoa2new.sn-5,   ,206.0
tdoa2new.sn-6,   ,206.0
tdoa2new.sn-7,   ,206.0
tdoa2.d0-1,   ,-1.5482821464538574
tdoa2.d1-2,   ,-1.6186585426330566
tdoa2.d2-3,   ,5.648883819580078
tdoa2.d3-4,   ,1.1447904109954834
tdoa2.d4-5,   ,-3.683034658432007
tdoa2.d5-6,   ,1.4075292348861694
tdoa2.d6-7,   ,1.1447904109954834
tdoa2.d7-0,   ,0.28150585293769836
tdoa2new.ts-0,   ,-1199505152.0
tdoa2new.ts-1,   ,-1199505152.0
tdoa2new.ts-2,   ,-1199505152.0
tdoa2new.ts-3,   ,-1199505152.0
tdoa2new.ts-4,   ,-1199505152.0
tdoa2new.ts-5,   ,-1199505152.0
tdoa2new.ts-6,   ,-1199505152.0
tdoa2new.ts-7,   ,-1199505152.0
tdoa2new.sn-0,   ,206.0
tdoa2new.sn-1,   ,206.0
tdoa2new.sn-2,   ,206.0
tdoa2new.sn-3,   ,206.0
tdoa2new.sn-4,   ,206.0
tdoa2new.sn-5,   ,206.0
tdoa2new.sn-6,   ,206.0
tdoa2new.sn-7,   ,206.0
tdoa2.d0-1,   ,-1.5482821464538574
tdoa2.d1-2,   ,-1.6186585426330566
tdoa2.d2-3,   ,5.648883819580078
tdoa2.d3-4,   ,1.1447904109954834
tdoa2.d4-5,   ,-3.683034658432007
tdoa2.d5-6,   ,1.4075292348861694
tdoa2.d6-7,   ,1.1447904109954834
tdoa2.d7-0,   ,0.28150585293769836
tdoa2new.ts-0,   ,-1199505152.0
tdoa2new.ts-1,   ,-1199505152.0
tdoa2new.ts-2,   ,-1199505152.0
tdoa2new.ts-3,   ,-1199505152.0
tdoa2new.ts-4,   ,-1199505152.0
tdoa2new.ts-5,   ,-1199505152.0
tdoa2new.ts-6,   ,-1199505152.0
tdoa2new.ts-7,   ,-1199505152.0
tdoa2new.sn-0,   ,206.0
tdoa2new.sn-1,   ,206.0
tdoa2new.sn-2,   ,206.0
tdoa2new.sn-3,   ,206.0
tdoa2new.sn-4,   ,206.0
tdoa2new.sn-5,   ,206.0
tdoa2new.sn-6,   ,206.0
tdoa2new.sn-7,   ,206.0
tdoa2.d0-1,   ,-1.5482821464538574
tdoa2.d1-2,   ,-1.6186585426330566
tdoa2.d2-3,   ,5.648883819580078
tdoa2.d3-4,   ,1.1447904109954834
tdoa2.d4-5,   ,-3.683034658432007
tdoa2.d5-6,   ,1.4075292348861694
tdoa2.d6-7,   ,1.1447904109954834
tdoa2.d7-0,   ,0.28150585293769836
tdoa2new.ts-0,   ,-1199505152.0
tdoa2new.ts-1,   ,-1199505152.0
tdoa2new.ts-2,   ,-1199505152.0
tdoa2new.ts-3,   ,-1199505152.0
tdoa2new.ts-4,   ,-1199505152.0
tdoa2new.ts-5,   ,-1199505152.0
tdoa2new.ts-6,   ,-1199505152.0
tdoa2new.ts-7,   ,-1199505152.0
tdoa2new.sn-0,   ,206.0
tdoa2new.sn-1,   ,206.0
tdoa2new.sn-2,   ,206.0
tdoa2new.sn-3,   ,206.0
tdoa2new.sn-4,   ,206.0
tdoa2new.sn-5,   ,206.0
tdoa2new.sn-6,   ,206.0
tdoa2new.sn-7,   ,206.0
tdoa2.d0-1,   ,-1.5482821464538574
tdoa2.d1-2,   ,-1.6186585426330566
tdoa2.d2-3,   ,5.648883819580078
tdoa2.d3-4,   ,1.1447904109954834
tdoa2.d4-5,   ,-3.683034658432007
tdoa2.d5-6,   ,1.4075292348861694
tdoa2.d6-7,   ,1.1447904109954834
tdoa2.d7-0,   ,0.28150585293769836
tdoa2new.ts-0,   ,-1199505152.0
tdoa2new.ts-1,   ,-1199505152.0
tdoa2new.ts-2,   ,-1199505152.0
tdoa2new.ts-3,   ,-1199505152.0
tdoa2new.ts-4,   ,-1199505152.0
tdoa2new.ts-5,   ,-1199505152.0
tdoa2new.ts-6,   ,-1199505152.0
tdoa2new.ts-7,   ,-1199505152.0
tdoa2new.sn-0,   ,206.0
tdoa2new.sn-1,   ,206.0
tdoa2new.sn-2,   ,206.0
tdoa2new.sn-3,   ,206.0
tdoa2new.sn-4,   ,206.0
tdoa2new.sn-5,   ,206.0
tdoa2new.sn-6,   ,206.0
tdoa2new.sn-7,   ,206.0
tdoa2.d0-1,   ,-1.5482821464538574
tdoa2.d1-2,   ,-1.6186585426330566
tdoa2.d2-3,   ,5.648883819580078
tdoa2.d3-4,   ,1.1447904109954834
tdoa2.d4-5,   ,-3.683034658432007
tdoa2.d5-6,   ,1.4075292348861694
tdoa2.d6-7,   ,1.1447904109954834
tdoa2.d7-0,   ,0.28150585293769836
tdoa2new.ts-0,   ,-1199505152.0
tdoa2new.ts-1,   ,-1199505152.0
tdoa2new.ts-2,   ,-1199505152.0
tdoa2new.ts-3,   ,-1199505152.0
tdoa2new.ts-4,   ,-1199505152.0
tdoa2new.ts-5,   ,-1199505152.0
tdoa2new.ts-6,   ,-1199505152.0
tdoa2new.ts-7,   ,-1199505152.0
tdoa2new.sn-0,   ,206.0
tdoa2new.sn-1,   ,206.0
tdoa2new.sn-2,   ,206.0
tdoa2new.sn-3,   ,206.0
tdoa2new.sn-4,   ,206.0
tdoa2new.sn-5,   ,206.0
tdoa2new.sn-6,   ,206.0
tdoa2new.sn-7,   ,206.0
tdoa2.d0-1,   ,-1.5482821464538574
tdoa2.d1-2,   ,-1.6186585426330566
tdoa2.d2-3,   ,5.648883819580078
tdoa2.d3-4,   ,1.1447904109954834
tdoa2.d4-5,   ,-3.683034658432007
tdoa2.d5-6,   ,1.4075292348861694
tdoa2.d6-7,   ,1.1447904109954834
tdoa2.d7-0,   ,0.28150585293769836
tdoa2new.ts-0,   ,-1199505152.0
tdoa2new.ts-1,   ,-1199505152.0
tdoa2new.ts-2,   ,-1199505152.0
tdoa2new.ts-3,   ,-1199505152.0
tdoa2new.ts-4,   ,-1199505152.0
tdoa2new.ts-5,   ,-1199505152.0
