0.001713310251943767,0.034038323909044266,0.0015861568972468376,2.909104824066162,4.754565715789795,0.553127110004425,21.950414657592773
0.0015670786378905177,0.05703428015112877,0.001598587492480874,3.002894639968872,4.748253345489502,0.4818147122859955,10.48570966720581
0.0013426215155050159,0.05263576656579971,0.0017115442315116525,2.952122688293457,4.766232013702393,0.3159067928791046,4.995748519897461
0.0016060903435572982,0.05152278020977974,0.0015981207834556699,2.918611526489258,4.668824195861816,0.6155039072036743,8.985539197921753
0.0016968848649412394,0.05527034401893616,0.0017616155091673136,2.977518320083618,4.740958213806152,0.46364015340805054,7.986948013305664
0.001987811643630266,0.02135113626718521,0.0017370436107739806,2.8768253326416016,5.79844856262207,0.6017264723777771,8.495537281036377
0.0020121929701417685,0.057377949357032776,0.001697868574410677,2.90219783782959,4.620943546295166,0.3399870693683624,7.4886486530303955
0.0031673808116465807,0.04508334770798683,0.0021602236665785313,3.006446123123169,4.401124477386475,0.5014179944992065,4.996614933013916
0.0016937516629695892,0.02985212579369545,0.0015866811154410243,2.9213781356811523,4.761328220367432,0.3154354393482208,4.994512319564819
0.0015051293885335326,0.04583990201354027,0.0015529614174738526,2.947455406188965,4.753391265869141,0.4552723169326782,4.994793176651001
0.0014359332853928208,0.0431075394153595,0.001578993396833539,2.934373140335083,4.742443084716797,0.3994886577129364,4.995230674743652
